castanor_succession_war = {
	potential = {
		OR = {
			tag = B32
			tag = B61
		}
		has_global_flag = castanor_succession_war_enabled
		castonath_area = {
			type = all
			owned_by = ROOT
			is_core = ROOT
		}
	}

	
	
	can_start = {
		has_any_disaster = no
	}
	
	
	can_stop = {
        always = no
	}

	progress = {
		modifier = {
			factor = 5
			has_country_modifier = castanortrials_failed_alive
		}
		modifier = {
			factor = 3
			has_country_modifier = castanortrials_failed_dead
		}
		modifier = {
			factor = 1
			NOT = { stability = 1 }
		}
		modifier = {
			factor = 1
			NOT = { adm = 6 }
		}
		modifier = {
			factor = 1
			NOT = { mil = 6 }
		}
		modifier = {
			factor = 1
			NOT = { dip = 6 }
		}
		modifier = {
			factor = 1
			NOT = { legitimacy = 80 }
		}
		modifier = {
			factor = 1
			NOT = { legitimacy = 40 }
		}
		modifier = {
			factor = 0.5
			NOT = {
				estate_loyalty = {
					estate = estate_castonath_patricians
					loyalty = 60
				}
			}
		}
		modifier = {
			factor = 1
			NOT = {
				estate_loyalty = {
					estate = estate_castonath_patricians
					loyalty = 40
				}
			}
		}
		modifier = {
			factor = 100
			has_country_flag = castanor_succession_war_test
		}
	}
	
	can_end = {
		custom_trigger_tooltip = {
			tooltip = castanor_succession_war_end_po_condition
			always = no
		}
		custom_trigger_tooltip = {
			tooltip = castanor_succession_war_end_legitimacy_condition
			always = no
		}
	}
	

	modifier = {
		global_unrest = 5
		stability_cost_modifier = 0.5
		legitimacy = -3
		war_exhaustion = 0.1
	}
	
	
	on_start = flavor_castanor.204
	on_end = flavor_castanor.201
	
	on_monthly = {
		events = {
			flavor_castanor.206
		}
		random_events = { 
			100 = flavor_castanor.214 # Low Castan Legitimacy
			100 = flavor_castanor.215 # Low Castan Legitimacy
			200 = flavor_castanor.216 # Even Castan Legitimacy
			100 = flavor_castanor.217 # High Castan Legitimacy
			100 = flavor_castanor.218 # High Castan Legitimacy
			50 = flavor_castanor.219 # Lower Castan Legitimacy
			50 = flavor_castanor.220 # Raise Castan Legitimacy
			100 = flavor_castanor.221 # Small rebels rise

			1500 = 0
		}
	}
}

