name = "Thieving Arrow Raids on Gorihradin"
war_goal = {
	type = superiority_monster
	casus_belli = cb_monster_vs_civ
}

1443.1.1 = {
	add_attacker = H87
	add_defender = U13
}
1444.1.1 = {
	rem_attacker = H87
	rem_defender = U13
}