#Lastsight Islands
928 = "Topsycodd"
929 = "Gorwicodd"
930 = "Togscodd"
931 = "Cindacodd"

#Obaitháil
943 = "Silunt Meddo"
944 = "Obbfrodboolg"
945 = "Olsoora"
946 = "Doroy"
947 = "Armpoddoddod"
948 = "Snekvoddal"

#Endralliande
932 = "Oltifoor"
933 = "Hibisleek"
934 = "Floorbay"
935 = "Nobcodd"
936 = "Poppicodd"
937 = "Noo Docodd"
938 = "Lohoolpcodds"
939 = "Zoostercamb"
940 = "Farderspoddoddod"
941 = "Rooinarbad"
942 = "Orannsildedod"
1002 = "Boomcond"
1003 = "Norcap"
1004 = "Hierobbscamb"
1005 = "Brozoccanodd"
1006 = "Roddarbad"
1007 = "Bobbsild"
1008 = "Seeweg"
1009 = "Daccasreek"
1010 = "Bloorbad"
1011 = "Nelsfalonkplodd"
2126 = "Crodderoy"
2230 = "Obven Daccasild"
2788 = "Nimssid"
2828 = "Onder Daccasild"

#Ravenous Isle
1059 = "Droorcodd"
1060 = "Onposzobwal"
1061 = "Groontod"
1062 = "Vanhoop"
1063 = "Cap obb Onthollen"
1064 = "Orannsildeds"
1065 = "Grodroy"
1066 = "Slagcrodd"
1067 = "Flaccamb"
1068 = "Oloornamm"
1069 = "Braighposz"
1070 = "Ilcomminsild"
1072 = "Frodcoddobcodd"
1107 = "Minsildcamb"
1108 = "Walfeld"
2137 = "Erstooredhom"

#Ruined Isles
1055 = "Loopcodshoolp"
1056 = "Laangbay"
1057 = "Nomsport"
1058 = "Toorcodds"
1071 = "Speestook"
1073 = "Speepoddoddod"
1074 = "Haighfrod"
1221 = "Swolderersbay"
2091 = "Seehild"
2093 = "Farpoddoddod"
2124 = "Troocamb"

#North Ruined Isles
924 = "Nimscamb"
949 = "Nooport"
950 = "Soonnarbad"
951 = "Nordoud Poddoddod"

#Forest of the Cursed Ones
1199 = "Peanuttholod"
1743 = "Nelsbobb"
1744 = "Naayfadder"

#Dalaire
1200 = "Caddersild"
1201 = "Daalairrsild"
1202 = "Noo Oddansbay"
1203 = "Groonerd"
1204 = "Sildcamb"
1205 = "Nooisir"
1206 = "Geeldpeck"
1207 = "Doroyvidd"
1208 = "Sildpeck"
1209 = "Foddi Ionddam"
1210 = "Royburd"
1211 = "Haigh Sylcam"
1212 = "Bloosild"
1213 = "Geeldpozs"
1214 = "Minsdaccasded"
1215 = "Aanoddan"
1216 = "Mordibamnamm"
1217 = "Commongib"
1218 = "Nelspeck"
1219 = "Flacciochand"
1220 = "Foorleftcamb"
1222 = "Lilcodden"
1223 = "Noonamm" 
1224 = "Maagitholod"
1225 = "Nomsooisisir"
1226 = "Londofoot"
1229 = "Hammalcamb"
1231 = "Ooisflacc"
1232 = "Lilfjiood"
1233 = "Siluntcamb"
1236 = "Middanmaddit"
1237 = "Nomssild"
1238 = "Golkinsild"
1239 = "Roypoddoddod"
1240 = "Leeksild"
1241 = "Nimsarbad"
2787 = "Ooistholod"
2789 = "Narascodd"
2790 = "Hammalcodds"
2791 = "Ooisbay"
2792 = "Hammalfoor"
2793 = "Dankcodd"
2794 = "Corinscodd"
2795 = "Kobildflook"
2796 = "Minscodd"
2845 = "Minscamb"
2846 = "Noomaddit" 
2847 = "Loovensild"
2848 = "Nomsild"
2849 = "Sildgeeldroy"
2850 = "Noomoont"
2851 = "Gommocamb"
2852 = "Sildbobb"
2853 = "Nooionddam"

#Leechdens
2185 = "Spoolslump"
2206 = "Frodcadderlock"
2207 = "Spoderslomock"
2209 = "Spodernedd"
2210 = "Sneknamm"
2211 = "Snekerd"
2212 = "Gifdvoddal"
2213 = "Droorhedport"
2214 = "Sildedgevand"
2216 = "Aighsinsildedod"
2217 = "Zoolsrot"
2218 = "Sneknedd"
2219 = "Ebilddamm"
2220 = "Angsedsild"
2221 = "Spoderbog"
2222 = "Laangdand"
2223 = "Kicksild"
2224 = "Kickthicced"
2225 = "Reencoorb"
2226 = "Krabbsport"
2227 = "Roddport"
2228 = "Middanbog"
2229 = "Frodlocknick"
2231 = "Nelstodcodds"
2232 = "Nimsbogtoor"
2233 = "Norbogtoor"
2234 = "Ronbogtoor"
2265 = "Ungothspadd"
2282 = "Haarpimeddo"
2395 = "Kobaambdhild"

#Tor Nayyi
2152 = "Roomarbad"
2153 = "Dolgpoddoddod"
2154 = "Obranddam"
2155 = "Sheevcodd"
2157 = "Norcookcodd"
2158 = "Brozolcoddobcodd"
2160 = "Ronpoddoddod"
2161 = "Jertcodd"
2162 = "Bayfeld"
2163 = "Olloonpeck"
2164 = "Hierobbsport"
2165 = "Siccosild"
2166 = "Rooinarbad"
2167 = "Groonhild"
2168 = "Daccasroy"
2169 = "Nomscodd"
2170 = "Roncookcodd"
2171 = "Gibblecodd"
2172 = "Bimtholod"
2173 = "Macicodds"
2174 = "Dothicodds"

#Haraf
1950 = "Hoobiroy"
2064 = "Ronposz"
2065 = "Cambhild"
2066 = "Benternoms"
2067 = "Noosild"
2068 = "Foonacamb"
2069 = "Sildcloof"
2070 = "Fidgetshoppe"
2071 = "Oddangip"
2072 = "Groonhoos"
2073 = "Siluntpoddoddod"
2074 = "Hemplodd"
2075 = "Middanobbthadoofels"
2076 = "Voolksprald"
2077 = "Baykorra"
2078 = "Zaygenbay"
2079 = "Leptoneskemb"
2080 = "Zakkperd"
2081 = "Reyvishaik"
2082 = "Helstruden"
2083 = "Bladdalg"
2084 = "Dalguukduds"
2085 = "Cambsitdouds"
2086 = "Ronboorchand"
2087 = "Addersid"
2088 = "Boorchandbay"
2089 = "Siluntmiddan"
2090 = "Fendcamb"
2092 = "Chefscambann"
2094 = "Naayfaltroy"
2095 = "Falbobb"
2096 = "Groonend"
2097 = "Noo Royvibobb"
2098 = "Harafroysproong"
2099 = "Siluntod"
2100 = "Cooksild"
2101 = "Dro"
2102 = "Sildhild"
2103 = "Broolersionddam"
2104 = "Sildedfeld"
2105 = "Foonaroy"
2106 = "Foonaiochand"
2107 = "Broolersylcam"
2108 = "Harafroynoms"
2109 = "Yadcookers"
2110 = "Royarmee"
2111 = "Nelsilunt"
2112 = "Harafnamm"
2113 = "Minsildcamm"
2114 = "Chefcook"
2115 = "Samfloodo"
2116 = "Thiccminsild"
2117 = "Caatkerslap"
2118 = "Sylindulds"
2119 = "Lontuspoddogen"
2120 = "Dagersaix"
2121 = "Roivarri"
2122 = "Gormozaibo"
2123 = "Nobspring"
2127 = "Yauddalaamb"
2128 = "Zildwaddi"
2129 = "Middanerf"
2130 = "Willytoy"
2131 = "Dagerzoogex"
2132 = "Ehoonkadroogex"
2133 = "Zildwook"
2134 = "Baiddzild"
2136 = "Silyuntwal"
2138 = "Troockwoofredd"
2139 = "Cookersid"
2140 = "Gewandenpadrool"
2141 = "Groonflacchand"
2142 = "Minsildcoorb"
2143 = "Nickwal"
2144 = "Trokprand"
2145 = "Norschild"
2146 = "Denkoopaddu"
2147 = "Reypado"
2148 = "Yangsedsaik"
2149 = "Koorasnoms"
2150 = "Paddesaikh"
2156 = "Foonacodd"
2822 = "Chefsyad"
2823 = "Wildpreree"
2824 = "Shapfeld"
2826 = "Plondend"
2827 = "Yadderstod"

#Sarmadfar
2825 = "Flooktsplodd"