#All scopes are country scope
#All parameters are optional
# Castonath province IDs are 831, 832, 833

# Burgher advisory council analog
estate_castonath_patricians_advisory_council = {
	icon = privilege_recruit_minister
	max_absolutism = -5
	influence = 0.1
	loyalty = 0.05
	benefits = {
		dip_advisor_cost = -0.25
	}
	penalties = {
		stability_cost_modifier = 0.1
	}
	
	ai_will_do = {
		factor = 10
		modifier = {
			factor = 0.5
			is_absolutism_active = yes
		}
		modifier = {
			factor = 1.25
			NOT = { mil = 2 }
		}
		modifier = {
			factor = 0.8
			mil = 5
		}
	}
}

# Burgher exclusive trade rights analog
estate_castonath_patricians_trade_rights = {
	icon = privilege_make_generous_donation
	max_absolutism = -5
	influence = 0.05
	loyalty = 0.05
	is_valid = {
		840 = { # North Citadel - Castonath trade node
			trade_share = {
				country = ROOT
				share = 50
			}
		}
	}
	benefits = { }
	penalties = {
		yearly_corruption = 0.01
	}
	on_granted = {
		custom_tooltip = estate_castonath_patricians_exclusive_trade_rights_grant_tt
		hidden_effect = {
			if = {
				limit = { owns = 831 } # South Castonath
				831 = {
					add_province_modifier = {
						name = estate_castonath_patricians_exclusive_trade_rights_mod
						duration = -1
					}
				}
			}
			if = { 
				limit = { owns = 832 } # Lower Castonath
				832 = {
					add_province_modifier = {
						name = estate_castonath_patricians_exclusive_trade_rights_mod
						duration = -1
					}
				}
			}
			if = { 
				limit = { owns = 833 } # North Castonath
				833 = {
					add_province_modifier = {
						name = estate_castonath_patricians_exclusive_trade_rights_mod
						duration = -1
					}
				}
			}
		}
		
		add_mercantilism = 3
	}
	on_revoked = {
		custom_tooltip = estate_castonath_patricians_exclusive_trade_rights_revoke_tt
		hidden_effect = {
			every_owned_province = {
				limit = {
					has_province_modifier = estate_castonath_patricians_exclusive_trade_rights_mod
				}
				remove_province_modifier = estate_castonath_patricians_exclusive_trade_rights_mod
			}
		}
	}
	on_invalid = {
		custom_tooltip = estate_castonath_patricians_exclusive_trade_rights_revoke_tt
		hidden_effect = {
			every_owned_province = {
				limit = {
					has_province_modifier = estate_castonath_patricians_exclusive_trade_rights_mod
				}
				remove_province_modifier = estate_castonath_patricians_exclusive_trade_rights_mod
			}
		}
	}
	conditional_modifier = {
		trigger = {
			NOT = {
				estate_influence = {
					estate = estate_castonath_patricians
					influence = 70
				}
			}
			estate_influence = {
				estate = estate_castonath_patricians
				influence = 60
			}
		}
		modifier = {
			trade_efficiency = -0.05
		}
		is_bad = yes
	}
	conditional_modifier = {
		trigger = {
			NOT = {
				estate_influence = {
					estate = estate_castonath_patricians
					influence = 80
				}
			}
			estate_influence = {
				estate = estate_castonath_patricians
				influence = 70
			}
			NOT = { has_country_flag = patrician_castanor }
		}
		modifier = {
			trade_efficiency = -0.1
		}
		is_bad = yes
	}
	conditional_modifier = {
		trigger = {
			NOT = {
				estate_influence = {
					estate = estate_castonath_patricians
					influence = 90
				}
			}
			estate_influence = {
				estate = estate_castonath_patricians
				influence = 80
			}
			NOT = { has_country_flag = patrician_castanor }
		}
		modifier = {
			trade_efficiency = -0.15
		}
		is_bad = yes
	}
	conditional_modifier = {
		trigger = {
			estate_influence = {
				estate = estate_castonath_patricians
				influence = 90
			}
			NOT = { has_country_flag = patrician_castanor }
		}
		modifier = {
			trade_efficiency = -0.2
		}
		is_bad = yes
	}
	conditional_modifier = {
		trigger = { has_government_attribute = patrician_council_mt_mechanic }
		modifier = {
			trade_efficiency = 0.1
			global_trade_power = 0.1
		}
	}
	ai_will_do = {
		factor = 0
	}
}

estate_castonath_patricians_free_building_permits = {
	icon = privilege_give_money
	max_absolutism = -10
	influence = 0.1
	loyalty = 0.1
	is_valid = {  }
	can_select = {  }
	on_granted = {
		custom_tooltip = estate_castonath_patricians_free_building_permits_granted_tt
		hidden_effect = {
			if = {
				limit = { owns = 831 } # South Castonath
				831 = {
					add_province_modifier = {
						name = estate_castonath_patricians_free_building_permits_modifier
						duration = -1
					}
				}
			}
			if = { 
				limit = { owns = 832 } # Lower Castonath
				832 = {
					add_province_modifier = {
						name = estate_castonath_patricians_free_building_permits_modifier
						duration = -1
					}
				}
			}
			if = { 
				limit = { owns = 833 } # North Castonath
				833 = {
					add_province_modifier = {
						name = estate_castonath_patricians_free_building_permits_modifier
						duration = -1
					}
				}
			}
		}
	}
	can_revoke = { }
	on_revoked = {
		custom_tooltip = estate_castonath_patricians_free_building_permits_revoke_tt
		hidden_effect = {
			every_owned_province = {
				limit = { has_province_modifier = estate_castonath_patricians_free_building_permits_modifier }
				remove_province_modifier = estate_castonath_patricians_free_building_permits_modifier
				if = {
					limit = {
						calc_true_if = {
							amount = 2
							has_building = wharf
							has_building = farm_estate
							has_building = ramparts
							has_building = impressment_offices
							has_building = textile
							has_building = weapons
							has_building = state_house
							has_building = plantations
							has_building = tradecompany
							has_building = soldier_households
							has_building = mills
							has_building = furnace
							has_building = mage_tower
						}
					}
					# Needs to be an event cause apparently remove_building doesn't work here
					# why paradox
					# why
					province_event = { id = castonath_patricians_events.201 }
				}
			}
		}
	}
	on_invalid = {
		custom_tooltip = estate_castonath_patricians_free_building_permits_revoke_tt
		hidden_effect = {
			every_owned_province = {
				limit = { has_province_modifier = estate_castonath_patricians_free_building_permits_modifier }
				remove_province_modifier = estate_castonath_patricians_free_building_permits_modifier
				if = {
					limit = {
						calc_true_if = {
							amount = 2
							has_building = wharf
							has_building = farm_estate
							has_building = ramparts
							has_building = impressment_offices
							has_building = textile
							has_building = weapons
							has_building = state_house
							has_building = plantations
							has_building = tradecompany
							has_building = soldier_households
							has_building = mills
							has_building = furnace
							has_building = mage_tower
						}
					}
					# Needs to be an event cause apparently remove_building doesn't work here
					# why paradox
					# why
					province_event = { id = castonath_patricians_events.201 }
				}
			}
		}
	}
	benefits = {

	}
	penalties = {
		yearly_corruption = 0.02
	}
	conditional_modifier = {
		trigger = {
			has_country_flag = patrician_castanor
		}
		modifier = {
			development_cost = -0.10
			build_cost = -0.10
		}
	}
	conditional_modifier = {
		trigger = {
			NOT = {
				estate_influence = {
					estate = estate_castonath_patricians
					influence = 70
				}
			}
			estate_influence = {
				estate = estate_castonath_patricians
				influence = 60
			}
			NOT = { has_country_flag = patrician_castanor }
		}
		modifier = {
			development_cost = 0.05
			build_cost = 0.05
		}
		is_bad = yes
	}
	conditional_modifier = {
		trigger = {
			NOT = {
				estate_influence = {
					estate = estate_castonath_patricians
					influence = 80
				}
			}
			estate_influence = {
				estate = estate_castonath_patricians
				influence = 70
			}
			NOT = { has_country_flag = patrician_castanor }
		}
		modifier = {
			development_cost = 0.075
			build_cost = 0.075
		}
		is_bad = yes
	}
	conditional_modifier = {
		trigger = {
			NOT = {
				estate_influence = {
					estate = estate_castonath_patricians
					influence = 90
				}
			}
			estate_influence = {
				estate = estate_castonath_patricians
				influence = 80
			}
			NOT = { has_country_flag = patrician_castanor }
		}
		modifier = {
			development_cost = 0.1
			build_cost = 0.1
		}
		is_bad = yes
	}
	conditional_modifier = {
		trigger = {
			estate_influence = {
				estate = estate_castonath_patricians
				influence = 90
			}
			NOT = { has_country_flag = patrician_castanor }
		}
		modifier = {
			development_cost = 0.15
			build_cost = 0.15
		}
		is_bad = yes
	}
	conditional_modifier = {
		trigger = { has_government_attribute = patrician_council_mt_mechanic }
		modifier = {
			development_cost = -0.05
			build_cost = -0.1
		}
	}
	modifier_by_land_ownership = {  } 	
	mechanics = {  } 					
	on_cooldown_expires = {  }
	ai_will_do = {
		factor = 1
	}
}

# Burgher patronage of the arts analog
estate_castonath_patricians_glorify_castanorian_culture = {
	icon = privilege_patronize_jain_families
	max_absolutism = -5
	influence = 0.05
	loyalty = 0.1
	is_valid = { }
	can_select = { }
	on_granted = {
		if = {
			limit = { prestige = 50 }
			add_prestige = 10
		}
		else_if = {
			limit = { prestige = 0 }
			add_prestige = 15
		}
		else_if = {
			limit = { prestige = -25 }
			add_prestige = 20
		}
		else_if = {
			limit = { prestige = -50 }
			add_prestige = 25
		}
		else = {
			add_prestige = 30
		}
	}
	can_revoke = { } 
	benefits = {
		prestige = 0.5
	}
	penalties = {
		global_tax_modifier = -0.05
	}
	modifier_by_land_ownership = {  } 	
	mechanics = {  } 					
	on_cooldown_expires = {  }
	ai_will_do = {
		factor = 1
	}
}

estate_castonath_patricians_support_patrician_owned_businesses = {
	icon = privilege_give_money
	max_absolutism = -10
	influence = 0.1
	loyalty = 0.1
	is_valid = {  }
	can_select = {  }
	on_granted = {
		custom_tooltip = estate_castonath_patricians_support_guilds_granted_tt
		hidden_effect = {
			if = {
				limit = { owns = 831 } # South Castonath
				831 = {
					add_province_modifier = {
						name = estate_castonath_patricians_favor_patrician_guilds
						duration = -1
					}
				}
			}
			if = { 
				limit = { owns = 832 } # Lower Castonath
				832 = {
					add_province_modifier = {
						name = estate_castonath_patricians_favor_patrician_guilds
						duration = -1
					}
				}
			}
			if = { 
				limit = { owns = 833 } # North Castonath
				833 = {
					add_province_modifier = {
						name = estate_castonath_patricians_favor_patrician_guilds
						duration = -1
					}
				}
			}
		}
		
	}
	can_revoke = { } 
	on_revoked = {
		custom_tooltip = estate_castonath_patricians_support_patrician_guilds_revoke_tt
		hidden_effect = {
			every_owned_province = {
				limit = { has_province_modifier = estate_castonath_patricians_favor_patrician_guilds }
				remove_province_modifier = estate_castonath_patricians_favor_patrician_guilds
			}
		}
	}
	on_invalid = {
		custom_tooltip = estate_castonath_patricians_support_patrician_guilds_revoke_tt
		hidden_effect = {
			every_owned_province = {
				limit = { has_province_modifier = estate_castonath_patricians_favor_patrician_guilds }
				remove_province_modifier = estate_castonath_patricians_favor_patrician_guilds
			}
		}
	}
	benefits = {
		global_trade_goods_size_modifier = 0.05
	}
	penalties = {
		yearly_corruption = 0.02
	}
	conditional_modifier = {
		trigger = {
			has_country_flag = patrician_castanor
		}
		modifier = {
			global_trade_goods_size_modifier = 0.05
		}
	}
	conditional_modifier = {
		trigger = {
			NOT = {
				estate_influence = {
					estate = estate_castonath_patricians
					influence = 70
				}
			}
			estate_influence = {
				estate = estate_castonath_patricians
				influence = 60
			}
			NOT = { has_country_flag = patrician_castanor }
		}
		modifier = {
			production_efficiency = -0.05
		}
		is_bad = yes
	}
	conditional_modifier = {
		trigger = {
			NOT = {
				estate_influence = {
					estate = estate_castonath_patricians
					influence = 80
				}
			}
			estate_influence = {
				estate = estate_castonath_patricians
				influence = 70
			}
			NOT = { has_country_flag = patrician_castanor }
		}
		modifier = {
			production_efficiency = -0.10
		}
		is_bad = yes
	}
	conditional_modifier = {
		trigger = {
			NOT = {
				estate_influence = {
					estate = estate_castonath_patricians
					influence = 90
				}
			}
			estate_influence = {
				estate = estate_castonath_patricians
				influence = 80
			}
			NOT = { has_country_flag = patrician_castanor }
		}
		modifier = {
			production_efficiency = -0.15
		}
		is_bad = yes
	}
	conditional_modifier = {
		trigger = {
			estate_influence = {
				estate = estate_castonath_patricians
				influence = 90
			}
			NOT = { has_country_flag = patrician_castanor }
		}
		modifier = {
			production_efficiency = -0.20
		}
		is_bad = yes
	}
	conditional_modifier = {
		trigger = { has_government_attribute = patrician_council_mt_mechanic }
		modifier = {
			production_efficiency = 0.2
		}
	}
	modifier_by_land_ownership = {  } 	
	mechanics = {  } 					
	on_cooldown_expires = {  }
	ai_will_do = {
		factor = 1
	}
}

estate_castonath_patricians_slaken_authority_for_tithes = {
	icon = privilege_give_money
	max_absolutism = -10
	influence = 0.1
	loyalty = 0.1
	is_valid = {  }
	can_select = {  }
	on_granted = {
		custom_tooltip = estate_castonath_patricians_tithe_granted_tt
		hidden_effect = {
			if = {
				limit = { owns = 831 } # South Castonath
				831 = {
					add_province_modifier = {
						name = estate_castonath_patricians_tithe
						duration = -1
					}
				}
			}
			if = { 
				limit = { owns = 832 } # Lower Castonath
				832 = {
					add_province_modifier = {
						name = estate_castonath_patricians_tithe
						duration = -1
					}
				}
			}
			if = { 
				limit = { owns = 833 } # North Castonath
				833 = {
					add_province_modifier = {
						name = estate_castonath_patricians_tithe
						duration = -1
					}
				}
			}
		}
		
	}
	can_revoke = { } 
	on_revoked = {
		custom_tooltip = estate_castonath_patricians_tithe_revoke_tt
		hidden_effect = {
			every_owned_province = {
				limit = { has_province_modifier = estate_castonath_patricians_tithe }
				remove_province_modifier = estate_castonath_patricians_tithe
			}
		}
	}
	on_invalid = {
		custom_tooltip = estate_castonath_patricians_tithe_revoke_tt
		hidden_effect = {
			every_owned_province = {
				limit = { has_province_modifier = estate_castonath_patricians_tithe }
				remove_province_modifier = estate_castonath_patricians_tithe
			}
		}
	}
	benefits = { }
	penalties = {
		yearly_corruption = 0.01
	}
	conditional_modifier = {
		trigger = {
			NOT = {
				estate_influence = {
					estate = estate_castonath_patricians
					influence = 70
				}
			}
			estate_influence = {
				estate = estate_castonath_patricians
				influence = 60
			}
		}
		modifier = {
			yearly_corruption = 0.01
		}
		is_bad = yes
	}
	conditional_modifier = {
		trigger = {
			has_country_flag = patrician_castanor
		}
		modifier = {
			global_tax_income = 0.33
		}
	}
	conditional_modifier = {
		trigger = {
			NOT = {
				estate_influence = {
					estate = estate_castonath_patricians
					influence = 80
				}
			}
			estate_influence = {
				estate = estate_castonath_patricians
				influence = 70
			}
			NOT = { has_country_flag = patrician_castanor }
		}
		modifier = {
			yearly_corruption = 0.02
		}
		is_bad = yes
	}
	conditional_modifier = {
		trigger = {
			NOT = {
				estate_influence = {
					estate = estate_castonath_patricians
					influence = 90
				}
			}
			estate_influence = {
				estate = estate_castonath_patricians
				influence = 80
			}
			NOT = { has_country_flag = patrician_castanor }
		}
		modifier = {
			yearly_corruption = 0.03
		}
		is_bad = yes
	}
	conditional_modifier = {
		trigger = {
			estate_influence = {
				estate = estate_castonath_patricians
				influence = 90
			}
			NOT = { has_country_flag = patrician_castanor }
		}
		modifier = {
			yearly_corruption = 0.04
		}
		is_bad = yes
	}
	conditional_modifier = {
		trigger = { has_government_attribute = patrician_council_mt_mechanic }
		modifier = {
			global_tax_modifier = 0.33
		}
	}
	modifier_by_land_ownership = {  } 	
	mechanics = {  } 					
	on_cooldown_expires = {  }
	ai_will_do = {
		factor = 1
	}
}

estate_castonath_patricians_center_of_an_empire = {
	icon = privilege_build_jain_temple
	influence = 0.1
	loyalty = 0.1
	max_absolutism = -10
	is_valid = { }
	can_select = { }
	on_granted = {
		custom_tooltip = estate_castonath_patricians_center_of_an_empire_granted_tt
		hidden_effect = {
			if = {
				limit = { owns = 831 } # South Castonath
				831 = {
					add_province_modifier = {
						name = estate_castonath_patricians_center_of_an_empire
						duration = -1
					}
				}
			}
			if = { 
				limit = { owns = 832 } # Lower Castonath
				832 = {
					add_province_modifier = {
						name = estate_castonath_patricians_center_of_an_empire
						duration = -1
					}
				}
			}
			if = { 
				limit = { owns = 833 } # North Castonath
				833 = {
					add_province_modifier = {
						name = estate_castonath_patricians_center_of_an_empire
						duration = -1
					}
				}
			}
		}
		
	}
	can_revoke = { } 
	on_revoked = {
		custom_tooltip = estate_castonath_patricians_center_of_an_empire_revoke_tt
		hidden_effect = {
			every_owned_province = {
				limit = { has_province_modifier = estate_castonath_patricians_center_of_an_empire }
				remove_province_modifier = estate_castonath_patricians_center_of_an_empire
			}
		}
	}
	on_invalid = {
		custom_tooltip = estate_castonath_patricians_center_of_an_empire_revoke_tt
		hidden_effect = {
			every_owned_province = {
				limit = { has_province_modifier = estate_castonath_patricians_center_of_an_empire }
				remove_province_modifier = estate_castonath_patricians_center_of_an_empire
			}
		}
	}
	benefits = { }
	penalties = {
		yearly_corruption = 0.02
		state_maintenance_modifier = 0.05
	}
	conditional_modifier = {
		trigger = {
			has_country_flag = patrician_castanor
		}
		modifier = {
			governing_capacity_modifier = 0.15
		}
	}
	conditional_modifier = {
		trigger = {
			NOT = {
				estate_influence = {
					estate = estate_castonath_patricians
					influence = 70
				}
			}
			estate_influence = {
				estate = estate_castonath_patricians
				influence = 60
			}
			NOT = { has_country_flag = patrician_castanor }
		}
		modifier = {
			governing_capacity_modifier = -0.05
			state_maintenance_modifier = 0.1
		}
		is_bad = yes
	}
	conditional_modifier = {
		trigger = {
			NOT = {
				estate_influence = {
					estate = estate_castonath_patricians
					influence = 80
				}
			}
			estate_influence = {
				estate = estate_castonath_patricians
				influence = 70
			}
			NOT = { has_country_flag = patrician_castanor }
		}
		modifier = {
			governing_capacity_modifier = -0.10
			state_maintenance_modifier = 0.15
		}
		is_bad = yes
	}
	conditional_modifier = {
		trigger = {
			NOT = {
				estate_influence = {
					estate = estate_castonath_patricians
					influence = 90
				}
			}
			estate_influence = {
				estate = estate_castonath_patricians
				influence = 80
			}
			NOT = { has_country_flag = patrician_castanor }
		}
		modifier = {
			governing_capacity_modifier = -0.15
			state_maintenance_modifier = 0.2
		}
		is_bad = yes
	}
	conditional_modifier = {
		trigger = {
			estate_influence = {
				estate = estate_castonath_patricians
				influence = 90
			}
			NOT = { has_country_flag = patrician_castanor }
		}
		modifier = {
			governing_capacity_modifier = -0.2
			state_maintenance_modifier = 0.25
		}
		is_bad = yes
	}
	conditional_modifier = {
		trigger = { has_government_attribute = patrician_council_mt_mechanic }
		modifier = {
			governing_capacity = 100
			state_maintenance_modifier = -0.33
		}
	}
	modifier_by_land_ownership = {  } 	
	mechanics = {  } 					
	on_cooldown_expires = {  }
	ai_will_do = {
		factor = 1
	}
}

estate_castonath_patricians_deal_with_overpopulation = {
	icon = privilege_demand_more_troops
	
	influence = 0.1
	loyalty = 0.1
	max_absolutism = -5
	is_valid = { }
	can_select = { }
	on_granted = {
		custom_tooltip = estate_castonath_patricians_increased_levies_granted_tt
		
		hidden_effect = {
			if = {
				limit = { owns = 831 } # South Castonath
				831 = {
					add_province_modifier = {
						name = estate_castonath_patricians_increased_levies
						duration = -1
					}
				}
			}
			if = { 
				limit = { owns = 832 } # Lower Castonath
				832 = {
					add_province_modifier = {
						name = estate_castonath_patricians_increased_levies
						duration = -1
					}
				}
			}
			if = { 
				limit = { owns = 833 } # North Castonath
				833 = {
					add_province_modifier = {
						name = estate_castonath_patricians_increased_levies
						duration = -1
					}
				}
			}
		}
	}
	can_revoke = { } 
	on_revoked = {
		custom_tooltip = estate_castonath_patricians_increased_levies_revoke_tt
		hidden_effect = {
			every_owned_province = {
				limit = { has_province_modifier = estate_castonath_patricians_increased_levies }
				remove_province_modifier = estate_castonath_patricians_increased_levies
			}
		}
	}
	on_invalid = {
		custom_tooltip = estate_castonath_patricians_increased_levies_revoke_tt
		hidden_effect = {
			every_owned_province = {
				limit = { has_province_modifier = estate_castonath_patricians_increased_levies }
				remove_province_modifier = estate_castonath_patricians_increased_levies
			}
		}
	}
	benefits = {
	}
	penalties = {
		yearly_corruption = 0.02
	}
	conditional_modifier = {
		trigger = {
			has_country_flag = patrician_castanor
		}
		modifier = {
			manpower_recovery_speed = 0.2
		}
	}
	conditional_modifier = {
		trigger = {
			NOT = {
				estate_influence = {
					estate = estate_castonath_patricians
					influence = 70
				}
			}
			estate_influence = {
				estate = estate_castonath_patricians
				influence = 60
			}
			NOT = { has_country_flag = patrician_castanor }
		}
		modifier = {
			army_tradition_decay = 0.01
		}
		is_bad = yes
	}
	conditional_modifier = {
		trigger = {
			NOT = {
				estate_influence = {
					estate = estate_castonath_patricians
					influence = 80
				}
			}
			estate_influence = {
				estate = estate_castonath_patricians
				influence = 70
			}
			NOT = { has_country_flag = patrician_castanor }
		}
		modifier = {
			army_tradition_decay = 0.02
		}
		is_bad = yes
	}
	conditional_modifier = {
		trigger = {
			NOT = {
				estate_influence = {
					estate = estate_castonath_patricians
					influence = 90
				}
			}
			estate_influence = {
				estate = estate_castonath_patricians
				influence = 80
			}
			NOT = { has_country_flag = patrician_castanor }
		}
		modifier = {
			army_tradition_decay = 0.03
		}
		is_bad = yes
	}
	conditional_modifier = {
		trigger = {
			estate_influence = {
				estate = estate_castonath_patricians
				influence = 90
			}
			NOT = { has_country_flag = patrician_castanor }
		}
		modifier = {
			army_tradition_decay = 0.05
		}
		is_bad = yes
	}
	conditional_modifier = {
		trigger = { has_government_attribute = patrician_council_mt_mechanic }
		modifier = {
			global_manpower_modifier = 0.33
		}
	}
	modifier_by_land_ownership = { } 	
	mechanics = { } 					
	on_cooldown_expires = { }
	ai_will_do = {
		factor = 1
	}
}

estate_castonath_patricians_split_them_up = {
	icon = privilege_diplo_power
	loyalty = 0
	influence = -0.10
	land_share = 5
	is_valid = {
	}
	can_select = {
	}
	can_revoke = {
	}
	on_granted = {
	}
	
	penalties = {
		all_power_cost = 0.025
		global_unrest = 1
	}
	
	benefits = {
	}
	
	on_cooldown_expires = {
	}
	ai_will_do = {
		factor = 1
	}
}

estate_castonath_patricians_castonath_monopoly = {
	icon = privilege_give_money
	loyalty = 0.1
	max_absolutism = -10
	is_valid = { }
	can_select = { }
	on_granted = {
		add_mercantilism = 1
		add_years_of_owned_provinces_production_income = {
			years = 8
			trigger = {
				OR = {
					province_id = 831
					province_id = 832
					province_id = 833
				}
			}
			custom_tooltip = MONOPOLY_INCOME_CASTONATH_DESC
		}
		custom_tooltip = estate_patricians_monopoly_of_castonath_tt
		hidden_effect = {
			every_owned_province = {
				limit = {
					OR = {
						province_id = 831
						province_id = 832
						province_id = 833
					}
				}
				add_province_modifier = {
					name = estate_castonath_patricians_castonath_monopoly_mod
					duration = -1
				}
			}
		}
	}
	can_revoke = { } 
	on_revoked = {
		custom_tooltip = estate_patricians_monopoly_of_castonath_revoke_tt
		hidden_effect = {
			every_owned_province = {
				limit = {
					has_province_modifier = estate_castonath_patricians_castonath_monopoly_mod
				}
				remove_province_modifier = estate_castonath_patricians_castonath_monopoly_mod
			}
		}
	}
	on_invalid = {
		custom_tooltip = estate_patricians_monopoly_of_castonath_revoke_tt
		hidden_effect = {
			every_owned_province = {
				limit = {
					has_province_modifier = estate_castonath_patricians_castonath_monopoly_mod
				}
				remove_province_modifier = estate_castonath_patricians_castonath_monopoly_mod
			}
		}
	}
	benefits = { }
	penalties = { }
	on_cooldown_expires = {
		country_event = { id = castonath_patricians_events.100 }
	}
	cooldown_years = 10
	ai_will_do = {
		factor = 0
	}
}

# Burghers land of commerce analog
estate_castonath_patricians_city_of_commerce = {
	icon = privilege_diplo_power
	land_share = 10
	max_absolutism = -5
	loyalty = -0.05
	can_select = {
	}
	on_granted = {
	}
	penalties = {
	}
	benefits = {
		country_diplomatic_power = 1
	}
	ai_will_do = {
		factor = 10
		modifier = {
			factor = 0
			OR = {
				NOT = { crown_land_share = 30 }
				estate_influence = {
					estate = estate_castonath_patricians
					influence = 75
				}
			}
			NOT = { has_estate_privilege = estate_castonath_patricians_city_of_commerce }
		}
		modifier = {
			factor = 0.8
			OR = {
				NOT = { crown_land_share = 35 }
				AND = {
					is_absolutism_active = yes
					NOT = { crown_land_share = 55 }
				}
			}
			NOT = { has_estate_privilege = estate_castonath_patricians_city_of_commerce }
		}
		modifier = {
			factor = 0.8
			is_absolutism_active = yes
		}
		modifier = {
			factor = 1.25
			NOT = { dip = 2 }
		}
		modifier = {
			factor = 0.8
			dip = 5
		}
	}
}

# Burghers private trade fleets analog (kinda)
estate_castonath_patricians_private_caravans_and_river_fleets = {
	icon = privilege_comission_merchant_ships_for_war
	max_absolutism = -5
	influence = 0.1
	loyalty = 0.05
	penalties = {
	}
	benefits = {
		caravan_power = 0.2
		trade_steering = 0.2
	}
	ai_will_do = {
		factor = 1
		modifier = {
			factor = 10
			trade_income_percentage = 0.35
		}
		modifier = {
			factor = 0
			is_absolutism_active = yes
		}
	}
}

# Castanorian Statecraft Knowledge