vampire_pop_buff_action = {
	category = covert
	
	is_visible = {
		ai = no
		ROOT = { has_country_flag = founded_blood_court }
		FROM = {
			capital_scope = {
				OR= {
					continent = europe
					range = ROOT
				}
			}
			has_country_flag = has_vampires
            has_estate_privilege = estate_vampires_organization_vampiric_emigres
			NOT = { has_country_flag = population_boom_buff }
			#only usable once, on a nation with emigres.
		}
    }
	
	is_allowed = {
		FROM = {
			capital_scope = {
				OR= {
					continent = europe
					range = ROOT
				}
			}
			has_country_flag = has_vampires
            has_estate_privilege = estate_vampires_organization_vampiric_emigres
			NOT = { has_country_flag = population_boom_buff }
		}
		ROOT = {
			has_country_flag = founded_blood_court
			reverse_has_opinion = {
				who = FROM
				value = 80
			}
			has_spy_network_in = {
				who = FROM
				value = 25
			}
		}
	}

    on_accept = {
		FROM = {
			set_country_flag = population_boom_buff
			#reduces MTTH of influence increasing events
		}
		ROOT = {
			add_spy_network_in = {
   				who = FROM
    			value = -25
			}
		}
	}
	ai_will_do = {
		always = no
	}
}