#119 - Ancona

owner = A01
controller = A01
add_core = A01
culture = high_lorentish
religion = regent_court
hre = no
base_tax = 3
base_production = 3
trade_goods = grain
base_manpower = 2
capital = "" 
is_city = yes







