#253 - Western Isles

owner = A36
controller = A36
add_core = A36
culture = arbarani
religion = regent_court

hre = yes

base_tax = 5
base_production = 5
base_manpower = 4

trade_goods = grain

capital = ""

is_city = yes







