# No previous file for Banten
owner = F48
controller = F48
add_core = F48
add_core = F50
culture = siadunan_harpy
religion = the_hunt

hre = no

base_tax = 1
base_production = 1
base_manpower = 1

trade_goods = incense

capital = ""

is_city = yes











add_permanent_province_modifier = {
	name = human_minority_coexisting_small
	duration = -1
}