#391 - Najran

owner = U08
controller = U08
add_core = U08
culture = far_akani
religion = mother_akan

hre = no

base_tax = 2
base_production = 3
base_manpower = 2

trade_goods = sugar

capital = ""

is_city = yes






