#452 - Gemisle

owner = U17
controller = U17
add_core = U17
culture = crathanori
religion = regent_court


base_tax = 4
base_production = 3
base_manpower = 2

trade_goods = gems

capital = ""

is_city = yes









