#468 - Khazaria

owner = U01
controller = U01
add_core = U01
add_core = U03
culture = kheteratan
religion = khetist

hre = no

base_tax = 4
base_production = 3
base_manpower = 4

trade_goods = grain

capital = ""

is_city = yes
fort_15th = yes 










