#479 - Kerey

owner = U09
controller = U09
add_core = U09
add_core = U01
culture = kheteratan
religion = khetist

hre = no

base_tax = 8
base_production = 8
base_manpower = 8

trade_goods = gold
center_of_trade = 1

capital = ""

is_city = yes
fort_15th = yes 







