#506 - Ciernhibin (black hill)

owner = U11
controller = U11
add_core = U11
culture = exodus_goblin
religion = goblinic_shamanism


base_tax = 2
base_production = 2
base_manpower = 2

trade_goods = fish

capital = ""










