#515 - Westend

owner = U17
controller = U17
add_core = U17
culture = crathanori
religion = regent_court


base_tax = 4
base_production = 5
base_manpower = 3

trade_goods = cloth

capital = ""

is_city = yes









