#530 - Vernat

owner = U19
controller = U19
add_core = U19
culture = bahari
religion = bulwari_sun_cult

base_tax = 4
base_production = 4
base_manpower = 2

trade_goods = glass

capital = ""

is_city = yes










