#536 - Aqatbahar

owner = U15
controller = U15
add_core = U15
add_core = U19
culture = bahari
religion = bulwari_sun_cult

base_tax = 11
base_production = 8
base_manpower = 4

trade_goods = glass
center_of_trade = 1

capital = ""

is_city = yes
fort_15th = yes 











add_permanent_province_modifier = {
	name = elven_minority_integrated_large
	duration = -1
}