telgeir_column_1 = {
	slot = 1
	generic = no
	ai = yes
	potential = {
		tag = A62
	}
	has_country_shield = yes
	
	telgeir_own_gabmorionn_yearncliff = {
		icon = mission_rb_control_electors
		required_missions = {
			telgeir_full_fl
		}
		position = 2
		
		provinces_to_highlight = {
			OR = {
				province_id = 260 #Gabmorionn
				province_id = 264 #Yearncliff
			}
			NOT = {
				owned_by = ROOT
			}
		}
		
		trigger = {
			260 = { #Gabmorionn
				owned_by = ROOT
				is_core = ROOT
			}
			264 = { #Yearncliff
				owned_by = ROOT
				is_core = ROOT
			}
		}
		
		effect = {
			ryalanar_area = {
				limit = {
					NOT = { is_core = ROOT }
					NOT = { is_permanent_claim = ROOT }
				}
				add_permanent_claim = ROOT
			}
		}
	}
	
	telgeir_own_rayalanar = {
		icon = mission_european_church
		required_missions = {
			telgeir_own_gabmorionn_yearncliff
		}
		position = 3
		
		provinces_to_highlight = {
			OR = {
				province_id = 265 #Ryalanar
				province_id = 917 #Loveswood
			}
			NOT = {
				owned_by = ROOT
			}
		}
		
		trigger = {
			265 = { #Ryalanar
				owned_by = ROOT
				is_core = ROOT
			}
			917 = { #Loveswood
				owned_by = ROOT
				is_core = ROOT
			}
		}
		
		effect = {
			267 = { #Themarenn
				if = {
					limit = {
						NOT = { is_core = ROOT }
						NOT = { is_permanent_claim = ROOT }
					}
					add_permanent_claim = ROOT
				}
			}
			575 = { #Sweetcastle
				if = {
					limit = {
						NOT = { is_core = ROOT }
						NOT = { is_permanent_claim = ROOT }
					}
					add_permanent_claim = ROOT
				}
			}
		}
	}
	
	telgeir_buyout_of_esmaraine = {
		icon = mission_shady_encounter
		required_missions = {
			telgeir_own_rayalanar
		}
		position = 4
		
		provinces_to_highlight = {
			OR = {
				province_id = 267 #Themarenn
				province_id = 575 #Sweetcastle
			}
			NOT = {
				owned_by = ROOT
			}
		}
		
		trigger = {
			267 = { #Themarenn
				owned_by = ROOT
				is_core = ROOT
			}
			575 = { #Sweetcastle
				owned_by = ROOT
				is_core = ROOT
			}
			OR = {
				AND = {
					A44 = { #Esmaraine
						exists = yes
						owns = 266 #Esmaraine
					}
					treasury = 1500
					dip_power = 250
				}
				A44 = { #Esmaraine
					OR = {
						exists = no
						NOT = { owns = 266 } #Esmaraine
						ai = no
					}
				}
			}
		}
		
		effect = {
			if = {
				limit = {
					A44 = { #Esmaraine
						exists = yes
						owns = 266 #Esmaraine
						ai = yes
					}
				}
				add_dip_power = -250
				add_treasury = -1500
				add_corruption = 5
				hidden_effect = {
					every_core_province = {
						limit = {
							is_core = A44
						}
						set_province_flag = vanbury_esmaraine_flag
					}
				}
				inherit = A44
				hidden_effect = {
					every_owned_province = {
						limit = {
							is_core = A44
						}
						if = {
							limit = {
								NOT = { has_province_flag = vanbury_esmaraine_flag }
							}
							remove_core = ROOT
							if = {
								limit = {
									NOT = { is_permanent_claim = ROOT }
								}
								add_permanent_claim = ROOT
							}
						}
						else = {
							clr_province_flag = vanbury_esmaraine_flag
						}
					}
				}
				266 = { #Esmaraine
					add_province_modifier = {
						name = telgeir_buyout_of_esmaraine_mod
						duration = 3650 #10 years
					}
				}
			}
			else = {
				266 = { #Esmaraine
					if = {
						limit = {
							NOT = { is_core = ROOT }
							NOT = { is_permanent_claim = ROOT }
						}
						add_permanent_claim = ROOT
					}
				}
			}
			
			263 = { #Oldpassage
				if = {
					limit = {
						NOT = { is_core = ROOT }
						NOT = { is_permanent_claim = ROOT }
					}
					add_permanent_claim = ROOT
				}
			}
			268 = { #Bennon
				if = {
					limit = {
						NOT = { is_core = ROOT }
						NOT = { is_permanent_claim = ROOT }
					}
					add_permanent_claim = ROOT
				}
			}
			270 = { #Bennonhill
				if = {
					limit = {
						NOT = { is_core = ROOT }
						NOT = { is_permanent_claim = ROOT }
					}
					add_permanent_claim = ROOT
				}
			}
		}
	}
	
	telgeir_own_bennonhill_area = {
		icon = mission_diplomacy_missive
		required_missions = {
			telgeir_buyout_of_esmaraine
		}
		position = 5
		
		provinces_to_highlight = {
			OR = {
				province_id = 263 #Oldpassage
				province_id = 268 #Bennon
				province_id = 270 #Bennonhill
			}
			NOT = {
				owned_by = ROOT
			}
		}
		
		trigger = {
			263 = { #Oldpassage
				owned_by = ROOT
				is_core = ROOT
			}
			270 = { #Bennonhill
				owned_by = ROOT
				is_core = ROOT
			}
			268 = { #Bennon
				owned_by = ROOT
			}
			alliance_with = A81 #Giberd
			dip_power = 250
		}
		
		effect = {
			add_dip_power = -250
			268 = { #Bennon
				cede_province = A81 #Giberd
			}
			create_subject = {
				subject_type = autonomous_vassal
				subject = A81 #Giberd
			}
			
			263 = { #Oldpassage
				change_culture = silver_dwarf
				add_province_modifier = {
					name = telgeir_dwarven_mining
					duration = 7300 #20 years
				}
			}
		}
	}
}

telgeir_column_2 = {
	slot = 2
	generic = no
	ai = yes
	potential = {
		tag = A62
	}
	has_country_shield = yes
	
	telgeir_full_fl = {
		icon = mission_build_up_to_force_limit
		required_missions = { }
		position = 1
		
		trigger = {
			army_size_percentage = 1
		}
		
		effect = {
			260 = { #Gabmorionn
				if = {
					limit = {
						NOT = { is_core = ROOT }
						NOT = { is_permanent_claim = ROOT }
					}
					add_permanent_claim = ROOT
				}
			}
			262 = { #Aranmas
				if = {
					limit = {
						NOT = { is_core = ROOT }
						NOT = { is_permanent_claim = ROOT }
					}
					add_permanent_claim = ROOT
				}
			}
			264 = { #Yearncliff
				if = {
					limit = {
						NOT = { is_core = ROOT }
						NOT = { is_permanent_claim = ROOT }
					}
					add_permanent_claim = ROOT
				}
			}
		}
	}
}
	
telgeir_column_2_dlc = {
	slot = 2
	generic = no
	ai = yes
	potential = {
		tag = A62
		has_dlc = "Cradle of Civilization"
	}
	has_country_shield = yes
	
	telgeir_army_professionalism = {
		icon = mission_landsknecht_soldier
		required_missions = {
			telgeir_full_fl
		}
		position = 2
		
		trigger = {
			army_professionalism = 0.6
		}
		
		effect = {
			add_country_modifier = {
				name = telgeir_drill
				duration = -1
			}
		}
	}
}
	
telgeir_column_2_part_2 = {
	slot = 2
	generic = no
	ai = yes
	potential = {
		tag = A62
	}
	has_country_shield = yes
	
	telgeir_aranmas_grain = {
		icon = mission_rice_field
		required_missions = {
			telgeir_own_aranmas
		}
		position = 3
		
		provinces_to_highlight = {
			province_id = 262 #Aranmas
			NOT = {
				owned_by = ROOT #Aranmas
			}
		}
		
		trigger = {
			262 = { #Aranmas
				development = 25
			}
			years_of_income = 0.5
		}
		
		effect = {
			add_years_of_income = -0.5
			262 = { #Aranmas
				add_permanent_province_modifier = {
					name = telgeir_aranmas_grain_mod
					duration = -1
				}
			}
		}
	}
	
	telgeir_own_calascandar = {
		icon = mission_trade_company_region_abroad
		required_missions = {
			telgeir_own_heartland_border
		}
		position = 4
		
		provinces_to_highlight = {
			province_id = 254 #Calascandar
			NOT = {
				owned_by = ROOT
			}
		}
		
		trigger = {
			254 = { #Calascandar
				owned_by = ROOT
				is_core = ROOT
			}
			years_of_income = 1
		}
		
		effect = {
			add_years_of_income = -1
			add_dip_power = 50
			add_country_modifier = {
				name = telgeir_calasanni_trade_secrets
				duration = 7300 #20 years
			}
		}
	}
	
	telgeir_return_to_vanbury = {
		icon = mission_discussion_arch
		required_missions = {
			telgeir_restore_vanbury_to_gawed
		}
		position = 7
		
		provinces_to_highlight = {
			OR = {
				province_id = 221 #Gaweton
				province_id = 222 #Vanbury
			}
			NOT = {
				country_or_non_sovereign_subject_holds = ROOT
			}
		}
		
		trigger = {
			221 = { #Gaweton
				country_or_non_sovereign_subject_holds = ROOT
			}
			222 = { #Vanbury
				country_or_non_sovereign_subject_holds = ROOT
			}
		}
		
		effect = {
			221 = { #Gaweton
				add_base_tax = -3
				add_base_production = -3
				add_base_manpower = -3
			}
			222 = { #Vanbury
				if = {
					limit = {
						NOT = { owned_by = ROOT }
					}
					cede_province = ROOT
				}
				add_core = ROOT
				remove_core = A13 #Gawed
				add_base_tax = 3
				add_base_production = 3
				add_base_manpower = 3
				add_permanent_province_modifier = {
					name = vanbury_steel_foundry
					duration = -1
				}
				add_province_modifier = {
					name = telgeir_urban_development
					duration = 18250 #50 years
				}
				center_of_trade = 2
				move_capital_effect = yes
			}
		}
	}
}

telgeir_column_3 = {
	slot = 3
	generic = no
	ai = yes
	potential = {
		tag = A62
	}
	has_country_shield = yes
	
	telgeir_own_aranmas = {
		icon = mission_collect_yasak
		required_missions = {
			telgeir_full_fl
		}
		position = 2
		
		provinces_to_highlight = {
			province_id = 262 #Aranmas
			NOT = {
				owned_by = ROOT
			}
		}
		
		trigger = {
			262 = { #Aranmas
				owned_by = ROOT
				is_core = ROOT
			}
		}
		
		effect = {
			heartland_borders_area = {
				limit = {
					NOT = { is_core = ROOT }
					NOT = { is_permanent_claim = ROOT }
				}
				add_permanent_claim = ROOT
			}
		}
	}
	
	telgeir_own_heartland_border = {
		icon = mission_conquer_50_development
		required_missions = {
			telgeir_own_aranmas
		}
		position = 3
		
		provinces_to_highlight = {
			area = heartland_borders_area
			NOT = {
				owned_by = ROOT
			}
		}
		
		trigger = {
			heartland_borders_area = {
				type = all
				owned_by = ROOT
				is_core = ROOT
			}
		}
		
		effect = {
			damescrown_area = {
				limit = {
					NOT = { is_core = ROOT }
					NOT = { is_permanent_claim = ROOT }
				}
				add_permanent_claim = ROOT
			}
		}
	}
	
	telgeir_own_damescrown = {
		icon = mission_heart_of_the_hansa
		required_missions = {
			telgeir_own_heartland_border
		}
		position = 4
		
		provinces_to_highlight = {
			area = damescrown_area
			NOT = {
				owned_by = ROOT
			}
		}
		
		trigger = {
			damescrown_area = {
				type = all
				owned_by = ROOT
				is_core = ROOT
			}
		}
		
		effect = {
			add_country_modifier = {
				name = rush_of_merchants
				duration = 7300 #20 years
			}
		}
	}
	
	telgeir_large_army = {
		icon = mission_assemble_an_army
		required_missions = {
			telgeir_own_damescrown
		}
		position = 5
		
		trigger = {
			army_size = 50
			legitimacy = 100
		}
		
		effect = {
			derwing_area = {
				limit = {
					NOT = { is_core = ROOT }
					NOT = { is_permanent_claim = ROOT }
				}
				add_permanent_claim = ROOT
			}
			golden_plains_area = {
				limit = {
					NOT = { is_core = ROOT }
					NOT = { is_permanent_claim = ROOT }
				}
				add_permanent_claim = ROOT
			}
			cestir_area = {
				limit = {
					NOT = { is_core = ROOT }
					NOT = { is_permanent_claim = ROOT }
				}
				add_permanent_claim = ROOT
			}
			arbaran_area = {
				limit = {
					NOT = { is_core = ROOT }
					NOT = { is_permanent_claim = ROOT }
				}
				add_permanent_claim = ROOT
			}
		}
	}
	
	telgeir_restore_vanbury_to_gawed = {
		icon = mission_mounted_battle
		required_missions = {
			telgeir_large_army
		}
		position = 6
		
		provinces_to_highlight = {
			OR = {
				area = derwing_area
				area = golden_plains_area
				area = cestir_area
				area = arbaran_area
			}
			NOT = {
				country_or_non_sovereign_subject_holds = ROOT
			}
		}
		
		trigger = {
			derwing_area = {
				type = all
				country_or_non_sovereign_subject_holds = ROOT
			}
			golden_plains_area = {
				type = all
				country_or_non_sovereign_subject_holds = ROOT
			}
			cestir_area = {
				type = all
				country_or_non_sovereign_subject_holds = ROOT
			}
			arbaran_area = {
				type = all
				country_or_non_sovereign_subject_holds = ROOT
			}
		}
		
		effect = {
			add_casus_belli = {
				target = A13 #Gawed
				type = cb_restore_personal_union
				months = 300
			}
			alenic_expanse_area = {
				limit = {
					NOT = { is_core = ROOT }
					NOT = { is_permanent_claim = ROOT }
				}
				add_permanent_claim = ROOT
			}
			south_alen_area = {
				limit = {
					NOT = { is_core = ROOT }
					NOT = { is_permanent_claim = ROOT }
				}
				add_permanent_claim = ROOT
			}
			gawed_area = {
				limit = {
					NOT = { is_core = ROOT }
					NOT = { is_permanent_claim = ROOT }
				}
				add_permanent_claim = ROOT
			}
			vertesk_area = {
				limit = {
					NOT = { is_core = ROOT }
					NOT = { is_permanent_claim = ROOT }
				}
				add_permanent_claim = ROOT
			}
		}
	}
	
	telgeir_gawed_throne_restored = {
		icon = mission_crowning
		required_missions = {
			telgeir_restore_vanbury_to_gawed
		}
		position = 7
		
		provinces_to_highlight = {
			OR = {
				area = alenic_expanse_area
				area = south_alen_area
				area = gawed_area
			}
			NOT = {
				country_or_non_sovereign_subject_holds = ROOT
			}
		}
		
		trigger = {
			OR = {
				AND = {
					senior_union_with = A13 #Gawed
					A13 = {
						has_opinion = {
							who = ROOT
							value = 200
						}
					}
				}
				AND = {
					alenic_expanse_area = {
						type = all
						owned_by = ROOT
						is_core = ROOT
					}
					south_alen_area = {
						type = all
						owned_by = ROOT
						is_core = ROOT
					}
					gawed_area = {
						type = all
						owned_by = ROOT
						is_core = ROOT
					}
				}
			}
		}
		
		effect = {
			alenic_frontier_region = {
				limit = {
					NOT = { is_core = ROOT }
					NOT = { is_permanent_claim = ROOT }
				}
				add_permanent_claim = ROOT
			}
			add_country_modifier = {
				name = telgeir_gawed_throne_restored_mod
				duration = 18250 #50 years
			}
		}
	}
	
	telgeir_gawed_anbennarization = {
		icon = mission_city_prosperity
		required_missions = {
			telgeir_return_to_vanbury
			telgeir_gawed_throne_restored
			telgeir_own_vertesk
		}
		position = 8
		
		provinces_to_highlight = {
			OR = {
				area = gawed_area
				area = south_alen_area
			}
			NOT = {
				owned_by = ROOT
			}
		}
		
		trigger = {
			gawed_area = {
				type = all
				owned_by = ROOT
				is_core = ROOT
			}
		}
		
		effect = {
			hidden_effect = {
				every_core_province = { 
					limit = {
						OR = {
							culture = esmari
							AND = {
								culture = gawedi
								OR = {
									area = gawed_area
									area = south_alen_area
								}
							}
						}
					}
					change_culture = telgeiran
				}
			}
			
			if = {
				limit = { ruler_culture = ROOT }
				set_ruler_culture = telgeiran
			}
			if = {
				limit = { has_heir = yes heir_culture = ROOT }
				set_heir_culture = telgeiran
			}
			if = {
				limit = { has_consort = yes consort_culture = ROOT }
				set_consort_culture = telgeiran
			}
			
			change_primary_culture = telgeiran
			
			remove_non_electors_emperors_from_empire_effect = yes
			if = {
				limit = {
					NOT = { government_rank = 2 }
				}
				set_government_rank = 2
			}
		}
	}
}

telgeir_development = {
	slot = 4
	generic = no
	ai = yes
	potential = {
		tag = A62
	}
	has_country_shield = yes
	
	telgeir_telgeiran_renaissance = {
		icon = mission_early_game_buildings
		required_missions = { }
		position = 1
		
		trigger = {
			has_institution = renaissance
			911 = { #Telgeir
				owned_by = ROOT
				is_core = ROOT
				development = 35
				has_production_building_trigger = yes
			}
		}
		
		effect = {
			911 = { #Telgeir
				add_province_modifier = {
					name = telgeir_urban_development
					duration = 18250 #50 years
				}
			}
		}
	}
	
	telgeir_giberd = {
		icon = mission_science
		required_missions = {
			telgeir_telgeiran_renaissance
		}
		position = 2
		
		trigger = {
			OR = {
				AND = {
					A81 = { #Giberd
						has_opinion = {
							who = ROOT
							value = 100
						}
					}
					dip_power = 50
				}
				AND = {
					A81 = { #Giberd
						exists = no
					}
					dip_power = 100
				}
			}
		}
		
		effect = {
			if = {
				limit = {
					A81 = { #Giberd
						exists = no
					}
				}
				add_dip_power = -100
			}
			else = {
				add_dip_power = -50
			}
			largest_increase_of_gnomish_tolerance_effect = yes
			911 = { #Telgeir
				add_gnomish_minority_size_effect = yes
			}
			add_country_modifier = {
				name = innovative_modifier
				duration = 7300 #20 years
			}
			mission_reward_artifice_points_2 = yes
		}
	}
	
	telgeir_advanced_foundry = {
		icon = mission_smith
		required_missions = {
			telgeir_giberd
			telgeir_silverforge
		}
		position = 3
		
		trigger = {
			has_institution = manufactories
			911 = { #Telgeir
				owned_by = ROOT
				is_core = ROOT
				development = 50
				OR = {
					has_building = weapons
					NOT = { trade_goods = iron }
				}
			}
			years_of_income = 2
		}
		
		effect = {
			add_years_of_income = -2
			911 = { #Telgeir
				hidden_effect = {
					remove_province_modifier = vanbury_steel_foundry
				}
				add_permanent_province_modifier = {
					name = telgeir_modernized_foundry
					duration = -1
				}
			}
		}
	}
	
	telgeir_industrialization = {
		icon = mission_rb_build_furnaces
		required_missions = {
			telgeir_advanced_foundry
		}
		position = 4
		
		trigger = {
			coal = 4
			furnace = 4
		}
		
		effect = {
			custom_tooltip = telgeir_coal_tooltip
			hidden_effect = {
				every_owned_province = {
					limit = {
						trade_goods = coal
						has_building = furnace
					}
					add_base_production = 1
					add_base_manpower = 1
				}
			}
			mission_reward_artifice_points_3 = yes
		}
	}
	
	telgeir_own_vertesk = {
		icon = mission_hanseatic_city
		required_missions = {
			telgeir_restore_vanbury_to_gawed
		}
		position = 7
		
		provinces_to_highlight = {
			area = vertesk_area
			NOT = {
				owned_by = ROOT
			}
		}
		
		trigger = {
			vertesk_area = {
				type = all
				owned_by = ROOT
				is_core = ROOT
			}
		}
		
		effect = {
			add_country_modifier = {
				name = telgeir_vertesk_controlled
				duration = 7300 #20 years
			}
		}
	}
}

telgeir_dwarf = {
	slot = 5
	generic = no
	ai = yes
	potential = {
		tag = A62
	}
	has_country_shield = yes
	
	telgeir_silverforge = {
		icon = mission_mechanical_mining
		required_missions = {
			telgeir_telgeiran_renaissance
		}
		position = 2
		
		trigger = {
			OR = {
				AND = {
					A73 = { #Silverforge
						has_opinion = {
							who = ROOT
							value = 100
						}
					}
					dip_power = 50
				}
				AND = {
					A73 = { #Silverforge
						exists = no
					}
					dip_power = 100
				}
			}
		}
		
		effect = {
			if = {
				limit = {
					A73 = { #Silverforge
						exists = no
					}
				}
				add_dip_power = -100
			}
			else = {
				add_dip_power = -50
			}
			largest_increase_of_dwarven_tolerance_effect = yes
			add_country_modifier = {
				name = production_improvements
				duration = 7300 # 20 years
			}
		}
	}
}

telgeir_europe_hre = {

	slot = 5
	generic = no
	ai = yes
	
	potential = {
		tag = A62
	}
	has_country_shield = no
	
	telgeir_hre_electors = {
		icon = mission_alliances
		required_missions = { }
		position = 3
		
		trigger = {
			if = {
				limit = {
					hre_size = 1
				}
				calc_true_if = {
					desc = gen_hre_electors.tooltip
					all_elector = {
						preferred_emperor = ROOT
					}
					amount = 2
				}
			}
			else = {
				num_of_allies = 3
			}
		}
		
		effect = {
			add_prestige = 10
			add_country_modifier = {
				name = "gen_hre_diplomacy_mod"
				duration = 5475
			}
		}
	}
	
	telgeir_hre_emperor = {
		icon = mission_empire
		required_missions = { telgeir_hre_electors }
		position = 4
		
		trigger = {
			if = {
				limit = {
					hre_size = 1
				}
				is_emperor = yes
			}
			else = {
				government_rank = 3
			}
		}
		
		effect = {
			add_country_modifier = {
				name = "gen_hre_emperor_mod"
				duration = 5475
			}
		}
	}
}

telgeir_europe_hre_ban = {

	slot = 5
	generic = no
	ai = yes
	
	potential = {
		tag = A62
	}
	has_country_shield = no
	
	telgeir_hre_imperial_ban = {
		icon = mission_cannons_firing
		required_missions = { telgeir_hre_emperor }
		position = 5
		
		provinces_to_highlight = {
			AND = {
				is_part_of_hre = yes
				owner = {
					is_part_of_hre = no
				}
			}
		}
		
		trigger = {
			if = {
				limit = {
					hre_size = 1
					NOT = { has_dlc = "Emperor" }
				}
				hre_reform_passed = reichsreform
				is_emperor = yes
				NOT = { num_of_foreign_hre_provinces = 1 }
			}
			else_if = {
				limit = {
					hre_size = 1
					has_dlc = "Emperor"
				}
				hre_reform_passed = emperor_reichsreform
				is_emperor = yes
				NOT = { num_of_foreign_hre_provinces = 1 }
			}
			else = {
				custom_trigger_tooltip = {
					tooltip = imperial_ban_fallback_tt
					NOT = {
						any_core_province = {
							NOT = { owned_by = ROOT }
						}
					}
				}
			}
		}
		
		effect = {
			add_prestige = 10
			if = {
				limit = {
					hre_size = 1
				}
				add_imperial_influence = 10
				add_country_modifier = {
					name = "gen_hre_imperial_ban_mod"
					duration = 5475
				}
			}
		}
	}
}