country_decisions = {

	black_demense_nation = { #Z99
		major = yes
		potential = {
			always = no	#this is just a debuggy thing so prevent people from getting it
			has_country_flag = lich_ruler
			government = theocracy
			capital_scope = { continent = europe }
			NOT = { has_country_flag = formed_black_demense_flag }
			
			normal_or_historical_nations = yes
			was_never_end_game_tag_trigger = yes
		}
		allow = {
			is_at_war = no
			is_free_or_tributary_trigger = yes
			is_nomad = no			
			NOT = { exists = Z99 }
			
			num_of_cities = 100
			
			has_country_flag = lich_ruler
			
		}
		effect = {
			change_tag = Z99
			hidden_effect = { restore_country_name = yes }
			swap_non_generic_missions = yes
			#remove_non_electors_emperors_from_empire_effect = yes
			if = {
				limit = {
					NOT = { government_rank = 3 }
				}
				set_government_rank = 3
			}
			
			if = {
				limit = {
					NOT = { government = theocracy }
				}
				change_government = theocracy
				add_government_reform = magocracy_reform	#make it unique later
			}
			
			add_country_modifier = {
				name = "centralization_modifier"
				duration = 7300
			}
			add_prestige = 50
			if = {
				limit = {
					has_custom_ideas = no
				}
				country_event = { id = ideagroups.1 } #Swap Ideas
			}
			set_country_flag = formed_black_demense_flag
		}
		ai_will_do = {
			factor = 1
		}
	}
	
}
