
country_decisions = {
	rebuild_golden_highway_bulwar_proper = {
		major = yes
	
		potential = {
			golden_highway_bulwar_proper = {
				country_or_non_sovereign_subject_holds = ROOT
				NOT = {
					has_province_modifier = golden_highway_construction_stalled
					has_province_modifier = golden_highway_under_construction
					has_province_modifier = golden_highway
				}
			}
			is_subject = no
		}
		
		provinces_to_highlight = {
		    province_group = golden_highway_bulwar_proper
		}	
		
		allow = {
			golden_highway_bulwar_proper = {
				type = all
				country_or_non_sovereign_subject_holds = ROOT
			}
			treasury = 650
			adm_power = 200
		}
	
		effect = {
			add_treasury = -650
			add_adm_power = -200
			every_owned_province = {
				limit = { province_group = golden_highway_bulwar_proper }
				add_permanent_province_modifier = {
					name = golden_highway_under_construction
					duration = -1
				}
			}
			every_subject_country = {
				every_owned_province = {
					limit = { province_group = golden_highway_bulwar_proper }
					add_permanent_province_modifier = {
						name = golden_highway_under_construction
						duration = -1
					}
				}
			}
		}
		
		ai_will_do = {
			factor = 1
		}
	}
	
	rebuild_golden_highway_far_bulwar = {
		major = yes
	
		potential = {
			golden_highway_far_bulwar = {
				country_or_non_sovereign_subject_holds = ROOT
				NOT = {
					has_province_modifier = golden_highway_construction_stalled
					has_province_modifier = golden_highway_under_construction
					has_province_modifier = golden_highway
				}
			}
			is_subject = no
		}
		
		provinces_to_highlight = {
		    province_group = golden_highway_far_bulwar
		}
		
		allow = {
			golden_highway_far_bulwar = {
				type = all
				country_or_non_sovereign_subject_holds = ROOT
			}
			treasury = 650
			adm_power = 200
		}
	
		effect = {
			add_treasury = -650
			add_adm_power = -200
			every_owned_province = {
				limit = { province_group = golden_highway_far_bulwar }
				add_permanent_province_modifier = {
					name = golden_highway_under_construction
					duration = -1
				}
			}
			every_subject_country = {
				every_owned_province = {
					limit = { province_group = golden_highway_far_bulwar }
					add_permanent_province_modifier = {
						name = golden_highway_under_construction
						duration = -1
					}
				}
			}
		}
		
		ai_will_do = {
			factor = 1
		}
	}
	
	rebuild_golden_highway_far_salahad = {
		major = yes
	
		potential = {
			golden_highway_far_salahad = {
				country_or_non_sovereign_subject_holds = ROOT
				NOT = {
					has_province_modifier = golden_highway_construction_stalled
					has_province_modifier = golden_highway_under_construction
					has_province_modifier = golden_highway
				}
			}
			is_subject = no
		}
		
		provinces_to_highlight = {
		    province_group = golden_highway_far_salahad
		}
		
		allow = {
			golden_highway_far_salahad = {
				type = all
				country_or_non_sovereign_subject_holds = ROOT
			}
			treasury = 350
			adm_power = 200
		}
	
		effect = {
			add_treasury = -350
			add_adm_power = -200
			every_owned_province = {
				limit = { province_group = golden_highway_far_salahad }
				add_permanent_province_modifier = {
					name = golden_highway_under_construction
					duration = -1
				}
			}
			every_subject_country = {
				every_owned_province = {
					limit = { province_group = golden_highway_far_salahad }
					add_permanent_province_modifier = {
						name = golden_highway_under_construction
						duration = -1
					}
				}
			}
		}
		
		ai_will_do = {
			factor = 1
		}
	}
	
	rebuild_golden_highway_rahen_coast = {
		major = yes
	
		potential = {
			golden_highway_rahen_coast = {
				country_or_non_sovereign_subject_holds = ROOT
				NOT = {
					has_province_modifier = golden_highway_construction_stalled
					has_province_modifier = golden_highway_under_construction
					has_province_modifier = golden_highway
				}
			}
			is_subject = no
		}
		
		provinces_to_highlight = {
		    province_group = golden_highway_rahen_coast
		}
		
		allow = {
			golden_highway_rahen_coast = {
				type = all
				country_or_non_sovereign_subject_holds = ROOT
			}
			treasury = 700
			adm_power = 200
		}
	
		effect = {
			add_treasury = -700
			add_adm_power = -200
			every_owned_province = {
				limit = { province_group = golden_highway_rahen_coast }
				add_permanent_province_modifier = {
					name = golden_highway_under_construction
					duration = -1
				}
			}
			every_subject_country = {
				every_owned_province = {
					limit = { province_group = golden_highway_rahen_coast }
					add_permanent_province_modifier = {
						name = golden_highway_under_construction
						duration = -1
					}
				}
			}
		}
		
		ai_will_do = {
			factor = 1
		}
	}
	
	rebuild_golden_highway_dhujat = {
		major = yes
	
		potential = {
			golden_highway_dhujat = {
				country_or_non_sovereign_subject_holds = ROOT
				NOT = {
					has_province_modifier = golden_highway_construction_stalled
					has_province_modifier = golden_highway_under_construction
					has_province_modifier = golden_highway
				}
			}
			is_subject = no
		}
		
		provinces_to_highlight = {
		    province_group = golden_highway_dhujat
		}
		
		allow = {
			golden_highway_dhujat = {
				type = all
				country_or_non_sovereign_subject_holds = ROOT
			}
			treasury = 350
			adm_power = 200
		}
	
		effect = {
			add_treasury = -350
			add_adm_power = -200
			every_owned_province = {
				limit = { province_group = golden_highway_dhujat }
				add_permanent_province_modifier = {
					name = golden_highway_under_construction
					duration = -1
				}
			}
			every_subject_country = {
				every_owned_province = {
					limit = { province_group = golden_highway_dhujat }
					add_permanent_province_modifier = {
						name = golden_highway_under_construction
						duration = -1
					}
				}
			}
		}
		
		ai_will_do = {
			factor = 1
		}
	}
	
	rebuild_golden_highway_xianjie = {
		major = yes
	
		potential = {
			golden_highway_xianjie = {
				country_or_non_sovereign_subject_holds = ROOT
				NOT = {
					has_province_modifier = golden_highway_construction_stalled
					has_province_modifier = golden_highway_under_construction
					has_province_modifier = golden_highway
				}
			}
			is_subject = no
		}
		
		provinces_to_highlight = {
		    province_group = golden_highway_xianjie
		}
		
		allow = {
			golden_highway_xianjie = {
				type = all
				country_or_non_sovereign_subject_holds = ROOT
			}
			treasury = 700
			adm_power = 200
		}
	
		effect = {
			add_treasury = -700
			add_adm_power = -200
			every_owned_province = {
				limit = { province_group = golden_highway_xianjie }
				add_permanent_province_modifier = {
					name = golden_highway_under_construction
					duration = -1
				}
			}
			every_subject_country = {
				every_owned_province = {
					limit = { province_group = golden_highway_xianjie }
					add_permanent_province_modifier = {
						name = golden_highway_under_construction
						duration = -1
					}
				}
			}
		}
		
		ai_will_do = {
			factor = 1
		}
	}
	
	rebuild_golden_highway_upper_yanshen = {
		major = yes
	
		potential = {
			golden_highway_upper_yanshen = {
				country_or_non_sovereign_subject_holds = ROOT
				NOT = {
					has_province_modifier = golden_highway_construction_stalled
					has_province_modifier = golden_highway_under_construction
					has_province_modifier = golden_highway
				}
			}
			is_subject = no
		}
		
		provinces_to_highlight = {
		    province_group = golden_highway_upper_yanshen
		}
		
		allow = {
			golden_highway_upper_yanshen = {
				type = all
				country_or_non_sovereign_subject_holds = ROOT
			}
			treasury = 500
			adm_power = 200
		}
	
		effect = {
			add_treasury = -500
			add_adm_power = -200
			every_owned_province = {
				limit = { province_group = golden_highway_upper_yanshen }
				add_permanent_province_modifier = {
					name = golden_highway_under_construction
					duration = -1
				}
			}
			every_subject_country = {
				every_owned_province = {
					limit = { province_group = golden_highway_upper_yanshen }
					add_permanent_province_modifier = {
						name = golden_highway_under_construction
						duration = -1
					}
				}
			}
		}
		
		ai_will_do = {
			factor = 1
		}
	}
	
	rebuild_golden_highway_lower_yanshen = {
		major = yes
	
		potential = {
			golden_highway_lower_yanshen = {
				country_or_non_sovereign_subject_holds = ROOT
				NOT = {
					has_province_modifier = golden_highway_construction_stalled
					has_province_modifier = golden_highway_under_construction
					has_province_modifier = golden_highway
				}
			}
			is_subject = no
		}
		
		provinces_to_highlight = {
		    province_group = golden_highway_lower_yanshen
		}
		
		allow = {
			golden_highway_lower_yanshen = {
				type = all
				country_or_non_sovereign_subject_holds = ROOT
			}
			treasury = 300
			adm_power = 200
		}
	
		effect = {
			add_treasury = -300
			add_adm_power = -200
			every_owned_province = {
				limit = { province_group = golden_highway_lower_yanshen }
				add_permanent_province_modifier = {
					name = golden_highway_under_construction
					duration = -1
				}
			}
			every_subject_country = {
				every_owned_province = {
					limit = { province_group = golden_highway_lower_yanshen }
					add_permanent_province_modifier = {
						name = golden_highway_under_construction
						duration = -1
					}
				}
			}
		}
		
		ai_will_do = {
			factor = 1
		}
	}
	
	golden_highway_pause_all_construction = {
		major = yes
		
		potential = {
			is_subject = no
			any_owned_province = {
				has_province_modifier = golden_highway_under_construction
			}
			any_subject_country = {
				any_owned_province = {
					has_province_modifier = golden_highway_under_construction
				}
			}
		}
		
		effect = {
			every_owned_province = {
				limit = { has_province_modifier = golden_highway_under_construction }
				remove_province_modifier = golden_highway_under_construction
				add_permanent_province_modifier = {
					name = golden_highway_construction_stalled
					duration = -1
				}
			}
			every_subject_country = {
				every_owned_province = {
					limit = { has_province_modifier = golden_highway_under_construction }
					remove_province_modifier = golden_highway_under_construction
					add_permanent_province_modifier = {
						name = golden_highway_construction_stalled
						duration = -1
					}
				}
			}
		}
		
		ai_will_do = {
			factor = 0
		}
	}
	
	golden_highway_bulwar_proper_resume_construction = {
		major = yes
		
		potential = {
			golden_highway_bulwar_proper = {
				country_or_non_sovereign_subject_holds = ROOT
				has_province_modifier = golden_highway_construction_stalled
			}
			is_subject = no
		}
		
		effect = {
			every_owned_province = {
				limit = { has_province_modifier = golden_highway_construction_stalled province_group = golden_highway_bulwar_proper }
				remove_province_modifier = golden_highway_construction_stalled
				add_permanent_province_modifier = {
					name = golden_highway_under_construction
					duration = -1
				}
			}
			every_subject_country = {
				every_owned_province = {
					limit = { has_province_modifier = golden_highway_construction_stalled province_group = golden_highway_bulwar_proper }
					remove_province_modifier = golden_highway_construction_stalled
					add_permanent_province_modifier = {
						name = golden_highway_under_construction
						duration = -1
					}
				}
			}
			
			if = {
				limit = {
					num_of_owned_provinces_with = {
						value = 15
						has_province_modifier = golden_highway_construction_stalled
						province_group = golden_highway_bulwar_proper
					}
				}
				add_treasury = -750
			}
			else_if = {
				limit = {
					num_of_owned_provinces_with = {
						value = 14
						has_province_modifier = golden_highway_construction_stalled
						province_group = golden_highway_bulwar_proper
					}
				}
				add_treasury = -700
			}
			else_if = {
				limit = {
					num_of_owned_provinces_with = {
						value = 13
						has_province_modifier = golden_highway_construction_stalled
						province_group = golden_highway_bulwar_proper
					}
				}
				add_treasury = -650
			}
			else_if = {
				limit = {
					num_of_owned_provinces_with = {
						value = 12
						has_province_modifier = golden_highway_construction_stalled
						province_group = golden_highway_bulwar_proper
					}
				}
				add_treasury = -600
			}
			else_if = {
				limit = {
					num_of_owned_provinces_with = {
						value = 11
						has_province_modifier = golden_highway_construction_stalled
						province_group = golden_highway_bulwar_proper
					}
				}
				add_treasury = -550
			}
			else_if = {
				limit = {
					num_of_owned_provinces_with = {
						value = 10
						has_province_modifier = golden_highway_construction_stalled
						province_group = golden_highway_bulwar_proper
					}
				}
				add_treasury = -500
			}
			else_if = {
				limit = {
					num_of_owned_provinces_with = {
						value = 9
						has_province_modifier = golden_highway_construction_stalled
						province_group = golden_highway_bulwar_proper
					}
				}
				add_treasury = -450
			}
			else_if = {
				limit = {
					num_of_owned_provinces_with = {
						value = 8
						has_province_modifier = golden_highway_construction_stalled
						province_group = golden_highway_bulwar_proper
					}
				}
				add_treasury = -400
			}
			else_if = {
				limit = {
					num_of_owned_provinces_with = {
						value = 7
						has_province_modifier = golden_highway_construction_stalled
						province_group = golden_highway_bulwar_proper
					}
				}
				add_treasury = -350
			}
			else_if = {
				limit = {
					num_of_owned_provinces_with = {
						value = 6
						has_province_modifier = golden_highway_construction_stalled
						province_group = golden_highway_bulwar_proper
					}
				}
				add_treasury = -300
			}
			else_if = {
				limit = {
					num_of_owned_provinces_with = {
						value = 5
						has_province_modifier = golden_highway_construction_stalled
						province_group = golden_highway_bulwar_proper
					}
				}
				add_treasury = -250
			}
			else_if = {
				limit = {
					num_of_owned_provinces_with = {
						value = 4
						has_province_modifier = golden_highway_construction_stalled
						province_group = golden_highway_bulwar_proper
					}
				}
				add_treasury = -200
			}
			else_if = {
				limit = {
					num_of_owned_provinces_with = {
						value = 3
						has_province_modifier = golden_highway_construction_stalled
						province_group = golden_highway_bulwar_proper
					}
				}
				add_treasury = -150
			}
			else_if = {
				limit = {
					num_of_owned_provinces_with = {
						value = 2
						has_province_modifier = golden_highway_construction_stalled
						province_group = golden_highway_bulwar_proper
					}
				}
				add_treasury = -100
			}
			else_if = {
				limit = {
					num_of_owned_provinces_with = {
						value = 1
						has_province_modifier = golden_highway_construction_stalled
						province_group = golden_highway_bulwar_proper
					}
				}
				add_treasury = -50
			}
			every_subject_country = {
				limit = {
					any_owned_province = { 
						has_province_modifier = golden_highway_construction_stalled
						province_group = golden_highway_far_bulwar
					}
				}
				if = {
					limit = {
						num_of_owned_provinces_with = {
							value = 15
							has_province_modifier = golden_highway_construction_stalled
							province_group = golden_highway_bulwar_proper
						}
					}
					ROOT = { add_treasury = -750 }
				}
				else_if = {
					limit = {
						num_of_owned_provinces_with = {
							value = 14
							has_province_modifier = golden_highway_construction_stalled
							province_group = golden_highway_bulwar_proper
						}
					}
					ROOT = { add_treasury = -700 }
				}
				else_if = {
					limit = {
						num_of_owned_provinces_with = {
							value = 13
							has_province_modifier = golden_highway_construction_stalled
							province_group = golden_highway_bulwar_proper
						}
					}
					ROOT = { add_treasury = -650 }
				}
				else_if = {
					limit = {
						num_of_owned_provinces_with = {
							value = 12
							has_province_modifier = golden_highway_construction_stalled
							province_group = golden_highway_bulwar_proper
						}
					}
					ROOT = { add_treasury = -600 }
				}
				else_if = {
					limit = {
						num_of_owned_provinces_with = {
							value = 11
							has_province_modifier = golden_highway_construction_stalled
							province_group = golden_highway_bulwar_proper
						}
					}
					ROOT = { add_treasury = -550 }
				}
				else_if = {
					limit = {
						num_of_owned_provinces_with = {
							value = 10
							has_province_modifier = golden_highway_construction_stalled
							province_group = golden_highway_bulwar_proper
						}
					}
					ROOT = { add_treasury = -500 }
				}
				else_if = {
					limit = {
						num_of_owned_provinces_with = {
							value = 9
							has_province_modifier = golden_highway_construction_stalled
							province_group = golden_highway_bulwar_proper
						}
					}
					ROOT = { add_treasury = -450 }
				}
				else_if = {
					limit = {
						num_of_owned_provinces_with = {
							value = 8
							has_province_modifier = golden_highway_construction_stalled
							province_group = golden_highway_bulwar_proper
						}
					}
					ROOT = { add_treasury = -400 }
				}
				else_if = {
					limit = {
						num_of_owned_provinces_with = {
							value = 7
							has_province_modifier = golden_highway_construction_stalled
							province_group = golden_highway_bulwar_proper
						}
					}
					ROOT = { add_treasury = -350 }
				}
				else_if = {
					limit = {
						num_of_owned_provinces_with = {
							value = 6
							has_province_modifier = golden_highway_construction_stalled
							province_group = golden_highway_bulwar_proper
						}
					}
					ROOT = { add_treasury = -300 }
				}
				else_if = {
					limit = {
						num_of_owned_provinces_with = {
							value = 5
							has_province_modifier = golden_highway_construction_stalled
							province_group = golden_highway_bulwar_proper
						}
					}
					ROOT = { add_treasury = -250 }
				}
				else_if = {
					limit = {
						num_of_owned_provinces_with = {
							value = 4
							has_province_modifier = golden_highway_construction_stalled
							province_group = golden_highway_bulwar_proper
						}
					}
					ROOT = { add_treasury = -200 }
				}
				else_if = {
					limit = {
						num_of_owned_provinces_with = {
							value = 3
							has_province_modifier = golden_highway_construction_stalled
							province_group = golden_highway_bulwar_proper
						}
					}
					ROOT = { add_treasury = -150 }
				}
				else_if = {
					limit = {
						num_of_owned_provinces_with = {
							value = 2
							has_province_modifier = golden_highway_construction_stalled
							province_group = golden_highway_bulwar_proper
						}
					}
					ROOT = { add_treasury = -100 }
				}
				else_if = {
					limit = {
						num_of_owned_provinces_with = {
							value = 1
							has_province_modifier = golden_highway_construction_stalled
							province_group = golden_highway_bulwar_proper
						}
					}
					ROOT = { add_treasury = -50 }
				}
			}
		}
	}
	
	golden_highway_far_bulwar_resume_construction = {
		major = yes
		
		potential = {
			golden_highway_far_bulwar = {
				country_or_non_sovereign_subject_holds = ROOT
				has_province_modifier = golden_highway_construction_stalled
			}
			is_subject = no
		}
		
		effect = {
			every_owned_province = {
				limit = { has_province_modifier = golden_highway_construction_stalled province_group = golden_highway_far_bulwar }
				remove_province_modifier = golden_highway_construction_stalled
				add_permanent_province_modifier = {
					name = golden_highway_under_construction
					duration = -1
				}
			}
			every_subject_country = {
				every_owned_province = {
					limit = { has_province_modifier = golden_highway_construction_stalled province_group = golden_highway_far_bulwar }
					remove_province_modifier = golden_highway_construction_stalled
					add_permanent_province_modifier = {
						name = golden_highway_under_construction
						duration = -1
					}
				}
			}
			
			if = {
				limit = {
					num_of_owned_provinces_with = {
						value = 15
						has_province_modifier = golden_highway_construction_stalled
						province_group = golden_highway_far_bulwar
					}
				}
				add_treasury = -750
			}
			else_if = {
				limit = {
					num_of_owned_provinces_with = {
						value = 14
						has_province_modifier = golden_highway_construction_stalled
						province_group = golden_highway_far_bulwar
					}
				}
				add_treasury = -700
			}
			else_if = {
				limit = {
					num_of_owned_provinces_with = {
						value = 13
						has_province_modifier = golden_highway_construction_stalled
						province_group = golden_highway_far_bulwar
					}
				}
				add_treasury = -650
			}
			else_if = {
				limit = {
					num_of_owned_provinces_with = {
						value = 12
						has_province_modifier = golden_highway_construction_stalled
						province_group = golden_highway_far_bulwar
					}
				}
				add_treasury = -600
			}
			else_if = {
				limit = {
					num_of_owned_provinces_with = {
						value = 11
						has_province_modifier = golden_highway_construction_stalled
						province_group = golden_highway_far_bulwar
					}
				}
				add_treasury = -550
			}
			else_if = {
				limit = {
					num_of_owned_provinces_with = {
						value = 10
						has_province_modifier = golden_highway_construction_stalled
						province_group = golden_highway_far_bulwar
					}
				}
				add_treasury = -500
			}
			else_if = {
				limit = {
					num_of_owned_provinces_with = {
						value = 9
						has_province_modifier = golden_highway_construction_stalled
						province_group = golden_highway_far_bulwar
					}
				}
				add_treasury = -450
			}
			else_if = {
				limit = {
					num_of_owned_provinces_with = {
						value = 8
						has_province_modifier = golden_highway_construction_stalled
						province_group = golden_highway_far_bulwar
					}
				}
				add_treasury = -400
			}
			else_if = {
				limit = {
					num_of_owned_provinces_with = {
						value = 7
						has_province_modifier = golden_highway_construction_stalled
						province_group = golden_highway_far_bulwar
					}
				}
				add_treasury = -350
			}
			else_if = {
				limit = {
					num_of_owned_provinces_with = {
						value = 6
						has_province_modifier = golden_highway_construction_stalled
						province_group = golden_highway_far_bulwar
					}
				}
				add_treasury = -300
			}
			else_if = {
				limit = {
					num_of_owned_provinces_with = {
						value = 5
						has_province_modifier = golden_highway_construction_stalled
						province_group = golden_highway_far_bulwar
					}
				}
				add_treasury = -250
			}
			else_if = {
				limit = {
					num_of_owned_provinces_with = {
						value = 4
						has_province_modifier = golden_highway_construction_stalled
						province_group = golden_highway_far_bulwar
					}
				}
				add_treasury = -200
			}
			else_if = {
				limit = {
					num_of_owned_provinces_with = {
						value = 3
						has_province_modifier = golden_highway_construction_stalled
						province_group = golden_highway_far_bulwar
					}
				}
				add_treasury = -150
			}
			else_if = {
				limit = {
					num_of_owned_provinces_with = {
						value = 2
						has_province_modifier = golden_highway_construction_stalled
						province_group = golden_highway_far_bulwar
					}
				}
				add_treasury = -100
			}
			else_if = {
				limit = {
					num_of_owned_provinces_with = {
						value = 1
						has_province_modifier = golden_highway_construction_stalled
						province_group = golden_highway_far_bulwar
					}
				}
				add_treasury = -50
			}
			every_subject_country = {
				limit = {
					any_owned_province = { 
						has_province_modifier = golden_highway_construction_stalled
						province_group = golden_highway_far_bulwar
					}
				}
				if = {
					limit = {
						num_of_owned_provinces_with = {
							value = 15
							has_province_modifier = golden_highway_construction_stalled
							province_group = golden_highway_far_bulwar
						}
					}
					ROOT = { add_treasury = -750 }
				}
				else_if = {
					limit = {
						num_of_owned_provinces_with = {
							value = 14
							has_province_modifier = golden_highway_construction_stalled
							province_group = golden_highway_far_bulwar
						}
					}
					ROOT = { add_treasury = -700 }
				}
				else_if = {
					limit = {
						num_of_owned_provinces_with = {
							value = 13
							has_province_modifier = golden_highway_construction_stalled
							province_group = golden_highway_far_bulwar
						}
					}
					ROOT = { add_treasury = -650 }
				}
				else_if = {
					limit = {
						num_of_owned_provinces_with = {
							value = 12
							has_province_modifier = golden_highway_construction_stalled
							province_group = golden_highway_far_bulwar
						}
					}
					ROOT = { add_treasury = -600 }
				}
				else_if = {
					limit = {
						num_of_owned_provinces_with = {
							value = 11
							has_province_modifier = golden_highway_construction_stalled
							province_group = golden_highway_far_bulwar
						}
					}
					ROOT = { add_treasury = -550 }
				}
				else_if = {
					limit = {
						num_of_owned_provinces_with = {
							value = 10
							has_province_modifier = golden_highway_construction_stalled
							province_group = golden_highway_far_bulwar
						}
					}
					ROOT = { add_treasury = -500 }
				}
				else_if = {
					limit = {
						num_of_owned_provinces_with = {
							value = 9
							has_province_modifier = golden_highway_construction_stalled
							province_group = golden_highway_far_bulwar
						}
					}
					ROOT = { add_treasury = -450 }
				}
				else_if = {
					limit = {
						num_of_owned_provinces_with = {
							value = 8
							has_province_modifier = golden_highway_construction_stalled
							province_group = golden_highway_far_bulwar
						}
					}
					ROOT = { add_treasury = -400 }
				}
				else_if = {
					limit = {
						num_of_owned_provinces_with = {
							value = 7
							has_province_modifier = golden_highway_construction_stalled
							province_group = golden_highway_far_bulwar
						}
					}
					ROOT = { add_treasury = -350 }
				}
				else_if = {
					limit = {
						num_of_owned_provinces_with = {
							value = 6
							has_province_modifier = golden_highway_construction_stalled
							province_group = golden_highway_far_bulwar
						}
					}
					ROOT = { add_treasury = -300 }
				}
				else_if = {
					limit = {
						num_of_owned_provinces_with = {
							value = 5
							has_province_modifier = golden_highway_construction_stalled
							province_group = golden_highway_far_bulwar
						}
					}
					ROOT = { add_treasury = -250 }
				}
				else_if = {
					limit = {
						num_of_owned_provinces_with = {
							value = 4
							has_province_modifier = golden_highway_construction_stalled
							province_group = golden_highway_far_bulwar
						}
					}
					ROOT = { add_treasury = -200 }
				}
				else_if = {
					limit = {
						num_of_owned_provinces_with = {
							value = 3
							has_province_modifier = golden_highway_construction_stalled
							province_group = golden_highway_far_bulwar
						}
					}
					ROOT = { add_treasury = -150 }
				}
				else_if = {
					limit = {
						num_of_owned_provinces_with = {
							value = 2
							has_province_modifier = golden_highway_construction_stalled
							province_group = golden_highway_far_bulwar
						}
					}
					ROOT = { add_treasury = -100 }
				}
				else_if = {
					limit = {
						num_of_owned_provinces_with = {
							value = 1
							has_province_modifier = golden_highway_construction_stalled
							province_group = golden_highway_far_bulwar
						}
					}
					ROOT = { add_treasury = -50 }
				}
			}
		}
	}
	
	golden_highway_far_salahad_resume_construction = {
		major = yes
		
		potential = {
			golden_highway_far_salahad = {
				country_or_non_sovereign_subject_holds = ROOT
				has_province_modifier = golden_highway_construction_stalled
			}
			is_subject = no
		}
		
		effect = {
			every_owned_province = {
				limit = { has_province_modifier = golden_highway_construction_stalled province_group = golden_highway_far_salahad }
				remove_province_modifier = golden_highway_construction_stalled
				add_permanent_province_modifier = {
					name = golden_highway_under_construction
					duration = -1
				}
			}
			every_subject_country = {
				every_owned_province = {
					limit = { has_province_modifier = golden_highway_construction_stalled province_group = golden_highway_far_salahad }
					remove_province_modifier = golden_highway_construction_stalled
					add_permanent_province_modifier = {
						name = golden_highway_under_construction
						duration = -1
					}
				}
			}
			
			if = {
				limit = {
					num_of_owned_provinces_with = {
						value = 15
						has_province_modifier = golden_highway_construction_stalled
						province_group = golden_highway_far_salahad
					}
				}
				add_treasury = -750
			}
			else_if = {
				limit = {
					num_of_owned_provinces_with = {
						value = 14
						has_province_modifier = golden_highway_construction_stalled
						province_group = golden_highway_far_salahad
					}
				}
				add_treasury = -700
			}
			else_if = {
				limit = {
					num_of_owned_provinces_with = {
						value = 13
						has_province_modifier = golden_highway_construction_stalled
						province_group = golden_highway_far_salahad
					}
				}
				add_treasury = -650
			}
			else_if = {
				limit = {
					num_of_owned_provinces_with = {
						value = 12
						has_province_modifier = golden_highway_construction_stalled
						province_group = golden_highway_far_salahad
					}
				}
				add_treasury = -600
			}
			else_if = {
				limit = {
					num_of_owned_provinces_with = {
						value = 11
						has_province_modifier = golden_highway_construction_stalled
						province_group = golden_highway_far_salahad
					}
				}
				add_treasury = -550
			}
			else_if = {
				limit = {
					num_of_owned_provinces_with = {
						value = 10
						has_province_modifier = golden_highway_construction_stalled
						province_group = golden_highway_far_salahad
					}
				}
				add_treasury = -500
			}
			else_if = {
				limit = {
					num_of_owned_provinces_with = {
						value = 9
						has_province_modifier = golden_highway_construction_stalled
						province_group = golden_highway_far_salahad
					}
				}
				add_treasury = -450
			}
			else_if = {
				limit = {
					num_of_owned_provinces_with = {
						value = 8
						has_province_modifier = golden_highway_construction_stalled
						province_group = golden_highway_far_salahad
					}
				}
				add_treasury = -400
			}
			else_if = {
				limit = {
					num_of_owned_provinces_with = {
						value = 7
						has_province_modifier = golden_highway_construction_stalled
						province_group = golden_highway_far_salahad
					}
				}
				add_treasury = -350
			}
			else_if = {
				limit = {
					num_of_owned_provinces_with = {
						value = 6
						has_province_modifier = golden_highway_construction_stalled
						province_group = golden_highway_far_salahad
					}
				}
				add_treasury = -300
			}
			else_if = {
				limit = {
					num_of_owned_provinces_with = {
						value = 5
						has_province_modifier = golden_highway_construction_stalled
						province_group = golden_highway_far_salahad
					}
				}
				add_treasury = -250
			}
			else_if = {
				limit = {
					num_of_owned_provinces_with = {
						value = 4
						has_province_modifier = golden_highway_construction_stalled
						province_group = golden_highway_far_salahad
					}
				}
				add_treasury = -200
			}
			else_if = {
				limit = {
					num_of_owned_provinces_with = {
						value = 3
						has_province_modifier = golden_highway_construction_stalled
						province_group = golden_highway_far_salahad
					}
				}
				add_treasury = -150
			}
			else_if = {
				limit = {
					num_of_owned_provinces_with = {
						value = 2
						has_province_modifier = golden_highway_construction_stalled
						province_group = golden_highway_far_salahad
					}
				}
				add_treasury = -100
			}
			else_if = {
				limit = {
					num_of_owned_provinces_with = {
						value = 1
						has_province_modifier = golden_highway_construction_stalled
						province_group = golden_highway_far_salahad
					}
				}
				add_treasury = -50
			}
			every_subject_country = {
				limit = {
					any_owned_province = { 
						has_province_modifier = golden_highway_construction_stalled
						province_group = golden_highway_far_salahad
					}
				}
				if = {
					limit = {
						num_of_owned_provinces_with = {
							value = 15
							has_province_modifier = golden_highway_construction_stalled
							province_group = golden_highway_far_salahad
						}
					}
					ROOT = { add_treasury = -750 }
				}
				else_if = {
					limit = {
						num_of_owned_provinces_with = {
							value = 14
							has_province_modifier = golden_highway_construction_stalled
							province_group = golden_highway_far_salahad
						}
					}
					ROOT = { add_treasury = -700 }
				}
				else_if = {
					limit = {
						num_of_owned_provinces_with = {
							value = 13
							has_province_modifier = golden_highway_construction_stalled
							province_group = golden_highway_far_salahad
						}
					}
					ROOT = { add_treasury = -650 }
				}
				else_if = {
					limit = {
						num_of_owned_provinces_with = {
							value = 12
							has_province_modifier = golden_highway_construction_stalled
							province_group = golden_highway_far_salahad
						}
					}
					ROOT = { add_treasury = -600 }
				}
				else_if = {
					limit = {
						num_of_owned_provinces_with = {
							value = 11
							has_province_modifier = golden_highway_construction_stalled
							province_group = golden_highway_far_salahad
						}
					}
					ROOT = { add_treasury = -550 }
				}
				else_if = {
					limit = {
						num_of_owned_provinces_with = {
							value = 10
							has_province_modifier = golden_highway_construction_stalled
							province_group = golden_highway_far_salahad
						}
					}
					ROOT = { add_treasury = -500 }
				}
				else_if = {
					limit = {
						num_of_owned_provinces_with = {
							value = 9
							has_province_modifier = golden_highway_construction_stalled
							province_group = golden_highway_far_salahad
						}
					}
					ROOT = { add_treasury = -450 }
				}
				else_if = {
					limit = {
						num_of_owned_provinces_with = {
							value = 8
							has_province_modifier = golden_highway_construction_stalled
							province_group = golden_highway_far_salahad
						}
					}
					ROOT = { add_treasury = -400 }
				}
				else_if = {
					limit = {
						num_of_owned_provinces_with = {
							value = 7
							has_province_modifier = golden_highway_construction_stalled
							province_group = golden_highway_far_salahad
						}
					}
					ROOT = { add_treasury = -350 }
				}
				else_if = {
					limit = {
						num_of_owned_provinces_with = {
							value = 6
							has_province_modifier = golden_highway_construction_stalled
							province_group = golden_highway_far_salahad
						}
					}
					ROOT = { add_treasury = -300 }
				}
				else_if = {
					limit = {
						num_of_owned_provinces_with = {
							value = 5
							has_province_modifier = golden_highway_construction_stalled
							province_group = golden_highway_far_salahad
						}
					}
					ROOT = { add_treasury = -250 }
				}
				else_if = {
					limit = {
						num_of_owned_provinces_with = {
							value = 4
							has_province_modifier = golden_highway_construction_stalled
							province_group = golden_highway_far_salahad
						}
					}
					ROOT = { add_treasury = -200 }
				}
				else_if = {
					limit = {
						num_of_owned_provinces_with = {
							value = 3
							has_province_modifier = golden_highway_construction_stalled
							province_group = golden_highway_far_salahad
						}
					}
					ROOT = { add_treasury = -150 }
				}
				else_if = {
					limit = {
						num_of_owned_provinces_with = {
							value = 2
							has_province_modifier = golden_highway_construction_stalled
							province_group = golden_highway_far_salahad
						}
					}
					ROOT = { add_treasury = -100 }
				}
				else_if = {
					limit = {
						num_of_owned_provinces_with = {
							value = 1
							has_province_modifier = golden_highway_construction_stalled
							province_group = golden_highway_far_salahad
						}
					}
					ROOT = { add_treasury = -50 }
				}
			}
		}
	}
	
	golden_highway_rahen_coast_resume_construction = {
		major = yes
		
		potential = {
			golden_highway_rahen_coast = {
				country_or_non_sovereign_subject_holds = ROOT
				has_province_modifier = golden_highway_construction_stalled
			}
			is_subject = no
		}
		
		effect = {
			every_owned_province = {
				limit = { has_province_modifier = golden_highway_construction_stalled province_group = golden_highway_rahen_coast }
				remove_province_modifier = golden_highway_construction_stalled
				add_permanent_province_modifier = {
					name = golden_highway_under_construction
					duration = -1
				}
			}
			every_subject_country = {
				every_owned_province = {
					limit = { has_province_modifier = golden_highway_construction_stalled province_group = golden_highway_rahen_coast }
					remove_province_modifier = golden_highway_construction_stalled
					add_permanent_province_modifier = {
						name = golden_highway_under_construction
						duration = -1
					}
				}
			}
			
			if = {
				limit = {
					num_of_owned_provinces_with = {
						value = 15
						has_province_modifier = golden_highway_construction_stalled
						province_group = golden_highway_rahen_coast
					}
				}
				add_treasury = -750
			}
			else_if = {
				limit = {
					num_of_owned_provinces_with = {
						value = 14
						has_province_modifier = golden_highway_construction_stalled
						province_group = golden_highway_rahen_coast
					}
				}
				add_treasury = -700
			}
			else_if = {
				limit = {
					num_of_owned_provinces_with = {
						value = 13
						has_province_modifier = golden_highway_construction_stalled
						province_group = golden_highway_rahen_coast
					}
				}
				add_treasury = -650
			}
			else_if = {
				limit = {
					num_of_owned_provinces_with = {
						value = 12
						has_province_modifier = golden_highway_construction_stalled
						province_group = golden_highway_rahen_coast
					}
				}
				add_treasury = -600
			}
			else_if = {
				limit = {
					num_of_owned_provinces_with = {
						value = 11
						has_province_modifier = golden_highway_construction_stalled
						province_group = golden_highway_rahen_coast
					}
				}
				add_treasury = -550
			}
			else_if = {
				limit = {
					num_of_owned_provinces_with = {
						value = 10
						has_province_modifier = golden_highway_construction_stalled
						province_group = golden_highway_rahen_coast
					}
				}
				add_treasury = -500
			}
			else_if = {
				limit = {
					num_of_owned_provinces_with = {
						value = 9
						has_province_modifier = golden_highway_construction_stalled
						province_group = golden_highway_rahen_coast
					}
				}
				add_treasury = -450
			}
			else_if = {
				limit = {
					num_of_owned_provinces_with = {
						value = 8
						has_province_modifier = golden_highway_construction_stalled
						province_group = golden_highway_rahen_coast
					}
				}
				add_treasury = -400
			}
			else_if = {
				limit = {
					num_of_owned_provinces_with = {
						value = 7
						has_province_modifier = golden_highway_construction_stalled
						province_group = golden_highway_rahen_coast
					}
				}
				add_treasury = -350
			}
			else_if = {
				limit = {
					num_of_owned_provinces_with = {
						value = 6
						has_province_modifier = golden_highway_construction_stalled
						province_group = golden_highway_rahen_coast
					}
				}
				add_treasury = -300
			}
			else_if = {
				limit = {
					num_of_owned_provinces_with = {
						value = 5
						has_province_modifier = golden_highway_construction_stalled
						province_group = golden_highway_rahen_coast
					}
				}
				add_treasury = -250
			}
			else_if = {
				limit = {
					num_of_owned_provinces_with = {
						value = 4
						has_province_modifier = golden_highway_construction_stalled
						province_group = golden_highway_rahen_coast
					}
				}
				add_treasury = -200
			}
			else_if = {
				limit = {
					num_of_owned_provinces_with = {
						value = 3
						has_province_modifier = golden_highway_construction_stalled
						province_group = golden_highway_rahen_coast
					}
				}
				add_treasury = -150
			}
			else_if = {
				limit = {
					num_of_owned_provinces_with = {
						value = 2
						has_province_modifier = golden_highway_construction_stalled
						province_group = golden_highway_rahen_coast
					}
				}
				add_treasury = -100
			}
			else_if = {
				limit = {
					num_of_owned_provinces_with = {
						value = 1
						has_province_modifier = golden_highway_construction_stalled
						province_group = golden_highway_rahen_coast
					}
				}
				add_treasury = -50
			}
			every_subject_country = {
				limit = {
					any_owned_province = { 
						has_province_modifier = golden_highway_construction_stalled
						province_group = golden_highway_rahen_coast
					}
				}
				if = {
					limit = {
						num_of_owned_provinces_with = {
							value = 15
							has_province_modifier = golden_highway_construction_stalled
							province_group = golden_highway_rahen_coast
						}
					}
					ROOT = { add_treasury = -750 }
				}
				else_if = {
					limit = {
						num_of_owned_provinces_with = {
							value = 14
							has_province_modifier = golden_highway_construction_stalled
							province_group = golden_highway_rahen_coast
						}
					}
					ROOT = { add_treasury = -700 }
				}
				else_if = {
					limit = {
						num_of_owned_provinces_with = {
							value = 13
							has_province_modifier = golden_highway_construction_stalled
							province_group = golden_highway_rahen_coast
						}
					}
					ROOT = { add_treasury = -650 }
				}
				else_if = {
					limit = {
						num_of_owned_provinces_with = {
							value = 12
							has_province_modifier = golden_highway_construction_stalled
							province_group = golden_highway_rahen_coast
						}
					}
					ROOT = { add_treasury = -600 }
				}
				else_if = {
					limit = {
						num_of_owned_provinces_with = {
							value = 11
							has_province_modifier = golden_highway_construction_stalled
							province_group = golden_highway_rahen_coast
						}
					}
					ROOT = { add_treasury = -550 }
				}
				else_if = {
					limit = {
						num_of_owned_provinces_with = {
							value = 10
							has_province_modifier = golden_highway_construction_stalled
							province_group = golden_highway_rahen_coast
						}
					}
					ROOT = { add_treasury = -500 }
				}
				else_if = {
					limit = {
						num_of_owned_provinces_with = {
							value = 9
							has_province_modifier = golden_highway_construction_stalled
							province_group = golden_highway_rahen_coast
						}
					}
					ROOT = { add_treasury = -450 }
				}
				else_if = {
					limit = {
						num_of_owned_provinces_with = {
							value = 8
							has_province_modifier = golden_highway_construction_stalled
							province_group = golden_highway_rahen_coast
						}
					}
					ROOT = { add_treasury = -400 }
				}
				else_if = {
					limit = {
						num_of_owned_provinces_with = {
							value = 7
							has_province_modifier = golden_highway_construction_stalled
							province_group = golden_highway_rahen_coast
						}
					}
					ROOT = { add_treasury = -350 }
				}
				else_if = {
					limit = {
						num_of_owned_provinces_with = {
							value = 6
							has_province_modifier = golden_highway_construction_stalled
							province_group = golden_highway_rahen_coast
						}
					}
					ROOT = { add_treasury = -300 }
				}
				else_if = {
					limit = {
						num_of_owned_provinces_with = {
							value = 5
							has_province_modifier = golden_highway_construction_stalled
							province_group = golden_highway_rahen_coast
						}
					}
					ROOT = { add_treasury = -250 }
				}
				else_if = {
					limit = {
						num_of_owned_provinces_with = {
							value = 4
							has_province_modifier = golden_highway_construction_stalled
							province_group = golden_highway_rahen_coast
						}
					}
					ROOT = { add_treasury = -200 }
				}
				else_if = {
					limit = {
						num_of_owned_provinces_with = {
							value = 3
							has_province_modifier = golden_highway_construction_stalled
							province_group = golden_highway_rahen_coast
						}
					}
					ROOT = { add_treasury = -150 }
				}
				else_if = {
					limit = {
						num_of_owned_provinces_with = {
							value = 2
							has_province_modifier = golden_highway_construction_stalled
							province_group = golden_highway_rahen_coast
						}
					}
					ROOT = { add_treasury = -100 }
				}
				else_if = {
					limit = {
						num_of_owned_provinces_with = {
							value = 1
							has_province_modifier = golden_highway_construction_stalled
							province_group = golden_highway_rahen_coast
						}
					}
					ROOT = { add_treasury = -50 }
				}
			}
		}
	}
	
	golden_highway_dhujat_resume_construction = {
		major = yes
		
		potential = {
			golden_highway_dhujat = {
				country_or_non_sovereign_subject_holds = ROOT
				has_province_modifier = golden_highway_construction_stalled
			}
			is_subject = no
		}
		
		effect = {
			every_owned_province = {
				limit = { has_province_modifier = golden_highway_construction_stalled province_group = golden_highway_dhujat }
				remove_province_modifier = golden_highway_construction_stalled
				add_permanent_province_modifier = {
					name = golden_highway_under_construction
					duration = -1
				}
			}
			every_subject_country = {
				every_owned_province = {
					limit = { has_province_modifier = golden_highway_construction_stalled province_group = golden_highway_dhujat }
					remove_province_modifier = golden_highway_construction_stalled
					add_permanent_province_modifier = {
						name = golden_highway_under_construction
						duration = -1
					}
				}
			}
			
			if = {
				limit = {
					num_of_owned_provinces_with = {
						value = 15
						has_province_modifier = golden_highway_construction_stalled
						province_group = golden_highway_dhujat
					}
				}
				add_treasury = -750
			}
			else_if = {
				limit = {
					num_of_owned_provinces_with = {
						value = 14
						has_province_modifier = golden_highway_construction_stalled
						province_group = golden_highway_dhujat
					}
				}
				add_treasury = -700
			}
			else_if = {
				limit = {
					num_of_owned_provinces_with = {
						value = 13
						has_province_modifier = golden_highway_construction_stalled
						province_group = golden_highway_dhujat
					}
				}
				add_treasury = -650
			}
			else_if = {
				limit = {
					num_of_owned_provinces_with = {
						value = 12
						has_province_modifier = golden_highway_construction_stalled
						province_group = golden_highway_dhujat
					}
				}
				add_treasury = -600
			}
			else_if = {
				limit = {
					num_of_owned_provinces_with = {
						value = 11
						has_province_modifier = golden_highway_construction_stalled
						province_group = golden_highway_dhujat
					}
				}
				add_treasury = -550
			}
			else_if = {
				limit = {
					num_of_owned_provinces_with = {
						value = 10
						has_province_modifier = golden_highway_construction_stalled
						province_group = golden_highway_dhujat
					}
				}
				add_treasury = -500
			}
			else_if = {
				limit = {
					num_of_owned_provinces_with = {
						value = 9
						has_province_modifier = golden_highway_construction_stalled
						province_group = golden_highway_dhujat
					}
				}
				add_treasury = -450
			}
			else_if = {
				limit = {
					num_of_owned_provinces_with = {
						value = 8
						has_province_modifier = golden_highway_construction_stalled
						province_group = golden_highway_dhujat
					}
				}
				add_treasury = -400
			}
			else_if = {
				limit = {
					num_of_owned_provinces_with = {
						value = 7
						has_province_modifier = golden_highway_construction_stalled
						province_group = golden_highway_dhujat
					}
				}
				add_treasury = -350
			}
			else_if = {
				limit = {
					num_of_owned_provinces_with = {
						value = 6
						has_province_modifier = golden_highway_construction_stalled
						province_group = golden_highway_dhujat
					}
				}
				add_treasury = -300
			}
			else_if = {
				limit = {
					num_of_owned_provinces_with = {
						value = 5
						has_province_modifier = golden_highway_construction_stalled
						province_group = golden_highway_dhujat
					}
				}
				add_treasury = -250
			}
			else_if = {
				limit = {
					num_of_owned_provinces_with = {
						value = 4
						has_province_modifier = golden_highway_construction_stalled
						province_group = golden_highway_dhujat
					}
				}
				add_treasury = -200
			}
			else_if = {
				limit = {
					num_of_owned_provinces_with = {
						value = 3
						has_province_modifier = golden_highway_construction_stalled
						province_group = golden_highway_dhujat
					}
				}
				add_treasury = -150
			}
			else_if = {
				limit = {
					num_of_owned_provinces_with = {
						value = 2
						has_province_modifier = golden_highway_construction_stalled
						province_group = golden_highway_dhujat
					}
				}
				add_treasury = -100
			}
			else_if = {
				limit = {
					num_of_owned_provinces_with = {
						value = 1
						has_province_modifier = golden_highway_construction_stalled
						province_group = golden_highway_dhujat
					}
				}
				add_treasury = -50
			}
			every_subject_country = {
				limit = {
					any_owned_province = { 
						has_province_modifier = golden_highway_construction_stalled
						province_group = golden_highway_dhujat
					}
				}
				if = {
					limit = {
						num_of_owned_provinces_with = {
							value = 15
							has_province_modifier = golden_highway_construction_stalled
							province_group = golden_highway_dhujat
						}
					}
					ROOT = { add_treasury = -750 }
				}
				else_if = {
					limit = {
						num_of_owned_provinces_with = {
							value = 14
							has_province_modifier = golden_highway_construction_stalled
							province_group = golden_highway_dhujat
						}
					}
					ROOT = { add_treasury = -700 }
				}
				else_if = {
					limit = {
						num_of_owned_provinces_with = {
							value = 13
							has_province_modifier = golden_highway_construction_stalled
							province_group = golden_highway_dhujat
						}
					}
					ROOT = { add_treasury = -650 }
				}
				else_if = {
					limit = {
						num_of_owned_provinces_with = {
							value = 12
							has_province_modifier = golden_highway_construction_stalled
							province_group = golden_highway_dhujat
						}
					}
					ROOT = { add_treasury = -600 }
				}
				else_if = {
					limit = {
						num_of_owned_provinces_with = {
							value = 11
							has_province_modifier = golden_highway_construction_stalled
							province_group = golden_highway_dhujat
						}
					}
					ROOT = { add_treasury = -550 }
				}
				else_if = {
					limit = {
						num_of_owned_provinces_with = {
							value = 10
							has_province_modifier = golden_highway_construction_stalled
							province_group = golden_highway_dhujat
						}
					}
					ROOT = { add_treasury = -500 }
				}
				else_if = {
					limit = {
						num_of_owned_provinces_with = {
							value = 9
							has_province_modifier = golden_highway_construction_stalled
							province_group = golden_highway_dhujat
						}
					}
					ROOT = { add_treasury = -450 }
				}
				else_if = {
					limit = {
						num_of_owned_provinces_with = {
							value = 8
							has_province_modifier = golden_highway_construction_stalled
							province_group = golden_highway_dhujat
						}
					}
					ROOT = { add_treasury = -400 }
				}
				else_if = {
					limit = {
						num_of_owned_provinces_with = {
							value = 7
							has_province_modifier = golden_highway_construction_stalled
							province_group = golden_highway_dhujat
						}
					}
					ROOT = { add_treasury = -350 }
				}
				else_if = {
					limit = {
						num_of_owned_provinces_with = {
							value = 6
							has_province_modifier = golden_highway_construction_stalled
							province_group = golden_highway_dhujat
						}
					}
					ROOT = { add_treasury = -300 }
				}
				else_if = {
					limit = {
						num_of_owned_provinces_with = {
							value = 5
							has_province_modifier = golden_highway_construction_stalled
							province_group = golden_highway_dhujat
						}
					}
					ROOT = { add_treasury = -250 }
				}
				else_if = {
					limit = {
						num_of_owned_provinces_with = {
							value = 4
							has_province_modifier = golden_highway_construction_stalled
							province_group = golden_highway_dhujat
						}
					}
					ROOT = { add_treasury = -200 }
				}
				else_if = {
					limit = {
						num_of_owned_provinces_with = {
							value = 3
							has_province_modifier = golden_highway_construction_stalled
							province_group = golden_highway_dhujat
						}
					}
					ROOT = { add_treasury = -150 }
				}
				else_if = {
					limit = {
						num_of_owned_provinces_with = {
							value = 2
							has_province_modifier = golden_highway_construction_stalled
							province_group = golden_highway_dhujat
						}
					}
					ROOT = { add_treasury = -100 }
				}
				else_if = {
					limit = {
						num_of_owned_provinces_with = {
							value = 1
							has_province_modifier = golden_highway_construction_stalled
							province_group = golden_highway_dhujat
						}
					}
					ROOT = { add_treasury = -50 }
				}
			}
		}
	}
	
	golden_highway_xianjie_resume_construction = {
		major = yes
		
		potential = {
			golden_highway_xianjie = {
				country_or_non_sovereign_subject_holds = ROOT
				has_province_modifier = golden_highway_construction_stalled
			}
			is_subject = no
		}
		
		effect = {
			every_owned_province = {
				limit = { has_province_modifier = golden_highway_construction_stalled province_group = golden_highway_xianjie }
				remove_province_modifier = golden_highway_construction_stalled
				add_permanent_province_modifier = {
					name = golden_highway_under_construction
					duration = -1
				}
			}
			every_subject_country = {
				every_owned_province = {
					limit = { has_province_modifier = golden_highway_construction_stalled province_group = golden_highway_xianjie }
					remove_province_modifier = golden_highway_construction_stalled
					add_permanent_province_modifier = {
						name = golden_highway_under_construction
						duration = -1
					}
				}
			}
			
			if = {
				limit = {
					num_of_owned_provinces_with = {
						value = 15
						has_province_modifier = golden_highway_construction_stalled
						province_group = golden_highway_xianjie
					}
				}
				add_treasury = -750
			}
			else_if = {
				limit = {
					num_of_owned_provinces_with = {
						value = 14
						has_province_modifier = golden_highway_construction_stalled
						province_group = golden_highway_xianjie
					}
				}
				add_treasury = -700
			}
			else_if = {
				limit = {
					num_of_owned_provinces_with = {
						value = 13
						has_province_modifier = golden_highway_construction_stalled
						province_group = golden_highway_xianjie
					}
				}
				add_treasury = -650
			}
			else_if = {
				limit = {
					num_of_owned_provinces_with = {
						value = 12
						has_province_modifier = golden_highway_construction_stalled
						province_group = golden_highway_xianjie
					}
				}
				add_treasury = -600
			}
			else_if = {
				limit = {
					num_of_owned_provinces_with = {
						value = 11
						has_province_modifier = golden_highway_construction_stalled
						province_group = golden_highway_xianjie
					}
				}
				add_treasury = -550
			}
			else_if = {
				limit = {
					num_of_owned_provinces_with = {
						value = 10
						has_province_modifier = golden_highway_construction_stalled
						province_group = golden_highway_xianjie
					}
				}
				add_treasury = -500
			}
			else_if = {
				limit = {
					num_of_owned_provinces_with = {
						value = 9
						has_province_modifier = golden_highway_construction_stalled
						province_group = golden_highway_xianjie
					}
				}
				add_treasury = -450
			}
			else_if = {
				limit = {
					num_of_owned_provinces_with = {
						value = 8
						has_province_modifier = golden_highway_construction_stalled
						province_group = golden_highway_xianjie
					}
				}
				add_treasury = -400
			}
			else_if = {
				limit = {
					num_of_owned_provinces_with = {
						value = 7
						has_province_modifier = golden_highway_construction_stalled
						province_group = golden_highway_xianjie
					}
				}
				add_treasury = -350
			}
			else_if = {
				limit = {
					num_of_owned_provinces_with = {
						value = 6
						has_province_modifier = golden_highway_construction_stalled
						province_group = golden_highway_xianjie
					}
				}
				add_treasury = -300
			}
			else_if = {
				limit = {
					num_of_owned_provinces_with = {
						value = 5
						has_province_modifier = golden_highway_construction_stalled
						province_group = golden_highway_xianjie
					}
				}
				add_treasury = -250
			}
			else_if = {
				limit = {
					num_of_owned_provinces_with = {
						value = 4
						has_province_modifier = golden_highway_construction_stalled
						province_group = golden_highway_xianjie
					}
				}
				add_treasury = -200
			}
			else_if = {
				limit = {
					num_of_owned_provinces_with = {
						value = 3
						has_province_modifier = golden_highway_construction_stalled
						province_group = golden_highway_xianjie
					}
				}
				add_treasury = -150
			}
			else_if = {
				limit = {
					num_of_owned_provinces_with = {
						value = 2
						has_province_modifier = golden_highway_construction_stalled
						province_group = golden_highway_xianjie
					}
				}
				add_treasury = -100
			}
			else_if = {
				limit = {
					num_of_owned_provinces_with = {
						value = 1
						has_province_modifier = golden_highway_construction_stalled
						province_group = golden_highway_xianjie
					}
				}
				add_treasury = -50
			}
			every_subject_country = {
				limit = {
					any_owned_province = { 
						has_province_modifier = golden_highway_construction_stalled
						province_group = golden_highway_xianjie
					}
				}
				if = {
					limit = {
						num_of_owned_provinces_with = {
							value = 15
							has_province_modifier = golden_highway_construction_stalled
							province_group = golden_highway_xianjie
						}
					}
					ROOT = { add_treasury = -750 }
				}
				else_if = {
					limit = {
						num_of_owned_provinces_with = {
							value = 14
							has_province_modifier = golden_highway_construction_stalled
							province_group = golden_highway_xianjie
						}
					}
					ROOT = { add_treasury = -700 }
				}
				else_if = {
					limit = {
						num_of_owned_provinces_with = {
							value = 13
							has_province_modifier = golden_highway_construction_stalled
							province_group = golden_highway_xianjie
						}
					}
					ROOT = { add_treasury = -650 }
				}
				else_if = {
					limit = {
						num_of_owned_provinces_with = {
							value = 12
							has_province_modifier = golden_highway_construction_stalled
							province_group = golden_highway_xianjie
						}
					}
					ROOT = { add_treasury = -600 }
				}
				else_if = {
					limit = {
						num_of_owned_provinces_with = {
							value = 11
							has_province_modifier = golden_highway_construction_stalled
							province_group = golden_highway_xianjie
						}
					}
					ROOT = { add_treasury = -550 }
				}
				else_if = {
					limit = {
						num_of_owned_provinces_with = {
							value = 10
							has_province_modifier = golden_highway_construction_stalled
							province_group = golden_highway_xianjie
						}
					}
					ROOT = { add_treasury = -500 }
				}
				else_if = {
					limit = {
						num_of_owned_provinces_with = {
							value = 9
							has_province_modifier = golden_highway_construction_stalled
							province_group = golden_highway_xianjie
						}
					}
					ROOT = { add_treasury = -450 }
				}
				else_if = {
					limit = {
						num_of_owned_provinces_with = {
							value = 8
							has_province_modifier = golden_highway_construction_stalled
							province_group = golden_highway_xianjie
						}
					}
					ROOT = { add_treasury = -400 }
				}
				else_if = {
					limit = {
						num_of_owned_provinces_with = {
							value = 7
							has_province_modifier = golden_highway_construction_stalled
							province_group = golden_highway_xianjie
						}
					}
					ROOT = { add_treasury = -350 }
				}
				else_if = {
					limit = {
						num_of_owned_provinces_with = {
							value = 6
							has_province_modifier = golden_highway_construction_stalled
							province_group = golden_highway_xianjie
						}
					}
					ROOT = { add_treasury = -300 }
				}
				else_if = {
					limit = {
						num_of_owned_provinces_with = {
							value = 5
							has_province_modifier = golden_highway_construction_stalled
							province_group = golden_highway_xianjie
						}
					}
					ROOT = { add_treasury = -250 }
				}
				else_if = {
					limit = {
						num_of_owned_provinces_with = {
							value = 4
							has_province_modifier = golden_highway_construction_stalled
							province_group = golden_highway_xianjie
						}
					}
					ROOT = { add_treasury = -200 }
				}
				else_if = {
					limit = {
						num_of_owned_provinces_with = {
							value = 3
							has_province_modifier = golden_highway_construction_stalled
							province_group = golden_highway_xianjie
						}
					}
					ROOT = { add_treasury = -150 }
				}
				else_if = {
					limit = {
						num_of_owned_provinces_with = {
							value = 2
							has_province_modifier = golden_highway_construction_stalled
							province_group = golden_highway_xianjie
						}
					}
					ROOT = { add_treasury = -100 }
				}
				else_if = {
					limit = {
						num_of_owned_provinces_with = {
							value = 1
							has_province_modifier = golden_highway_construction_stalled
							province_group = golden_highway_xianjie
						}
					}
					ROOT = { add_treasury = -50 }
				}
			}
		}
	}
	
	golden_highway_upper_yanshen_resume_construction = {
		major = yes
		
		potential = {
			golden_highway_upper_yanshen = {
				country_or_non_sovereign_subject_holds = ROOT
				has_province_modifier = golden_highway_construction_stalled
			}
			is_subject = no
		}
		
		effect = {
			every_owned_province = {
				limit = { has_province_modifier = golden_highway_construction_stalled province_group = golden_highway_upper_yanshen }
				remove_province_modifier = golden_highway_construction_stalled
				add_permanent_province_modifier = {
					name = golden_highway_under_construction
					duration = -1
				}
			}
			every_subject_country = {
				every_owned_province = {
					limit = { has_province_modifier = golden_highway_construction_stalled province_group = golden_highway_upper_yanshen }
					remove_province_modifier = golden_highway_construction_stalled
					add_permanent_province_modifier = {
						name = golden_highway_under_construction
						duration = -1
					}
				}
			}
			
			if = {
				limit = {
					num_of_owned_provinces_with = {
						value = 15
						has_province_modifier = golden_highway_construction_stalled
						province_group = golden_highway_upper_yanshen
					}
				}
				add_treasury = -750
			}
			else_if = {
				limit = {
					num_of_owned_provinces_with = {
						value = 14
						has_province_modifier = golden_highway_construction_stalled
						province_group = golden_highway_upper_yanshen
					}
				}
				add_treasury = -700
			}
			else_if = {
				limit = {
					num_of_owned_provinces_with = {
						value = 13
						has_province_modifier = golden_highway_construction_stalled
						province_group = golden_highway_upper_yanshen
					}
				}
				add_treasury = -650
			}
			else_if = {
				limit = {
					num_of_owned_provinces_with = {
						value = 12
						has_province_modifier = golden_highway_construction_stalled
						province_group = golden_highway_upper_yanshen
					}
				}
				add_treasury = -600
			}
			else_if = {
				limit = {
					num_of_owned_provinces_with = {
						value = 11
						has_province_modifier = golden_highway_construction_stalled
						province_group = golden_highway_upper_yanshen
					}
				}
				add_treasury = -550
			}
			else_if = {
				limit = {
					num_of_owned_provinces_with = {
						value = 10
						has_province_modifier = golden_highway_construction_stalled
						province_group = golden_highway_upper_yanshen
					}
				}
				add_treasury = -500
			}
			else_if = {
				limit = {
					num_of_owned_provinces_with = {
						value = 9
						has_province_modifier = golden_highway_construction_stalled
						province_group = golden_highway_upper_yanshen
					}
				}
				add_treasury = -450
			}
			else_if = {
				limit = {
					num_of_owned_provinces_with = {
						value = 8
						has_province_modifier = golden_highway_construction_stalled
						province_group = golden_highway_upper_yanshen
					}
				}
				add_treasury = -400
			}
			else_if = {
				limit = {
					num_of_owned_provinces_with = {
						value = 7
						has_province_modifier = golden_highway_construction_stalled
						province_group = golden_highway_upper_yanshen
					}
				}
				add_treasury = -350
			}
			else_if = {
				limit = {
					num_of_owned_provinces_with = {
						value = 6
						has_province_modifier = golden_highway_construction_stalled
						province_group = golden_highway_upper_yanshen
					}
				}
				add_treasury = -300
			}
			else_if = {
				limit = {
					num_of_owned_provinces_with = {
						value = 5
						has_province_modifier = golden_highway_construction_stalled
						province_group = golden_highway_upper_yanshen
					}
				}
				add_treasury = -250
			}
			else_if = {
				limit = {
					num_of_owned_provinces_with = {
						value = 4
						has_province_modifier = golden_highway_construction_stalled
						province_group = golden_highway_upper_yanshen
					}
				}
				add_treasury = -200
			}
			else_if = {
				limit = {
					num_of_owned_provinces_with = {
						value = 3
						has_province_modifier = golden_highway_construction_stalled
						province_group = golden_highway_upper_yanshen
					}
				}
				add_treasury = -150
			}
			else_if = {
				limit = {
					num_of_owned_provinces_with = {
						value = 2
						has_province_modifier = golden_highway_construction_stalled
						province_group = golden_highway_upper_yanshen
					}
				}
				add_treasury = -100
			}
			else_if = {
				limit = {
					num_of_owned_provinces_with = {
						value = 1
						has_province_modifier = golden_highway_construction_stalled
						province_group = golden_highway_upper_yanshen
					}
				}
				add_treasury = -50
			}
			every_subject_country = {
				limit = {
					any_owned_province = { 
						has_province_modifier = golden_highway_construction_stalled
						province_group = golden_highway_upper_yanshen
					}
				}
				if = {
					limit = {
						num_of_owned_provinces_with = {
							value = 15
							has_province_modifier = golden_highway_construction_stalled
							province_group = golden_highway_upper_yanshen
						}
					}
					ROOT = { add_treasury = -750 }
				}
				else_if = {
					limit = {
						num_of_owned_provinces_with = {
							value = 14
							has_province_modifier = golden_highway_construction_stalled
							province_group = golden_highway_upper_yanshen
						}
					}
					ROOT = { add_treasury = -700 }
				}
				else_if = {
					limit = {
						num_of_owned_provinces_with = {
							value = 13
							has_province_modifier = golden_highway_construction_stalled
							province_group = golden_highway_upper_yanshen
						}
					}
					ROOT = { add_treasury = -650 }
				}
				else_if = {
					limit = {
						num_of_owned_provinces_with = {
							value = 12
							has_province_modifier = golden_highway_construction_stalled
							province_group = golden_highway_upper_yanshen
						}
					}
					ROOT = { add_treasury = -600 }
				}
				else_if = {
					limit = {
						num_of_owned_provinces_with = {
							value = 11
							has_province_modifier = golden_highway_construction_stalled
							province_group = golden_highway_upper_yanshen
						}
					}
					ROOT = { add_treasury = -550 }
				}
				else_if = {
					limit = {
						num_of_owned_provinces_with = {
							value = 10
							has_province_modifier = golden_highway_construction_stalled
							province_group = golden_highway_upper_yanshen
						}
					}
					ROOT = { add_treasury = -500 }
				}
				else_if = {
					limit = {
						num_of_owned_provinces_with = {
							value = 9
							has_province_modifier = golden_highway_construction_stalled
							province_group = golden_highway_upper_yanshen
						}
					}
					ROOT = { add_treasury = -450 }
				}
				else_if = {
					limit = {
						num_of_owned_provinces_with = {
							value = 8
							has_province_modifier = golden_highway_construction_stalled
							province_group = golden_highway_upper_yanshen
						}
					}
					ROOT = { add_treasury = -400 }
				}
				else_if = {
					limit = {
						num_of_owned_provinces_with = {
							value = 7
							has_province_modifier = golden_highway_construction_stalled
							province_group = golden_highway_upper_yanshen
						}
					}
					ROOT = { add_treasury = -350 }
				}
				else_if = {
					limit = {
						num_of_owned_provinces_with = {
							value = 6
							has_province_modifier = golden_highway_construction_stalled
							province_group = golden_highway_upper_yanshen
						}
					}
					ROOT = { add_treasury = -300 }
				}
				else_if = {
					limit = {
						num_of_owned_provinces_with = {
							value = 5
							has_province_modifier = golden_highway_construction_stalled
							province_group = golden_highway_upper_yanshen
						}
					}
					ROOT = { add_treasury = -250 }
				}
				else_if = {
					limit = {
						num_of_owned_provinces_with = {
							value = 4
							has_province_modifier = golden_highway_construction_stalled
							province_group = golden_highway_upper_yanshen
						}
					}
					ROOT = { add_treasury = -200 }
				}
				else_if = {
					limit = {
						num_of_owned_provinces_with = {
							value = 3
							has_province_modifier = golden_highway_construction_stalled
							province_group = golden_highway_upper_yanshen
						}
					}
					ROOT = { add_treasury = -150 }
				}
				else_if = {
					limit = {
						num_of_owned_provinces_with = {
							value = 2
							has_province_modifier = golden_highway_construction_stalled
							province_group = golden_highway_upper_yanshen
						}
					}
					ROOT = { add_treasury = -100 }
				}
				else_if = {
					limit = {
						num_of_owned_provinces_with = {
							value = 1
							has_province_modifier = golden_highway_construction_stalled
							province_group = golden_highway_upper_yanshen
						}
					}
					ROOT = { add_treasury = -50 }
				}
			}
		}
	}
	
	golden_highway_lower_yanshen_resume_construction = {
		major = yes
		
		potential = {
			golden_highway_lower_yanshen = {
				country_or_non_sovereign_subject_holds = ROOT
				has_province_modifier = golden_highway_construction_stalled
			}
			is_subject = no
		}
		
		effect = {
			every_owned_province = {
				limit = { has_province_modifier = golden_highway_construction_stalled province_group = golden_highway_lower_yanshen }
				remove_province_modifier = golden_highway_construction_stalled
				add_permanent_province_modifier = {
					name = golden_highway_under_construction
					duration = -1
				}
			}
			every_subject_country = {
				every_owned_province = {
					limit = { has_province_modifier = golden_highway_construction_stalled province_group = golden_highway_lower_yanshen }
					remove_province_modifier = golden_highway_construction_stalled
					add_permanent_province_modifier = {
						name = golden_highway_under_construction
						duration = -1
					}
				}
			}
			
			if = {
				limit = {
					num_of_owned_provinces_with = {
						value = 15
						has_province_modifier = golden_highway_construction_stalled
						province_group = golden_highway_lower_yanshen
					}
				}
				add_treasury = -750
			}
			else_if = {
				limit = {
					num_of_owned_provinces_with = {
						value = 14
						has_province_modifier = golden_highway_construction_stalled
						province_group = golden_highway_lower_yanshen
					}
				}
				add_treasury = -700
			}
			else_if = {
				limit = {
					num_of_owned_provinces_with = {
						value = 13
						has_province_modifier = golden_highway_construction_stalled
						province_group = golden_highway_lower_yanshen
					}
				}
				add_treasury = -650
			}
			else_if = {
				limit = {
					num_of_owned_provinces_with = {
						value = 12
						has_province_modifier = golden_highway_construction_stalled
						province_group = golden_highway_lower_yanshen
					}
				}
				add_treasury = -600
			}
			else_if = {
				limit = {
					num_of_owned_provinces_with = {
						value = 11
						has_province_modifier = golden_highway_construction_stalled
						province_group = golden_highway_lower_yanshen
					}
				}
				add_treasury = -550
			}
			else_if = {
				limit = {
					num_of_owned_provinces_with = {
						value = 10
						has_province_modifier = golden_highway_construction_stalled
						province_group = golden_highway_lower_yanshen
					}
				}
				add_treasury = -500
			}
			else_if = {
				limit = {
					num_of_owned_provinces_with = {
						value = 9
						has_province_modifier = golden_highway_construction_stalled
						province_group = golden_highway_lower_yanshen
					}
				}
				add_treasury = -450
			}
			else_if = {
				limit = {
					num_of_owned_provinces_with = {
						value = 8
						has_province_modifier = golden_highway_construction_stalled
						province_group = golden_highway_lower_yanshen
					}
				}
				add_treasury = -400
			}
			else_if = {
				limit = {
					num_of_owned_provinces_with = {
						value = 7
						has_province_modifier = golden_highway_construction_stalled
						province_group = golden_highway_lower_yanshen
					}
				}
				add_treasury = -350
			}
			else_if = {
				limit = {
					num_of_owned_provinces_with = {
						value = 6
						has_province_modifier = golden_highway_construction_stalled
						province_group = golden_highway_lower_yanshen
					}
				}
				add_treasury = -300
			}
			else_if = {
				limit = {
					num_of_owned_provinces_with = {
						value = 5
						has_province_modifier = golden_highway_construction_stalled
						province_group = golden_highway_lower_yanshen
					}
				}
				add_treasury = -250
			}
			else_if = {
				limit = {
					num_of_owned_provinces_with = {
						value = 4
						has_province_modifier = golden_highway_construction_stalled
						province_group = golden_highway_lower_yanshen
					}
				}
				add_treasury = -200
			}
			else_if = {
				limit = {
					num_of_owned_provinces_with = {
						value = 3
						has_province_modifier = golden_highway_construction_stalled
						province_group = golden_highway_lower_yanshen
					}
				}
				add_treasury = -150
			}
			else_if = {
				limit = {
					num_of_owned_provinces_with = {
						value = 2
						has_province_modifier = golden_highway_construction_stalled
						province_group = golden_highway_lower_yanshen
					}
				}
				add_treasury = -100
			}
			else_if = {
				limit = {
					num_of_owned_provinces_with = {
						value = 1
						has_province_modifier = golden_highway_construction_stalled
						province_group = golden_highway_lower_yanshen
					}
				}
				add_treasury = -50
			}
			every_subject_country = {
				limit = {
					any_owned_province = { 
						has_province_modifier = golden_highway_construction_stalled
						province_group = golden_highway_lower_yanshen
					}
				}
				if = {
					limit = {
						num_of_owned_provinces_with = {
							value = 15
							has_province_modifier = golden_highway_construction_stalled
							province_group = golden_highway_lower_yanshen
						}
					}
					ROOT = { add_treasury = -750 }
				}
				else_if = {
					limit = {
						num_of_owned_provinces_with = {
							value = 14
							has_province_modifier = golden_highway_construction_stalled
							province_group = golden_highway_lower_yanshen
						}
					}
					ROOT = { add_treasury = -700 }
				}
				else_if = {
					limit = {
						num_of_owned_provinces_with = {
							value = 13
							has_province_modifier = golden_highway_construction_stalled
							province_group = golden_highway_lower_yanshen
						}
					}
					ROOT = { add_treasury = -650 }
				}
				else_if = {
					limit = {
						num_of_owned_provinces_with = {
							value = 12
							has_province_modifier = golden_highway_construction_stalled
							province_group = golden_highway_lower_yanshen
						}
					}
					ROOT = { add_treasury = -600 }
				}
				else_if = {
					limit = {
						num_of_owned_provinces_with = {
							value = 11
							has_province_modifier = golden_highway_construction_stalled
							province_group = golden_highway_lower_yanshen
						}
					}
					ROOT = { add_treasury = -550 }
				}
				else_if = {
					limit = {
						num_of_owned_provinces_with = {
							value = 10
							has_province_modifier = golden_highway_construction_stalled
							province_group = golden_highway_lower_yanshen
						}
					}
					ROOT = { add_treasury = -500 }
				}
				else_if = {
					limit = {
						num_of_owned_provinces_with = {
							value = 9
							has_province_modifier = golden_highway_construction_stalled
							province_group = golden_highway_lower_yanshen
						}
					}
					ROOT = { add_treasury = -450 }
				}
				else_if = {
					limit = {
						num_of_owned_provinces_with = {
							value = 8
							has_province_modifier = golden_highway_construction_stalled
							province_group = golden_highway_lower_yanshen
						}
					}
					ROOT = { add_treasury = -400 }
				}
				else_if = {
					limit = {
						num_of_owned_provinces_with = {
							value = 7
							has_province_modifier = golden_highway_construction_stalled
							province_group = golden_highway_lower_yanshen
						}
					}
					ROOT = { add_treasury = -350 }
				}
				else_if = {
					limit = {
						num_of_owned_provinces_with = {
							value = 6
							has_province_modifier = golden_highway_construction_stalled
							province_group = golden_highway_lower_yanshen
						}
					}
					ROOT = { add_treasury = -300 }
				}
				else_if = {
					limit = {
						num_of_owned_provinces_with = {
							value = 5
							has_province_modifier = golden_highway_construction_stalled
							province_group = golden_highway_lower_yanshen
						}
					}
					ROOT = { add_treasury = -250 }
				}
				else_if = {
					limit = {
						num_of_owned_provinces_with = {
							value = 4
							has_province_modifier = golden_highway_construction_stalled
							province_group = golden_highway_lower_yanshen
						}
					}
					ROOT = { add_treasury = -200 }
				}
				else_if = {
					limit = {
						num_of_owned_provinces_with = {
							value = 3
							has_province_modifier = golden_highway_construction_stalled
							province_group = golden_highway_lower_yanshen
						}
					}
					ROOT = { add_treasury = -150 }
				}
				else_if = {
					limit = {
						num_of_owned_provinces_with = {
							value = 2
							has_province_modifier = golden_highway_construction_stalled
							province_group = golden_highway_lower_yanshen
						}
					}
					ROOT = { add_treasury = -100 }
				}
				else_if = {
					limit = {
						num_of_owned_provinces_with = {
							value = 1
							has_province_modifier = golden_highway_construction_stalled
							province_group = golden_highway_lower_yanshen
						}
					}
					ROOT = { add_treasury = -50 }
				}
			}
		}
	}
}
