
country_decisions = {
	institute_malacnar_stratocracy = {
		major = yes
		potential = {
			tag = G32
			NOT = { has_country_flag = reformed_malacnar_flag }
		}

		allow = {
			adm_tech = 10
			mil_tech = 10
		#	culture = malacnari
			owns_core_province = 1169			# Malacnar
			total_development = 200
			is_at_war = no
			stability = 0
			OR = {
				has_ruler_modifier = g32_tested_battleking
				has_ruler_modifier = g32_bloodied_battleking
				has_ruler_modifier = g32_veteran_battleking
				has_ruler_modifier = g32_legendary_battleking
			}
		}
		
		effect = {
			set_country_flag = reformed_malacnar_flag 
			country_event = { id = flavor_malacnar.5 }
			if = {
				limit = { NOT = { government_rank = 2 } }
				set_government_rank = 2
			}
		#	random_owned_province = {
		#			limit = { 
		#				region = dolindha_region
		#				has_terrain	= farmlands
		#				NOT = { culture = malacnari }
		#			} 
		#			change_culture = malacnari
		#	}
			add_prestige = 10
			add_country_modifier = {
				name = "centralization_modifier"
				duration = 3650
			}
		}
		ai_will_do = {
			factor = 1
		}
	}
	
	ynnic_empire_nation = {
		major = yes
		potential = {
			religion = ynn_river_worship
			OR = {
				ai = no
				AND = {
					ai = yes
					num_of_cities = 10
				}
			}
			
			NOT = { has_country_flag = formed_ynnic_empire_flag }
			NOT = { has_country_flag = malacnar_is_boyacsarvo }
			NOT = { has_reform = aelantir_adventurer_reform }
			NOT = { exists = H27 } #Ynnic Empire doesn't exist
			
			OR = {
				ai = no
				is_playing_custom_nation = no
			}
			OR = {
				is_former_colonial_nation = no
				AND = {
					is_former_colonial_nation = yes
					ai = no
				}
			}
			is_colonial_nation = no
			normal_or_historical_nations = yes
			was_never_end_game_tag_trigger = yes
		}
		
		provinces_to_highlight = {
			OR = {
				province_id = 1139	#Arverynn
				province_id = 1171	#Vareynn
				province_id = 1191	#Svemel
				province_id = 1186	#Mocbarja
				province_id = 1165	#Bosancovac
				province_id = 1138	#Vels Bacar
				province_id = 1133	#Abdrabohvi
			}
			
			NOT = { country_or_non_sovereign_subject_holds = ROOT }
		}
		
		allow = {
			religion = ynn_river_worship
			is_free_or_tributary_trigger = yes
			is_nomad = no
			is_at_war = no
			#num_of_cities = 5
			
			#Requires provinces
			owns_or_non_sovereign_subject_of = 1139	#Arverynn
			owns_or_non_sovereign_subject_of = 1171	#Vareynn
			owns_or_non_sovereign_subject_of = 1191	#Svemel
			owns_or_non_sovereign_subject_of = 1186	#Mocbarja
			owns_or_non_sovereign_subject_of = 1165	#Bosancovac
			owns_or_non_sovereign_subject_of = 1138	#Vels Bacar
			owns_or_non_sovereign_subject_of = 1133	#Abdrabohvi
		}
		
		effect = {
			change_tag = H27
			hidden_effect = { restore_country_name = yes }
			remove_non_electors_emperors_from_empire_effect = yes
			if = {
				limit = {
					NOT = { government_rank = 3 }
				}
				set_government_rank = 3
			}
			if = {
				limit = {
					tag = G32
				}
				custom_tooltip = malacnar_form_ynnic_empire
			}
			
			hidden_effect = {
				if = {
					limit = {
						primary_culture = sarda
					}
					country_event = { id = ynn_events.1 }
				}
				else_if = {
					limit = {
						primary_culture = dolindhan
					}
					country_event = { id = ynn_events.2 }
				}
				else_if = {
					limit = {
						primary_culture = rzentur
					}
					country_event = { id = ynn_events.3 }
				}
				else = {
					country_event = { id = ynn_events.4 }
				}
			}
			
			#Claims
			ynn_superregion = {
				limit = {
					NOT = {
						owned_by = ROOT
						area = kestadan_area
						area = boruleed_area
						area = ciodsibh_area
						area = moyquin_area
						area = yanudahna_area
					}
				}
				add_permanent_claim = H27
			}
			forest_of_the_cursed_ones_region = {
				limit = {
					NOT = { 
						owned_by = ROOT
						area = whetjul_area
						province_id = 1242
					}
				}
				add_permanent_claim = H27
			}
			ynnsmouth_area = {
				limit = {
					NOT = { owned_by = ROOT }
				}
				add_permanent_claim = H27
			}
			
			add_prestige = 50
			add_country_modifier = {
				name = "centralization_modifier"
				duration = 7300
			}
			set_country_flag = formed_ynnic_empire_flag
			clr_country_flag = knightly_order_adventurer
			if = {
				limit = {
					has_reform = aelantir_adventurer_reform
				}
				adventurer_legacy_effect = yes
				set_country_flag = adventurer_derived_government
				country_event = { id = marcher.1 days = 1 }
				country_event = { id = adventurer.2 days = 1 }
			}
		}
		ai_will_do = {
			factor = 1
			modifier = {
				factor = 0
				OR = {
					tag = G27
					tag = G32
				}
			}
		}
		ai_importance = 400
	}
	
	dragon_dominion_nation = {
		major = yes
		potential = {
			religion = drozma_tur
			OR = {
				ai = no
				AND = {
					ai = yes
					num_of_cities = 10
				}
			}
			NOT = { has_country_flag = formed_dragon_dominion_flag }
			NOT = { has_reform = aelantir_adventurer_reform }
			NOT = { exists = H24 } #Dragon Dominion doesn't exist
			
			OR = {
				ai = no
				is_playing_custom_nation = no
			}
			OR = {
				is_former_colonial_nation = no
				AND = {
					is_former_colonial_nation = yes
					ai = no
				}
			}
			is_colonial_nation = no
			normal_or_historical_nations = yes
			was_never_end_game_tag_trigger = yes
		}
		
		provinces_to_highlight = {
			OR = {
				region = rzenta_region
				region = dolindha_region
			}
			is_city = yes
			
			NOT = { owned_by = ROOT }
		}
		
		allow = {
			religion = drozma_tur
			is_free_or_tributary_trigger = yes
			is_nomad = no
			is_at_war = no
			
			num_of_owned_provinces_with = {
				value = 33
				has_owner_religion = yes
			}
			owns_or_non_sovereign_subject_of = 1191	#Svemel
		}
		
		effect = {
			change_tag = H24
			hidden_effect = { restore_country_name = yes }
			remove_non_electors_emperors_from_empire_effect = yes
			if = {
				limit = {
					NOT = { government_rank = 3 }
				}
				set_government_rank = 3
			}
			
			if = {
				limit = { has_custom_ideas = no }
				country_event = { id = ideagroups.1 } #Swap Ideas
			}
			
			add_prestige = 40
			add_country_modifier = {
				name = "centralization_modifier"
				duration = 7300
			}
			add_country_modifier = {
				name = "missionary_zeal"
				duration = 7300
			}
			set_country_flag = formed_dragon_dominion_flag
			clr_country_flag = knightly_order_adventurer
			if = {
				limit = {
					has_reform = aelantir_adventurer_reform
				}
				adventurer_legacy_effect = yes
				set_country_flag = adventurer_derived_government
				country_event = { id = marcher.1 days = 1 }
				country_event = { id = adventurer.2 days = 1 }
			}
		}
		ai_will_do = {
			factor = 1
		}
		ai_importance = 400
	}
}



