
namespace = corvuria

###########Events 1-5 are triggered or originate from a Corvurian mission.

#Asheniande Slandered
country_event = {
	id = corvuria.1
	title = corvuria.1.t
	desc = corvuria.1.d
	picture = ANGRY_MOB_eventPicture
	
	is_triggered_only = yes
	
	option = {
		name = corvuria.1.a
		ai_chance = { factor = 100 }
		dostanor_region = {
			limit = {
				owned_by = ROOT
			}
			add_nationalism = 10
			add_unrest = 10
			add_local_autonomy = 30
		}
		add_country_modifier = {
			name = corvuria_asheniande_slandered
			duration = 7300
		}
	}
}

#Reaping the Ashfields
country_event = {
	id = corvuria.2
	title = corvuria.2.t
	desc = corvuria.2.d
	picture = BORDER_TENSION_eventPicture
	
	is_triggered_only = yes
	
	option = {
		name = corvuria.2.a
		ai_chance = { factor = 100 }
		311 = {
			add_base_tax = -1
			add_base_production = -1
			add_base_manpower = -1
			add_devastation = 50
		}
		425 = { add_base_production = 1 }
		439 = { add_base_production = 1 }
		440 = { add_base_production = 1 }
	}
}

#Removes Emperor from War on Asheniande
country_event = {
	id = corvuria.3
	title = corvuria.3.t
	desc = corvuria.3.d
	picture = CIVIL_WAR_eventPicture
	
	is_triggered_only = yes
	hidden = yes
	
	immediate = {
		white_peace = A59
		hidden_effect = {
			every_ally = {
				limit = {
					NOT = { alliance_with = A60 }
					NOT = { tag = A60 }
				}
				white_peace = A59
			}
		}
	}
	
	option = {
		name = corvuria.3.a
		ai_chance = { factor = 100 }
		add_prestige = 5
	}
}

#Invitation to the Court of Blood
country_event = {
	id = corvuria.4
	title = corvuria.4.t
	desc = corvuria.4.d
	picture = DIPLOMACY_eventPicture
	
	is_triggered_only = yes
	immediate = {
		every_country = {
   			limit = {
       			has_country_flag = founded_blood_court
   			}
   			save_global_event_target_as = blood_court_founder
		}
	}
	option = {
		name = corvuria.4.a
		ai_chance = { 
			factor = 100 
			modifier = {
				factor = 4
				alliance_with = FROM
			}
			modifier = {
				factor = 0.25
				is_rival = FROM
			}
			modifier = {
				factor = 0.10
				war_with = FROM
			}
			modifier = {
				factor = 0.75
				NOT = { has_opinion = { who = FROM value = 0 } }
			}
			modifier = {
				factor = 0.75
				NOT = { has_opinion = { who = FROM value = -50 } }
			}
			modifier = {
				factor = 0.50
				NOT = { has_opinion = { who = FROM value = -100 } }
			}
			modifier = {
				factor = 1.25
				has_opinion = { who = FROM value = 0 } 
			}
			modifier = {
				factor = 1.5
				has_opinion = { who = FROM value = 50 } 
			}
			modifier = {
				factor = 1.5
				has_opinion = { who = FROM value = 100 } 
			}
			modifier = {
				factor = 1.5
				has_opinion = { who = FROM value = 150 } 
			}
			modifier = {
				factor = 0.1
				has_estate_privilege = estate_vampires_organization_vampiric_emigres
			}
			modifier = {
				factor = 2
				has_estate_privilege = estate_vampires_organization_bloody_aristocracy
			}
			modifier = {
				factor = 0.8
				has_estate_privilege = estate_vampires_organization_vampires_lord
			}
			modifier = {
				factor = 2
				has_estate_privilege = estate_vampires_law_traditional_masquerade
			}
			modifier = {
				factor = 5
				has_estate_privilege = estate_vampires_law_state_collusion_masquerade
			}
			modifier = {
				factor = 0.25
				has_estate_privilege = estate_vampires_law_open_rule
			}
		}
		hidden_effect = {
			if = {
				limit = {
					has_estate_privilege = estate_vampires_organization_vampiric_emigres
				}
				remove_estate_privilege = estate_vampires_organization_vampiric_emigres
			}
			if = {
				limit = {
					has_estate_privilege = estate_vampires_organization_bloody_aristocracy
				}
				remove_estate_privilege = estate_vampires_organization_bloody_aristocracy
			}
			if = {
				limit = {
					has_estate_privilege = estate_vampires_organization_vampires_lord
				}
				remove_estate_privilege = estate_vampires_organization_vampires_lord
			}
		}
		if = {
			limit = {
				has_estate_privilege = estate_vampires_law_open_rule
			}
			remove_estate_privilege = estate_vampires_law_open_rule
			set_estate_privilege = estate_vampires_law_traditional_masquerade
		}
		set_estate_privilege = estate_vampires_organization_the_blood_court
		add_opinion = {
			who = FROM
			modifier = blood_court_membership	
		}
		FROM = {
			add_opinion = {
				who = ROOT
				modifier = blood_court_membership	
			}
		}
		event_target:blood_court_founder = {
			country_event = {
				id = asheniande.7
				days = 5
				random = 5
			}
			
		}

	}
	
	option = {
		name = corvuria.4.b
		ai_chance = { factor = 100 }
		add_prestige = 5
		event_target:blood_court_founder = {
			country_event = {
				id = asheniande.6
				days = 5
				random = 5
			}
		}
	}
}

#Incorporating Vampires into Government
country_event = {
	id = corvuria.5
	title = corvuria.5.t
	desc = corvuria.5.d
	picture = DIPLOMACY_eventPicture
	
	is_triggered_only = yes
	
	option = {
		name = corvuria.5.a
		ai_chance = { factor = 33 }
		add_country_modifier = {
			name = corvuria_vamp_adm
			duration = -1
		}
	}
	option = {
		name = corvuria.5.b
		ai_chance = { factor = 33 }
		add_country_modifier = {
			name = corvuria_vamp_dip
			duration = -1
		}
	}
	option = {
		name = corvuria.5.c
		ai_chance = { factor = 34 }
		add_country_modifier = {
			name = corvuria_vamp_mil
			duration = -1
		}
	}
}
#hostile blood court takeover
country_event = {
	id = corvuria.6
	title = corvuria.6.t
	desc = corvuria.6.d
	picture = DIPLOMACY_eventPicture

	is_triggered_only = yes

	option = {
		name = corvuria.6.a
		ai_chance = { 
			factor = 100 
		}
		add_stability = -1
		hidden_effect = {
			if = {
				limit = {
					has_estate_privilege = estate_vampires_organization_vampiric_emigres
				}
				remove_estate_privilege = estate_vampires_organization_vampiric_emigres
			}
			if = {
				limit = {
					has_estate_privilege = estate_vampires_organization_bloody_aristocracy
				}
				remove_estate_privilege = estate_vampires_organization_bloody_aristocracy
			}
			if = {
				limit = {
					has_estate_privilege = estate_vampires_organization_vampires_lord
				}
				remove_estate_privilege = estate_vampires_organization_vampires_lord
			}
		}
		if = {
			limit = {
				has_estate_privilege = estate_vampires_law_open_rule
			}
			remove_estate_privilege = estate_vampires_law_open_rule
			set_estate_privilege = estate_vampires_law_traditional_masquerade
		}
		set_estate_privilege = estate_vampires_organization_the_blood_court
	}
}

country_event = {
	id = corvuria.7
	title = corvuria.7.t
	desc = corvuria.7.d
	picture = CIVIL_WAR_eventPicture
	
	hidden = yes
	
	trigger = {
		has_country_modifier = corvuria_dark_lord
		OR = {
			NOT = { has_ruler_modifier = vampire_ruler }
			NOT = { ruler_has_mage_personality = yes }
		}
	}
	
	mean_time_to_happen = {
		months = 1
	}
	
	option = {
		remove_country_modifier = corvuria_dark_lord
		ai_chance = { factor = 1 }
	}
}	