namespace = flavor_adenica

# Grand Hunt #
# What to hunt?
country_event = {
	id = flavor_adenica.1
	title = flavor_adenica.1.t
	desc = flavor_adenica.1.d
	picture = EXPLORERS_eventPicture
	
	is_triggered_only = yes
	trigger = {
		always = yes
	}
	
	# Giant Elk
	option = {
		name = flavor_adenica.1.a
		set_country_flag = hunt_elk
		add_treasury = -200
	}
	# Cockatrice
	option = {
		name = flavor_adenica.1.b
		set_country_flag = hunt_cockatrice
		add_treasury = -500
	}
	# Werebear?
	option = {
		name = flavor_adenica.1.c
		set_country_flag = hunt_werebear
		add_treasury = -400
	}
	# A Boar
	option = {
		name = flavor_adenica.1.e
		set_country_flag = hunt_boar
		add_treasury = -300
	}
	after = {
		country_event = {
			id = flavor_adenica.2
		}
	}
}

# Who to invite along?
country_event = {
	id = flavor_adenica.2
	title = flavor_adenica.2.t
	desc = flavor_adenica.2.d
	picture = EXPLORERS_eventPicture
	
	is_triggered_only = yes
	trigger = {
		always = yes
	}
	
	# Invite adventurers
	option = {
		name = flavor_adenica.2.a
		set_country_flag = hunt_adventurers
		add_estate_influence_modifier = {
			estate = estate_adventurers
			desc = adenica_adventurers_influence_hunt
			influence = 10
			duration = 7300
		}
	}
	# Invite the nobility
	option = {
		name = flavor_adenica.2.b
		set_country_flag = hunt_nobles
		add_estate_influence_modifier = {
			estate = estate_nobles
			desc = adenica_nobles_influence_hunt
			influence = 10
			duration = 7300
		}
	}
	# Bring a mage or two
	option = {
		name = flavor_adenica.2.c
		set_country_flag = hunt_mages
		add_estate_influence_modifier = {
			estate = estate_mages
			desc = adenica_mages_influence_hunt
			influence = 10
			duration = 7300
		}
	}
	# Closest family only
	option = {
		name = flavor_adenica.2.e
		trigger = {
			OR = {
				has_consort = yes
				has_heir = yes
			}
		}
		set_country_flag = hunt_family
	}
	after = {
		if = {
			limit = {
				has_country_flag = hunt_boar
			}
			country_event = {
				id = flavor_adenica.3
				days = 14
				random = 7
			}
		}
		else_if = {
			limit = {
				has_country_flag = hunt_elk
			}
			country_event = {
				id = flavor_adenica.4
				days = 14
				random = 7
			}
		}
		else_if = {
			limit = {
				has_country_flag = hunt_cockatrice
			}
			country_event = {
				id = flavor_adenica.6
				days = 14
				random = 7
			}
		}
		else_if = {
			limit = {
				has_country_flag = hunt_werebear
			}
			country_event = {
				id = flavor_adenica.5
				days = 14
				random = 7
			}
		}
	}
}

# Boar
country_event = {
	id = flavor_adenica.3
	title = flavor_adenica.3.t
	desc = flavor_adenica.3.d
	picture = HORDE_ON_HORSEBACK_eventPicture
	
	is_triggered_only = yes
	trigger = {
		always = yes
	}
	# Nobles save the day
	option = {
		name = flavor_adenica.3.a
		trigger = {
			has_country_flag = hunt_nobles
		}
		highlight = yes
		set_country_flag = hunt_nobles_save
	}
	# Take the charge, as planned
	option = {
		name = flavor_adenica.3.b
		if = {
			limit = {
				OR = {
					has_country_modifier = adenica_adenican_courser
					has_country_modifier = adenica_alenic_rouncey
					has_country_modifier = adenica_arbarani_destrier
					has_country_modifier = adenica_elikhandi_courser
				}
			}
			set_country_flag = hunt_boar_horse_saved
		}
		else_if = {
			limit = {
				mil = 4
				NOT = { mil = 5 }
			}
			random = {
				chance = 15
				add_ruler_modifier = {
					name = adenica_injured
					duration = 1825
				}
				set_country_flag = hunt_boar_injured
			}
			set_country_flag = hunt_boar_success
		}
		else_if = {
			limit = {
				mil = 5
				NOT = { mil = 6 }
			}
			random = {
				chance = 5
				add_ruler_modifier = {
					name = adenica_injured
					duration = 1825
				}
				set_country_flag = hunt_boar_injured
			}
			set_country_flag = hunt_boar_success
		}
		else_if = {
			limit = { mil = 6 }
		}	
		else = {
			random = {
				chance = 25
				add_ruler_modifier = {
					name = adenica_injured
					duration = 1825
				}
				set_country_flag = hunt_boar_injured
			}
			set_country_flag = hunt_boar_success
		}
	}
	# RUN
	option = {
		name = flavor_adenica.3.c
		if = {
			limit = { 
				NOT = { ruler_has_max_personalities = yes }
				NOT = { ruler_has_personality = inspiring_leader_personality }
				NOT = { ruler_has_personality = craven_personality }
			}
			random = {
				chance = 50
				add_ruler_personality = craven_personality
			}
		}
		set_country_flag = hunt_boar_ran
	}
	after = {
		 country_event = {
			 id = flavor_adenica.7
		 }
	}
}

# Elk
country_event = {
	id = flavor_adenica.4
	title = flavor_adenica.4.t
	desc = flavor_adenica.4.d
	picture = HORDE_ON_HORSEBACK_eventPicture
	
	is_triggered_only = yes
	trigger = {
		always = yes
	}
	# Just kill it
	option = {
		name = flavor_adenica.4.a
		
	}
	after = {
		country_event = {
			id = flavor_adenica.7
		}
   }
}

# Werebear
country_event = {
	id = flavor_adenica.5
	title = flavor_adenica.5.t
	desc = flavor_adenica.5.d
	picture = ACCUSATION_eventPicture
	
	is_triggered_only = yes
	trigger = {
		always = yes
	}
	
	# Adventurers to save the day
	option = {
		name = flavor_adenica.5.a
		trigger = {
			has_country_flag = hunt_adventurers
		}
		highlight = yes
		set_country_flag = hunt_werebear_adventurer_negotiated
	}
	# Anyways, I started blasting
	option = {
		name = flavor_adenica.5.b
		add_prestige = -5
		set_country_flag = hunt_werebear_dead
	}
	# Try and talk to it
	option = {
		name = flavor_adenica.5.c
		trigger = { }
		if = {
			limit = { ruler_has_personality = charismatic_negotiator_personality }
			set_country_flag = hunt_werebear_negotiated
		}
		else_if = {
			limit = { ruler_has_personality = silver_tongue_personality }
			set_country_flag = hunt_werebear_negotiated
		}
		else_if = {
			limit = {
				dip = 4
				NOT = { dip = 5 }
			}
			random = {
				chance = 50
				set_country_flag = hunt_werebear_negotiated
			}
		}
		else_if = {
			limit = {
				dip = 5
				NOT = { dip = 6 }
			}
			random = {
				chance = 75
				set_country_flag = hunt_werebear_negotiated
			}
		}
		else_if = {
			limit = { dip = 6 }
			random = {
				chance = 100
				set_country_flag = hunt_werebear_negotiated
			}
		}
		else = {
			random = {
				chance = 25
				set_country_flag = hunt_werebear_negotiated
			}
		}

		if = {
			limit = { NOT = { has_country_flag = hunt_werebear_negotiated } }
			set_country_flag = hunt_werebear_negotiations_failed
		}
	}
	after = {
		country_event = {
			id = flavor_adenica.7
		}
   }
}

# Cockatrice
country_event = {
	id = flavor_adenica.6
	title = flavor_adenica.6.t
	desc = flavor_adenica.6.d
	picture = HORDE_ON_HORSEBACK_eventPicture
	
	is_triggered_only = yes
	trigger = {
		always = yes
	}
	
	# Mages to save the day
	option = {
		name = flavor_adenica.6.a
		trigger = {
			has_country_flag = hunt_mages
		}
		highlight = yes
		set_country_flag = hunt_cockatrice_mages_save
	}
	# Break free and charge
	option = {
		name = flavor_adenica.6.b
		if = {
			limit = { 
				NOT = { ruler_has_max_personalities = yes } 
				NOT = { ruler_has_personality = craven_personality }
			}
			random = {
				chance = 75
				add_ruler_personality = bold_fighter_personality
			}
		}
		if = {
			limit = {
				mil = 4
				NOT = { mil = 5 }
			}
			random_list = {
				25 = {
					add_ruler_modifier = {
						name = adenica_injured
						duration = 1825
					}
					set_country_flag = hunt_cockatrice_injured
				}
				75 = {
					set_country_flag = hunt_cockatrice_distracted
				}
			}
		}
		else_if = {
			limit = {
				mil = 5
				NOT = { mil = 6 }
			}
			random_list = {
				15 = {
					add_ruler_modifier = {
						name = adenica_injured
						duration = 1825
					}
					set_country_flag = hunt_cockatrice_injured
				}
				85 = {
					set_country_flag = hunt_cockatrice_distracted
				}
			}
		}
		else_if = {
			limit = { mil = 6 }
			random_list = {
				5 = {
					add_ruler_modifier = {
						name = adenica_injured
						duration = 1825
					}
					set_country_flag = hunt_cockatrice_injured
				}
				95 = {
					set_country_flag = hunt_cockatrice_distracted
				}
			}
		}
		else = {
			random_list = {
				50 = {
					add_ruler_modifier = {
						name = adenica_injured
						duration = 1825
					}
					set_country_flag = hunt_cockatrice_injured
				}
				50 = {
					set_country_flag = hunt_cockatrice_distracted
				}
			}
		}
	}
	# Shit yo pants in fear
	option = {
		name = flavor_adenica.6.c
		if = {
			limit = { 
				NOT = { ruler_has_max_personalities = yes }
				NOT = { ruler_has_personality = inspiring_leader_personality }
				NOT = { ruler_has_personality = craven_personality }
			}
			random = {
				chance = 50
				add_ruler_personality = craven_personality
			}
		}
		set_country_flag = hunt_cockatrice_fear
	}
	after = {
		country_event = {
			id = flavor_adenica.7
		}
   }
}

# A Sucessful Hunt
country_event = {
	id = flavor_adenica.7
	title = flavor_adenica.7.t
	desc = flavor_adenica.7.d
	picture = IMPORTANT_STATUE_eventPicture
	
	is_triggered_only = yes
	trigger = {
		always = yes
	}
	
	option = {
		name = flavor_adenica.7.a
		# Brought family along
		if = { limit = { has_country_flag = hunt_family }
			if = {
				limit = { has_heir = yes }
				if = {
					limit = { heir_mil = 6 }
					add_mil_power = 100
				}
				else = {
					change_heir_mil = 1
				}
			}
			if = {
				limit = { has_consort = yes }
				add_country_modifier = {
					name = adenica_hunt_closer_consort_ties
					duration = 3650
				}
			}
		}
		# Brought mages along
		else_if = { limit = { has_country_flag = hunt_mages }
			add_estate_loyalty_modifier = {
				estate = estate_mages
				desc = adenica_mages_loyalty_hunt
				loyalty = 10
				duration = 7300
			}
			define_advisor = {
				type = court_mage
				skill = 2
				discount = yes
			}
		}
		# Brought nobles along
		else_if = { limit = { has_country_flag = hunt_nobles }
			add_estate_loyalty_modifier = {
				estate = estate_nobles
				desc = adenica_nobles_loyalty_hunt
				loyalty = 10
				duration = 7300
			}
			add_adm_power = 50
		}
		# Brought adventurers along
		else_if = { limit = { has_country_flag = hunt_adventurers }
			add_estate_loyalty_modifier = {
				estate = estate_adventurers
				desc = adenica_adventurers_loyalty_hunt
				loyalty = 10
				duration = 7300
			}
			add_mil_power = 50
		}

		# Hunted a cockatrice
		if = { limit = { has_country_flag = hunt_cockatrice }
			add_ruler_modifier = {
				name = adenica_hunted_cockatrice
				duration = -1
			}
		}
		# Hunted a werebear
		else_if = { limit = { has_country_flag = hunt_werebear }
			add_ruler_modifier = {
				name = adenica_hunted_werebear
				duration = -1
			}
		}
		# Hunted an elk
		else_if = { limit = { has_country_flag = hunt_elk }
			add_ruler_modifier = {
				name = adenica_hunted_elk
				duration = -1
			}
		}
		# Hunted a boar
		else_if = { limit = { has_country_flag = hunt_boar }
			add_ruler_modifier = {
				name = adenica_hunted_boar
				duration = -1
			}
		}
	}

	after = {
		clr_country_flag = hunt_boar
		clr_country_flag = hunt_cockatrice
		clr_country_flag = hunt_werebear
		clr_country_flag = hunt_elk
		clr_country_flag = hunt_family
		clr_country_flag = hunt_mages
		clr_country_flag = hunt_nobles
		clr_country_flag = hunt_adventurers
		clr_country_flag = hunt_boar_injured
		clr_country_flag = hunt_boar_horse_saved
		clr_country_flag = hunt_nobles_save
		clr_country_flag = hunt_boar_success
		clr_country_flag = hunt_werebear_adventurer_negotiated
		clr_country_flag = hunt_werebear_dead
		clr_country_flag = hunt_werebear_negotiated
		clr_country_flag = hunt_werebear_negotiations_failed
		clr_country_flag = hunt_cockatrice_mages_save
		clr_country_flag = hunt_cockatrice_fear
		clr_country_flag = hunt_cockatrice_distracted
		clr_country_flag = hunt_cockatrice_injured
	}
}

# Horse picking
country_event = {
	id = flavor_adenica.10
	title = flavor_adenica.10.t
	desc = flavor_adenica.10.d
	picture = LAND_MILITARY_eventPicture
	
	is_triggered_only = yes
	trigger = {
		always = yes
	}
	
	#Adenican Courser
	option = {
		name = flavor_adenica.10.a
		set_country_flag = adenica_courser_picked
	}

	#Arbarani Destrier
	option = {
		name = flavor_adenica.10.b
		set_country_flag = arbarani_destrier_picked
	}

	#Elikhandi Courser
	option = {
		name = flavor_adenica.10.c
		set_country_flag = elikhandi_courser_picked
	}

	#Alenic Rouncey
	option = {
		name = flavor_adenica.10.e
		set_country_flag = alenic_rouncey_picked
	}
	after = {
		country_event = {
			id = flavor_adenica.11
		}
	}
}
# The approach
country_event = {
	id = flavor_adenica.11
	title = flavor_adenica.11.t
	desc = flavor_adenica.11.d
	picture = LAND_MILITARY_eventPicture
	
	fire_only_once = yes
	is_triggered_only = yes
	trigger = {
		always = yes
	}

	#Approach carefully
	option = {
		name = flavor_adenica.11.a
		ai_chance = {
			factor = 50
			modifier = {
				factor = 1.5
				ruler_has_personality = craven_personality
			}
			modifier = {
				factor = 1.5
				ruler_has_personality = careful_personality
			}
		}
		country_event = {
			id = flavor_adenica.12
		}
		
	}
	
	#Approach with boldness
	option = {
		name = flavor_adenica.11.b
		ai_chance = {
			factor = 50
		}
		country_event = {
			id = flavor_adenica.13
		}
		add_estate_loyalty_modifier = {
			estate = estate_adventurers
			desc = adenica_adventurers_loyalty_impressed
			loyalty = 10
			duration = 7300
		}
	}
}
# Give it food?
country_event = {
	id = flavor_adenica.12
	title = flavor_adenica.12.t
	desc = flavor_adenica.12.d
	picture = LAND_MILITARY_eventPicture

	is_triggered_only = yes
	trigger = {
		always = yes
	}

	# A simple carrot
	option = {
		name = flavor_adenica.12.a
		ai_chance = {
			factor = 50
		}
		add_years_of_income = -0.1
		set_country_flag = horse_carrot
	}
	# Treat all the way from Kheterata
	option = {
		name = flavor_adenica.12.b
		ai_chance = {
			factor = 50
		}
		add_years_of_income = -0.5
		if = {
			limit = { has_country_flag = elikhandi_courser_picked }
			set_country_flag = horse_food_success
		}
		else = {
			set_country_flag = horse_kheteratan_treat
		}
	}
	# Sugar cube
	option = {
		name = flavor_adenica.12.c
		ai_chance = {
			factor = 50
		}
		add_years_of_income = -0.3
		set_country_flag = horse_sugar_cube
	}
	# Brush its coat instead
	option = {
		name = flavor_adenica.12.e
		ai_chance = {
			factor = 50
			modifier = {
				factor = 5
				ruler_has_personality = greedy_personality
			}
		}
		set_country_flag = horse_coat_brushed
	}
	after = {
		country_event = {
			id = flavor_adenica.14
		}
	}
}
# Hold for dear life
country_event = {
	id = flavor_adenica.13
	title = flavor_adenica.13.t
	desc = flavor_adenica.13.d
	picture = LAND_MILITARY_eventPicture
	
	is_triggered_only = yes
	trigger = {
		always = yes
	}

	#Hold on
	option = {
		name = flavor_adenica.13.a
		ai_chance = {
			factor = 50
			modifier = {
				factor = 1.5
				mil = 4
			}
			modifier = {
				factor = 0
				ruler_has_personality = craven_personality
			}
			modifier = {
				factor = 0
				ruler_has_personality = careful_personality
			}
		}
		add_prestige = 10
		set_country_flag = horse_hold
		if = {
			limit = {
				mil = 4
				NOT = { mil = 5 }
			}
			random = {
				chance = 25
				add_ruler_modifier = {
					name = adenica_injured
					duration = 1825
				}
			}
		}
		else_if = {
			limit = {
				mil = 5
				NOT = { mil = 6 }
			}
			random = {
				chance = 15
				add_ruler_modifier = {
					name = adenica_injured
					duration = 1825
				}
			}
		}
		else_if = {
			limit = { mil = 6 }
			random = {
				chance = 5
				add_ruler_modifier = {
					name = adenica_injured
					duration = 1825
				}
			}
		}
		else = {
			random = {
				chance = 50
				add_ruler_modifier = {
					name = adenica_injured
					duration = 1825
				}
			}
		}
	}
	#Execute hasty exit
	option = {
		name = flavor_adenica.13.b
		add_prestige = -10
		set_country_flag = horse_drop
		
	}
	after = {
		country_event = {
			id = flavor_adenica.14
		}
	}
}

# Horse result calculations
country_event = {
	id = flavor_adenica.14
	title = flavor_adenica.14.t
	desc = flavor_adenica.14.d
	picture = TOURNAMENT_eventPicture

	is_triggered_only = yes
	hidden = yes

	trigger = {
		always = yes
	}
	
	#Success
	option = {
		name = flavor_adenica.14.a
		ai_chance = {
			factor = 100
			modifier = {
				factor = 1.5
				mil = 3
			}
			modifier = {
				factor = 1.5
				mil = 4
			}
			modifier = {
				factor = 1.5
				mil = 5
			}
			modifier = {
				factor = 1.5
				mil = 6
			}
			modifier = {
				factor = 2
				has_country_flag = horse_hold
				ruler_has_personality = bold_fighter_personality
			}
			modifier = {
				factor = 2
				has_country_flag = horse_hold
				ruler_has_personality = martial_educator_personality
			}
			modifier = {
				factor = 1.75
				has_country_flag = horse_hold
				ruler_has_personality = calm_personality
			}
			modifier = {
				factor = 1.75
				has_country_flag = horse_hold
				ruler_has_personality = strict_personality
			}
			modifier = {
				factor = 2
				has_country_flag = horse_hold
			}
			modifier = {
				factor = 2
				has_country_flag = adenica_courser_picked
				has_country_flag = horse_coat_brushed
			}
			modifier = {
				factor = 10
				has_country_flag = horse_food_success
			}
			modifier = {
				factor = 1.5
				has_country_flag = horse_kheteratan_treat
			}
			modifier = {
				factor = 2
				has_country_flag = horse_sugar_cube
			}
			modifier = {
				factor = 1.5
				has_country_flag = horse_carrot
			}
		}
		country_event = { id = flavor_adenica.15 }
	}
	#Failure
	option = {
		name = flavor_adenica.14.b
		ai_chance = {
			factor = 75
			modifier = {
				factor = 1.5
				mil = 2
				NOT = { mil = 3 }
			}
			modifier = {
				factor = 1.5
				mil = 1
				NOT = { mil = 3 }
			}
			modifier = {
				factor = 1.2
				ruler_age = 40
			}
			modifier = {
				factor = 1.2
				ruler_age = 50
			}
			modifier = {
				factor = 1.2
				ruler_age = 60
			}
			modifier = {
				factor = 1.2
				ruler_age = 70
			}
			modifier = {
				factor = 1.5
				ruler_age = 80
			}
			modifier = {
				factor = 1.5
				has_country_flag = horse_drop
			}
			modifier = {
				factor = 1.5
				has_country_flag = elikhandi_courser_picked
			}
			modifier = {
				factor = 2
				has_country_flag = arbarani_destrier_picked
			}
			modifier = {
				factor = 0
				has_country_flag = alenic_rouncey_picked
			}
		}
		country_event = { id = flavor_adenica.16 }
	}
	after = {
		#Horse death
		country_event = {
			id = flavor_adenica.17
			days = 9125 #25 years
			random = 1825 #5 years
		}
	}
}

# Horse success
country_event = {
	id = flavor_adenica.15
	title = flavor_adenica.15.t
	desc = flavor_adenica.15.d
	picture = LAND_MILITARY_eventPicture
	
	is_triggered_only = yes
	trigger = {
		always = yes
	}
	
	# Adenican Courser
	option = {
		name = flavor_adenica.15.a
		if = {
			limit = {
				has_country_flag = adenica_courser_picked
			}
			add_country_modifier = {
				name = adenica_adenican_courser
				duration = -1
			}
		}
		else_if = {
			limit = {
				has_country_flag = arbarani_destrier_picked
			}
			add_country_modifier = {
				name = adenica_arbarani_destrier
				duration = -1
			}
		}
		else_if = {
			limit = {
				has_country_flag = elikhandi_courser_picked
			}
			add_country_modifier = {
				name = adenica_elikhandi_courser
				duration = -1
			}
		}
		else_if = {
			limit = {
				has_country_flag = alenic_rouncey_picked
			}
			add_country_modifier = {
				name = adenica_alenic_rouncey
				duration = -1
			}
		}
	}
	after = {
		hidden_effect = {
			clr_country_flag = horse_drop
			clr_country_flag = horse_food_success
			clr_country_flag = horse_hold
			clr_country_flag = horse_sugar_cube
			clr_country_flag = horse_carrot
			clr_country_flag = horse_coat_brushed
			clr_country_flag = horse_kheteratan_treat
			clr_country_flag = alenic_rouncey_picked
			clr_country_flag = arbarani_destrier_picked
			clr_country_flag = adenica_courser_picked
			clr_country_flag = elikhandi_courser_picked
		}	
	}
}

# Horse fail
country_event = {
	id = flavor_adenica.16
	title = flavor_adenica.16.t
	desc = flavor_adenica.16.d1
	picture = LAND_MILITARY_eventPicture
	
	is_triggered_only = yes
	trigger = {
		always = yes
	}
	
	# Well, there's always the rouncey...
	option = {
		name = flavor_adenica.16.a
		add_country_modifier = {
			name = adenica_alenic_rouncey
			duration = -1
		}
	}

	after = {
		hidden_effect = {
			clr_country_flag = horse_drop
			clr_country_flag = horse_food_success
			clr_country_flag = horse_hold
			clr_country_flag = horse_sugar_cube
			clr_country_flag = horse_carrot
			clr_country_flag = horse_coat_brushed
			clr_country_flag = horse_kheteratan_treat
			clr_country_flag = alenic_rouncey_picked
			clr_country_flag = arbarani_destrier_picked
			clr_country_flag = adenica_courser_picked
			clr_country_flag = elikhandi_courser_picked
		}	
	}
}

# Horse dies
country_event = {
	id = flavor_adenica.17
	title = flavor_adenica.17.t
	desc = flavor_adenica.17.d
	picture = DEATH_OF_HEIR_eventPicture
	
	is_triggered_only = yes
	trigger = {
		always = yes
	}

	immediate = {
		remove_country_modifier = adenica_adenican_courser
		remove_country_modifier = adenica_arbarani_destrier
		remove_country_modifier = adenica_elikhandi_courser
		remove_country_modifier = adenica_alenic_rouncey
	}

	#Full honors and statue
	option = {
		name = flavor_adenica.17.a
		add_years_of_income = -1.0
		add_prestige = 20
	}
	#Honors
	option = {
		name = flavor_adenica.17.b
		add_years_of_income = -0.5
		add_prestige = 10
	}
	#It was just a horse
	option = {
		name = flavor_adenica.17.c
		add_prestige = -10
	}
}

# Ruler death vow thingy
country_event = {
	id = flavor_adenica.20
	title = flavor_adenica.20.t
	desc = flavor_adenica.20.d
	picture = GOOD_WITH_MONARCH_eventPicture
	
	is_triggered_only = yes
	trigger = {
		always = yes
	}
	
	#Justice
	option = {
		name = flavor_adenica.20.a
		add_ruler_modifier = {
			name = adenica_vow_justice
			duration = -1
		}
	}
	#Temperance
	option = {
		name = flavor_adenica.20.b
		add_ruler_modifier = {
			name = adenica_vow_temperance
			duration = -1
		}
	}
	#Conviction
	option = {
		name = flavor_adenica.20.c
		add_ruler_modifier = {
			name = adenica_vow_conviction
			duration = -1
		}
	}
	#Wisdom
	option = {
		name = flavor_adenica.20.e
		add_ruler_modifier = {
			name = adenica_vow_wisdom
			duration = -1
		}
	}
	#Duty
	option = {
		name = flavor_adenica.20.f
		add_ruler_modifier = {
			name = adenica_vow_duty
			duration = -1
		}
	}
	#Diligence
	option = {
		name = flavor_adenica.20.g
		add_ruler_modifier = {
			name = adenica_vow_diligence
			duration = -1
		}
	}
	#Faith
	option = {
		name = flavor_adenica.20.h
		add_ruler_modifier = {
			name = adenica_vow_faith
			duration = -1
		}
	}
	#Charity
	option = {
		name = flavor_adenica.20.i
		add_ruler_modifier = {
			name = adenica_vow_charity
			duration = -1
		}
	}
	#Valour
	option = {
		name = flavor_adenica.20.j
		add_ruler_modifier = {
			name = adenica_vow_valour
			duration = -1
		}
	}
	#Resolution
	option = {
		name = flavor_adenica.20.k
		add_ruler_modifier = {
			name = adenica_vow_fortitude
			duration = -1
		}
	}
}
# Longlance Knights Academy flavor event
country_event = {
	id = flavor_adenica.21
	title = flavor_adenica.21.t
	desc = flavor_adenica.21.d
	picture = IMPERIAL_EXAMINATION_eventPicture
	
	is_triggered_only = yes
	fire_only_once = yes
	trigger = {
		always = yes
	}
	
	# A great boon for our officer corps
	option = {
		name = flavor_adenica.21.a
		add_mil_power = 50
	}
	# Make the most promising a general
	option = {
		name = flavor_adenica.21.b
		create_general = {
			tradition = 60
			add_manuever = 2
		}
	}
}
# Grand tourney grounds flavor events
country_event = {
	id = flavor_adenica.22
	title = flavor_adenica.22.t
	desc = flavor_adenica.22.d
	picture = TOURNAMENT_eventPicture
	
	is_triggered_only = yes
	trigger = {
		A01 = {
			owns = 67
		}
	}
	
	# Let's not get anyone hurt now...
	option = {
		name = flavor_adenica.22.a
		reverse_add_opinion = {
			who = A01
			modifier = adenica_defused_situation
		}
	}
	# WAIT! Let's see what our knights can do...
	option = {
		name = flavor_adenica.22.b
		hidden_effect = {
			country_event = {
				id = flavor_adenica.23
			}
		}
	}
	# Some friendly wagers, perhaps?
	option = {
		name = flavor_adenica.22.c
		add_years_of_income = -0.5
		hidden_effect = {
			set_country_flag = adenica_wagers
			country_event = {
				id = flavor_adenica.23
			}
		}
	}
	# I will challenge them myself
	option = {
		name = flavor_adenica.22.e
		add_prestige = 10
		hidden_effect = {
			set_country_flag = adenica_tourney_monarch
			hidden_effect = {
				country_event = {
					id = flavor_adenica.23
				}
			}
		}
	}
}
# Calculate success
country_event = {
	id = flavor_adenica.23
	title = flavor_adenica.23.t
	desc = flavor_adenica.23.d
	picture = TRADEGOODS_eventPicture
	
	is_triggered_only = yes
	fire_only_once = yes
	hidden = yes
	trigger = {
		always = yes
	}
	option = {
		name = flavor_adenica.23.a
		trigger = {
			has_country_flag = adenica_tourney_monarch
		}
		ai_chance = {
			factor = 50
			# High military skill
			modifier = {
				factor = 3
				mil = 6
			}
			modifier = {
				factor = 2
				NOT = { mil = 6 }
				mil = 5
			}
			modifier = {
				factor = 1.5
				NOT = { mil = 5 }
				mil = 4
			}
			# Ruler personality
			modifier = {
				factor = 2
				ruler_has_personality = bold_fighter_personality
			}
			modifier = {
				factor = 1.5
				ruler_has_personality = calm_personality
			}
			modifier = {
				factor = 0.5
				ruler_has_personality = craven_personality
			}
		}
		set_country_flag = adenica_tourney_ruler_win
		country_event = {
			id = flavor_adenica.24
		}
	}
	# Adenican knights win
	option = {
		name = flavor_adenica.23.b
		trigger = {
			NOT = { has_country_flag = adenica_tourney_monarch }
		}
		ai_chance = {
			factor = 50
			# We have high army tradition
			modifier = {
				factor = 10
				army_tradition = 99
			}
			modifier = {
				factor = 2
				NOT = { army_tradition = 99 }
				army_tradition = 80
			}
			modifier = {
				factor = 1.5
				NOT = { army_tradition = 80 }
				army_tradition = 60
			}
			# Our cavalry combat ability
			modifier = {
				factor = 3
				has_global_modifier_value = {
					which = cavalry_power
					value = 0.6
				}
			}
			modifier = {
				factor = 2
				has_global_modifier_value = {
					which = cavalry_power
					value = 0.5
				}
				NOT = {
					has_global_modifier_value = {
						which = cavalry_power
						value = 0.6
					}
				}
			}
			modifier = {
				factor = 1.5
				has_global_modifier_value = {
					which = cavalry_power
					value = 0.4
				}
				NOT = {
					has_global_modifier_value = {
						which = cavalry_power
						value = 0.5
					}
				}
			}
		}
		country_event = {
			id = flavor_adenica.24
		}
	}
	# Lorentish knights win
	option = {
		name = flavor_adenica.23.c
		ai_chance = {
			factor = 50
			# Lorent has high army tradition
			modifier = {
				factor = 10
				A01 = {
					army_tradition = 99
				}
			}
			modifier = {
				factor = 2
				A01 = {
					NOT = { army_tradition = 99 }
					army_tradition = 80
				}
			}
			modifier = {
				factor = 1.5
				A01 = {
					NOT = { army_tradition = 80 }
					army_tradition = 60
				}
			}
			modifier = {
				factor = 3
				A01 = {
					has_global_modifier_value = {
						which = cavalry_power
						value = 0.6
					}
				}
			}
			modifier = {
				factor = 2
				A01 = {
					has_global_modifier_value = {
						which = cavalry_power
						value = 0.5
					}
					NOT = {
						has_global_modifier_value = {
							which = cavalry_power
							value = 0.6
						}
					}
				}
			}
			modifier = {
				factor = 1.5
				A01 = {
					has_global_modifier_value = {
						which = cavalry_power
						value = 0.4
					}
					NOT = {
						has_global_modifier_value = {
							which = cavalry_power
							value = 0.5
						}
					}
				}
			}
		}
		country_event = {
			id = flavor_adenica.25
		}
	}
}
# Win the contest
country_event = {
	id = flavor_adenica.24
	title = flavor_adenica.24.t
	# Ruler wins
	desc = {
		trigger = { has_country_flag = adenica_tourney_ruler_win }
		desc = flavor_adenica.24.d1
	}
	# Your knights win
	desc = {
		trigger = {
			NOT = { has_country_flag = adenica_tourney_ruler_win }
		}
		desc = flavor_adenica.24.d2
	}
	picture = TOURNAMENT_eventPicture
	
	fire_only_once = yes
	is_triggered_only = yes
	trigger = {
		always = yes
	}
	
	option = {
		name = flavor_adenica.24.a
		if = {
			limit = { has_country_flag = adenica_tourney_ruler_win }
			add_prestige = 10
		}
		else = {
			add_prestige = 5
		}
		add_army_tradition = 5
		add_country_modifier = {
			name = adenica_superior_knights
			duration = 3650
		}
		if = {
			limit = {
				has_country_flag = adenica_wagers
			}
			add_years_of_income = 1
		}
	}
}
# Lose the contest
country_event = {
	id = flavor_adenica.25
	title = flavor_adenica.25.t
	# You lose
	desc = {
		trigger = { has_country_flag = adenica_tourney_monarch }
		desc = flavor_adenica.25.d1
	}
	# Your knights lose
	desc = {
		trigger = {
			NOT = { has_country_flag = adenica_tourney_monarch }
		}
		desc = flavor_adenica.25.d2
	}
	picture = TOURNAMENT_eventPicture
	
	fire_only_once = yes
	is_triggered_only = yes
	trigger = {
		always = yes
	}
	
	option = {
		name = flavor_adenica.25.a
		add_prestige = -10
	}
}
# Nobles taking oaths # Depreciated cause I'm lazy and can't think up loca anymore
country_event = {
	id = flavor_adenica.30
	title = flavor_adenica.30.t
	desc = flavor_adenica.30.d
	picture = NOBLE_ESTATE_eventPicture
	
	fire_only_once = yes
	is_triggered_only = yes
	trigger = {
		always = yes
	}
	
	option = {
		name = flavor_adenica.30.a
		add_government_reform = adenica_chivalric_oaths
	}
}

# Fully knight
country_event = {
	id = flavor_adenica.40
	title = flavor_adenica.40.t
	desc = flavor_adenica.40.d
	picture = PRINCE_BISHOP_eventPicture
	
	fire_only_once = yes
	is_triggered_only = yes
	trigger = {
		always = yes
	}
	
	option = {
		name = flavor_adenica.40.a
		if = {
			limit = {
				mil = 6
			}
			add_mil_power = 100
		}
		else = {
			change_mil = 1
		}
		if = {
			limit = {
				dip = 6
			}
			add_dip_power = 100
		}
		else = {
			change_dip = 1
		}
		if = {
			limit = {
				adm = 6
			}
			add_adm_power = 100
		}
		else = {
			change_adm = 1
		}
		if = {
			limit = {
				has_ruler_flag = adenica_justice_taken
				has_ruler_flag = adenica_temperance_taken
				has_ruler_flag = adenica_conviction_taken
				has_ruler_flag = adenica_wisdom_taken
				has_ruler_flag = adenica_duty_taken
				has_ruler_flag = adenica_diligence_taken
				has_ruler_flag = adenica_faith_taken
				has_ruler_flag = adenica_charity_taken
				has_ruler_flag = adenica_valour_taken
				has_ruler_flag = adenica_fortitude_taken
			}
			add_country_modifier = {
				name = adenica_mortal_paragon
				duration = -1
			}
			remove_country_modifier = adenica_squire
		}
		else = {
			add_country_modifier = {
				name = adenica_knight
				duration = -1
			}
			remove_country_modifier = adenica_squire
		}
	}
}

# Call to arms - general
#Drum up support
country_event = {
	id = flavor_adenica.50
	title = flavor_adenica.50.t
	desc = flavor_adenica.50.d
	picture = LIBERUM_VETO_eventPicture
	
	fire_only_once = yes
	is_triggered_only = yes
	trigger = {
		always = yes
	}
	
	# Go visit the marsh
	option = {
		name = flavor_adenica.50.a
		set_country_flag = call_to_arms_marsh_general
	}
	# Visit the communities of the central plains
	option = {
		name = flavor_adenica.50.b
		set_country_flag = call_to_arms_horse_general
	}
	# Just a city boi
	option = {
		name = flavor_adenica.50.g
		set_country_flag = call_to_arms_fire_general
	}
	# Go amongst the nobility
	option = {
		name = flavor_adenica.50.c
		highlight = yes
		trigger = {
			mission_completed = adenica_demand_chivalric_oaths
		}
		set_country_flag = call_to_arms_noble_general
	}
	# Visit Orcish communities
	option = {
		name = flavor_adenica.50.e
		highlight = yes
		trigger = {
			any_owned_province = {
				OR = {
					has_province_modifier = orcish_majority_coexisting
					has_province_modifier = orcish_majority_integrated
					has_province_modifier = orcish_minority_coexisting_large
					has_province_modifier = orcish_minority_coexisting_small
					has_province_modifier = orcish_minority_integrated_large
					has_province_modifier = orcish_minority_integrated_small
				}
			}
		}
		set_country_flag = call_to_arms_orc_general
	}
	# Recruit from the Longlance Knights Academy
	option = {
		name = flavor_adenica.50.f
		highlight = yes
		trigger = {
			774 = {
				has_building = adenica_longlance_knights_academy
			}
		}
		set_country_flag = call_to_arms_knight_general
	}
	after = {
		country_event = {
			id = flavor_adenica.51
			days = 30
			random = 15
		}
	}
}

# General found
country_event = {
	id = flavor_adenica.51
	title = flavor_adenica.51.t
	# Marsh
	desc = {
		trigger = {
			has_country_flag = call_to_arms_marsh_general
		}
		desc = flavor_adenica.51.d1
	}
	# Central Plains
	desc = {
		trigger = {
			has_country_flag = call_to_arms_horse_general
		}
		desc = flavor_adenica.51.d2
	}
	# Nobility
	desc = {
		trigger = {
			has_country_flag = call_to_arms_noble_general
		}
		desc = flavor_adenica.51.d3
	}
	# Orcs
	desc = {
		trigger = {
			has_country_flag = call_to_arms_orc_general
		}
		desc = flavor_adenica.51.d4
	}
	# 'Knight'
	desc = {
		trigger = {
			has_country_flag = call_to_arms_knight_general
		}
		desc = flavor_adenica.51.d5
	}
	# Fire
	desc = {
		trigger = {
			has_country_flag = call_to_arms_fire_general
		}
		desc = flavor_adenica.51.d6
	}
	picture = LIBERUM_VETO_eventPicture
	
	fire_only_once = yes
	is_triggered_only = yes
	trigger = {
		always = yes
	}
	
	option = {
		name = flavor_adenica.51.a
		if = {
			limit = {
				has_country_flag = call_to_arms_marsh_general
			}
			define_general = {
				shock = 3
				fire = 2
				manuever = 6
				siege = 0
				name = "Camor the Wily"
				trait = hardy_warrior_personality
			}
		}
		else_if = {
			limit = {
				has_country_flag = call_to_arms_horse_general
			}
			define_general = {
				shock = 5
				fire = 1
				manuever = 5
				siege = 0
				name = "Alisanne 'Saddleborn'"
				female = yes
				trait = born_to_the_saddle_personality
			}
		}
		else_if = {
			limit = {
				has_country_flag = call_to_arms_noble_general
			}
			define_general = {
				shock = 4
				fire = 3
				manuever = 3
				siege = 1
				name = "Cercall the Cautious"
				trait = defensive_planner_personality
			}
		}
		else_if = {
			limit = {
				has_country_flag = call_to_arms_orc_general
			}
			define_general = {
				shock = 6
				fire = 2
				manuever = 2
				siege = 1
				name = "Garm the Cynical"
				trait = master_of_arms_personality
			}
		}
		else_if = {
			limit = {
				has_country_flag = call_to_arms_knight_general
			}
			define_general = {
				shock = 5
				fire = 3
				manuever = 3
				siege = 2
				name = "Adran 'Thunderlance'"
				trait = inspirational_leader_general_personality
			}
		}
		else_if = {
			limit = {
				has_country_flag = call_to_arms_fire_general
			}
			define_general = {
				shock = 1
				fire = 5
				manuever = 2
				siege = 3
				name = "Madala 'Powdersinged'"
				female = yes
				trait = ruthless_personality
			}
		}
	}
}

# Honoring the fallen
country_event = {
	id = flavor_adenica.60
	title = flavor_adenica.60.t
	desc = flavor_adenica.60.d
	picture = DEATH_OF_HEIR_eventPicture
	
	fire_only_once = yes
	is_triggered_only = yes
	trigger = {
		always = yes
	}
	
	# Erect a somber monument
	option = {
		name = flavor_adenica.60.a
		add_years_of_income = -1
		add_adm_power = -50
		add_mil_power = -50
		capital_scope = {
			add_province_modifier = {
				name = adenica_religious_war_monument
				duration = -1
			}
		}
	}
	# Have a grand parade
	option = {
		name = flavor_adenica.60.b
		add_years_of_income = -0.3
		add_country_modifier = {
			name = adenica_religious_war_memories
			duration = 7300
		}
	}
	# A day of celebration and rememberance, forevermore
	option = {
		name = flavor_adenica.60.c
		country_event = {
			id = flavor_adenica.61
		}
	}
}

# This year's festivities
country_event = {
	id = flavor_adenica.61
	title = flavor_adenica.61.t
	desc = flavor_adenica.61.d
	picture = CITY_VIEW_eventPicture
	
	is_triggered_only = yes
	trigger = {
		always = yes
	}
	
	# Tax the visitors
	option = {
		name = flavor_adenica.61.a
		capital_scope = {
			add_province_modifier = {
				name = adenica_holiday_tax
				duration = 1825
			}
		}
		add_adm_power = -25
		add_years_of_income = 0.5
	}
	# Let's just make it as grand as possible
	option = {
		name = flavor_adenica.61.b
		add_prestige = 10
		add_years_of_income = -0.1
	}
	# Time for some recruitment?
	option = {
		name = flavor_adenica.61.c
		add_yearly_manpower = 0.5
		capital_scope = {
			add_province_modifier = {
				name = adenica_holiday_recruitment
				duration = 1825
			}
		}
		add_mil_power = -25
	}
	after = {
		hidden_effect = {
			country_event = {
				id = flavor_adenica.61
				days = 1825 # 5 years
			}
		}
	}
}

# Weapon flavor
country_event = {
	id = flavor_adenica.70
	title = flavor_adenica.70.t
	desc = flavor_adenica.70.d
	picture = TOURNAMENT_eventPicture
	
	fire_only_once = yes
	is_triggered_only = yes
	trigger = {
		always = yes
	}
	
	option = {
		name = flavor_adenica.70.a
		add_country_modifier = {
			name = adenica_skylance_wielder
			duration = -1
		}
	}
}

# Convert Orcs
country_event = {
	id = flavor_adenica.80
	title = flavor_adenica.80.t
	desc = flavor_adenica.80.d
	picture = RELIGIOUS_TURMOIL_eventPicture
	
	is_triggered_only = yes
	trigger = {
		always = yes
	}
	
	#YES
	option = {
		name = flavor_adenica.80.a
		ai_chance = {
			factor = 100
			modifier = {
				factor = 0
				TAG = Z50
			}
		}
		change_religion = regent_court
		random_owned_province = {
			limit = {
				OR = {
					culture_group = orcish
					culture_is_half_orcish = yes
				}
				NOT = { religion = regent_court }
			}
			change_religion = regent_court
		}
		random_owned_province = {
			limit = {
				OR = {
					culture_group = orcish
					culture_is_half_orcish = yes
				}
				NOT = { religion = regent_court }
			}
			change_religion = regent_court
		}
		random_owned_province = {
			limit = {
				OR = {
					culture_group = orcish
					culture_is_half_orcish = yes
				}
				NOT = { religion = regent_court }
			}
			change_religion = regent_court
		}
	}
	#NO
	option = {
		name = flavor_adenica.80.b
		ai_chance = {
			factor = 50
		}
	}
}

# Converting the target country
country_event = {
	id = flavor_adenica.90
	title = flavor_adenica.90.t
	desc = flavor_adenica.90.d
	picture = RELIGIOUS_TURMOIL_eventPicture
	
	is_triggered_only = yes
	trigger = {
		always = yes
	}
	
	# Adm
	option = {
		name = flavor_adenica.90.a
		if = {
			limit = {
				event_target:adenica_converting_target = {
					NOT = { 
						development_in_provinces = {
							value = 50
							OR = {
								religion = corinite
								religion = ravelian
							}
						}
					}
				}
			}
			add_adm_power = -25
		}
		else_if = {
			limit = {
				event_target:adenica_converting_target = {
					development_in_provinces = {
						value = 50
						OR = {
							religion = corinite
							religion = ravelian
						}
					}
					NOT = { 
						development_in_provinces = {
							value = 75
							OR = {
								religion = corinite
								religion = ravelian
							}
						}
					}
				}
			}
			add_adm_power = -50
		}
		else_if = {
			limit = {
				event_target:adenica_converting_target = {
					development_in_provinces = {
						value = 75
						OR = {
							religion = corinite
							religion = ravelian
						}
					}
					NOT = { 
						development_in_provinces = {
							value = 100
							OR = {
								religion = corinite
								religion = ravelian
							}
						}
					}
				}
			}
			add_adm_power = -75
		}
		else_if = {
			limit = {
				event_target:adenica_converting_target = {
					development_in_provinces = {
						value = 100
						OR = {
							religion = corinite
							religion = ravelian
						}
					}
					NOT = { 
						development_in_provinces = {
							value = 150
							OR = {
								religion = corinite
								religion = ravelian
							}
						}
					}
				}
			}
			add_adm_power = -100
		}
		else_if = {
			limit = {
				event_target:adenica_converting_target = {
					development_in_provinces = {
						value = 150
						OR = {
							religion = corinite
							religion = ravelian
						}
					}
					NOT = { 
						development_in_provinces = {
							value = 200
							OR = {
								religion = corinite
								religion = ravelian
							}
						}
					}
				}
			}
			add_adm_power = -150
		}
		else_if = {
			limit = {
				event_target:adenica_converting_target = {
					development_in_provinces = {
						value = 200
						OR = {
							religion = corinite
							religion = ravelian
						}
					}
					NOT = { 
						development_in_provinces = {
							value = 300
							OR = {
								religion = corinite
								religion = ravelian
							}
						}
					}
				}
			}
			add_adm_power = -300
		}
		else_if = {
			limit = {
				event_target:adenica_converting_target = {
					development_in_provinces = {
						value = 300
						OR = {
							religion = corinite
							religion = ravelian
						}
					}
				}
			}
			add_adm_power = -500
		}
		event_target:adenica_converting_target = {
			change_religion = regent_court
			set_ruler_religion = regent_court
			set_consort_religion = regent_court
			set_heir_religion = regent_court
			if = {
				limit = {
					capital_scope = {
						is_reformation_center = yes
					}
				}
				random_owned_province = {
					limit = {
						is_reformation_center = no
					}
					change_religion = regent_court
				}
			}
			else = {
				capital_scope = {
					change_religion = regent_court
				}
			}
			add_country_modifier = {
				name = adenica_conversion_adm
				duration = 3650
			}
			hidden_effect = {
				country_event = {
					id = flavor_adenica.91
					days = 5
				}
			}
		}
		ROOT = {
			add_prestige = -20
		}
	}
	# Dip
	option = {
		name = flavor_adenica.90.b
		if = {
			limit = {
				event_target:adenica_converting_target = {
					NOT = { 
						development_in_provinces = {
							value = 50
							OR = {
								religion = corinite
								religion = ravelian
							}
						}
					}
				}
			}
			add_dip_power = -25
		}
		else_if = {
			limit = {
				event_target:adenica_converting_target = {
					development_in_provinces = {
						value = 50
						OR = {
							religion = corinite
							religion = ravelian
						}
					}
					NOT = { 
						development_in_provinces = {
							value = 75
							OR = {
								religion = corinite
								religion = ravelian
							}
						}
					}
				}
			}
			add_dip_power = -50
		}
		else_if = {
			limit = {
				event_target:adenica_converting_target = {
					development_in_provinces = {
						value = 75
						OR = {
							religion = corinite
							religion = ravelian
						}
					}
					NOT = { 
						development_in_provinces = {
							value = 100
							OR = {
								religion = corinite
								religion = ravelian
							}
						}
					}
				}
			}
			add_dip_power = -75
		}
		else_if = {
			limit = {
				event_target:adenica_converting_target = {
					development_in_provinces = {
						value = 100
						OR = {
							religion = corinite
							religion = ravelian
						}
					}
					NOT = { 
						development_in_provinces = {
							value = 150
							OR = {
								religion = corinite
								religion = ravelian
							}
						}
					}
				}
			}
			add_dip_power = -100
		}
		else_if = {
			limit = {
				event_target:adenica_converting_target = {
					development_in_provinces = {
						value = 150
						OR = {
							religion = corinite
							religion = ravelian
						}
					}
					NOT = { 
						development_in_provinces = {
							value = 200
							OR = {
								religion = corinite
								religion = ravelian
							}
						}
					}
				}
			}
			add_dip_power = -150
		}
		else_if = {
			limit = {
				event_target:adenica_converting_target = {
					development_in_provinces = {
						value = 200
						OR = {
							religion = corinite
							religion = ravelian
						}
					}
					NOT = { 
						development_in_provinces = {
							value = 300
							OR = {
								religion = corinite
								religion = ravelian
							}
						}
					}
				}
			}
			add_dip_power = -300
		}
		else_if = {
			limit = {
				event_target:adenica_converting_target = {
					development_in_provinces = {
						value = 300
						OR = {
							religion = corinite
							religion = ravelian
						}
					}
				}
			}
			add_dip_power = -500
		}
		event_target:adenica_converting_target = {
			change_religion = regent_court
			set_ruler_religion = regent_court
			set_consort_religion = regent_court
			set_heir_religion = regent_court
			if = {
				limit = {
					capital_scope = {
						is_reformation_center = yes
					}
				}
				random_owned_province = {
					limit = {
						is_reformation_center = no
					}
					change_religion = regent_court
				}
			}
			else = {
				capital_scope = {
					change_religion = regent_court
				}
			}
			add_country_modifier = {
				name = adenica_conversion_dip
				duration = 3650
			}
			hidden_effect = {
				country_event = {
					id = flavor_adenica.91
					days = 5
				}
			}
		}
		ROOT = {
			add_prestige = -20
		}
	}
	# Mil
	option = {
		name = flavor_adenica.90.c
		if = {
			limit = {
				event_target:adenica_converting_target = {
					NOT = { 
						development_in_provinces = {
							value = 50
							OR = {
								religion = corinite
								religion = ravelian
							}
						}
					}
				}
			}
			add_mil_power = -25
		}
		else_if = {
			limit = {
				event_target:adenica_converting_target = {
					development_in_provinces = {
						value = 50
						OR = {
							religion = corinite
							religion = ravelian
						}
					}
					NOT = { 
						development_in_provinces = {
							value = 75
							OR = {
								religion = corinite
								religion = ravelian
							}
						}
					}
				}
			}
			add_mil_power = -50
		}
		else_if = {
			limit = {
				event_target:adenica_converting_target = {
					development_in_provinces = {
						value = 75
						OR = {
							religion = corinite
							religion = ravelian
						}
					}
					NOT = { 
						development_in_provinces = {
							value = 100
							OR = {
								religion = corinite
								religion = ravelian
							}
						}
					}
				}
			}
			add_mil_power = -75
		}
		else_if = {
			limit = {
				event_target:adenica_converting_target = {
					development_in_provinces = {
						value = 100
						OR = {
							religion = corinite
							religion = ravelian
						}
					}
					NOT = { 
						development_in_provinces = {
							value = 150
							OR = {
								religion = corinite
								religion = ravelian
							}
						}
					}
				}
			}
			add_mil_power = -100
		}
		else_if = {
			limit = {
				event_target:adenica_converting_target = {
					development_in_provinces = {
						value = 150
						OR = {
							religion = corinite
							religion = ravelian
						}
					}
					NOT = { 
						development_in_provinces = {
							value = 200
							OR = {
								religion = corinite
								religion = ravelian
							}
						}
					}
				}
			}
			add_mil_power = -150
		}
		else_if = {
			limit = {
				event_target:adenica_converting_target = {
					development_in_provinces = {
						value = 200
						OR = {
							religion = corinite
							religion = ravelian
						}
					}
					NOT = { 
						development_in_provinces = {
							value = 300
							OR = {
								religion = corinite
								religion = ravelian
							}
						}
					}
				}
			}
			add_mil_power = -300
		}
		else_if = {
			limit = {
				event_target:adenica_converting_target = {
					development_in_provinces = {
						value = 300
						OR = {
							religion = corinite
							religion = ravelian
						}
					}
				}
			}
			add_mil_power = -500
		}
		event_target:adenica_converting_target = {
			change_religion = regent_court
			set_ruler_religion = regent_court
			set_consort_religion = regent_court
			set_heir_religion = regent_court
			if = {
				limit = {
					capital_scope = {
						is_reformation_center = yes
					}
				}
				random_owned_province = {
					limit = {
						is_reformation_center = no
					}
					change_religion = regent_court
				}
			}
			else = {
				capital_scope = {
					change_religion = regent_court
				}
			}
			add_country_modifier = {
				name = adenica_conversion_mil
				duration = 3650
			}
			hidden_effect = {
				country_event = {
					id = flavor_adenica.91
					days = 5
				}
			}
		}
		ROOT = {
			add_prestige = -20
		}
	}
	# Nevermind
	option = {
		name = flavor_adenica.90.e
	}
}

# Fallback event because countries keep turning back instantly for some reason
country_event = {
	id = flavor_adenica.91
	title = flavor_adenica.91.t
	desc = flavor_adenica.91.d
	picture = IKKO_IKKI_INCIDENT_eventPicture

	is_triggered_only = yes
	trigger = {
		event_target:adenica_converting_target = {
			NOT = { religion = regent_court }
		}
	}
	hidden = yes

	option = {
		event_target:adenica_converting_target = {
			change_religion = regent_court
			set_ruler_religion = regent_court
			set_consort_religion = regent_court
			set_heir_religion = regent_court
		}
	}
}
#Dynasty Naming
country_event = {
	id = flavor_adenica.100
	title = dynasty_setup.1.t
	desc = dynasty_setup.1.d
	picture = {
		trigger = {
			NOT = { has_dlc = "Rights of Man" }
		}
		picture = COURT_eventPicture
	}
	picture = {
		trigger = {
			has_dlc = "Rights of Man"
		}
		picture = ROYAL_COUPLE_FUTURE_eventPicture
	}
	
	fire_only_once = yes
	is_triggered_only = yes
	
	trigger = {
		tag = B58
	}
	
	#Option A
	option = {		
		name = "flavor_adenica.100.a"
		ai_chance = { factor = 40 }	
		define_heir = {
			dynasty = "na Adenner"
			age = 16
			male = yes
			adm = 1
			dip = 1
			mil = 1
			hide_skills = yes
		}
	}
	
	#Option B
	option = {		
		name = "flavor_adenica.100.b"
		ai_chance = { factor = 40 }	
		define_heir = {
			dynasty = "of Taranton"
			age = 16
			male = yes
			adm = 1
			dip = 1
			mil = 1
			hide_skills = yes
		}
	}
	
	#Keep their name
	option = {		
		name = "flavor_adenica.100.c"
		ai_chance = { factor = 20 }	
		define_heir = {
			dynasty = ROOT
			age = 16
			male = yes
			adm = 1
			dip = 1
			mil = 1
			hide_skills = yes
		}
	}
}
