namespace = regent_court
# Regent Court Change Deity Event meant for Long Lived Races
country_event = {
	id = regent_court.1
	title = regent_court.1.t
	desc = regent_court.1.d
	picture = ARTWORK_eventPicture
	
	mean_time_to_happen = {
		years = 100

		modifier = {	#less likely to happen for non long-lived
			factor = 1.5
			NOT = { ruler_has_personality = immortal_personality }
		}
	}
	
	trigger = {
		religion = regent_court
		has_regency = no
		has_consort_regency = no
	}
	
	option = {
		name = regent_court.1.a
		ai_chance = {
			factor = 1
			modifier = {
				factor = 5
				tag = A41	#Damish Temple
				tag = B02	#Corintar
				tag = A10	#Minaran Temple
				tag = H44	#Shining Circle
				tag = H45	#Beggaston
				tag = G94	#Balgabar
				tag = A43	#Ryalan Temple
				tag = A10	#Minaran Temple
				tag = A74	#Nathalaire
				tag = A53	#Aramari Temple
			}
			modifier = {
				factor = 10
				tag = H42	#Onyx Legion
				tag = H43	#Neratica
				tag = B58	#Adenica
			}
		}
	}
	
	option = {
		name = regent_court.1.b
		ai_chance = {
			factor = 1
			modifier = {
				factor = 0.2
				NOT = { stability = 1 }
			}
		}
		
		add_stability = -1
		add_estate_loyalty = {
			estate = estate_church
			loyalty = -10
		}
		
		hidden_effect = {
			country_event = {
				id = regent_court.2
			}
		}
	}
}

country_event = {
	id = regent_court.2
	title = regent_court.2.t
	desc = regent_court.2.d
	picture = ARTWORK_eventPicture
	
	is_triggered_only = yes
	
	option = {
		name = regent_court.2.a
		trigger = {
			ROOT = {
				NOT = { has_personal_deity = castellos }
			}
			NOT = { has_global_flag = "castellos_is_dead" }
		}
		ai_chance = {
			factor = 1
			modifier = {
				factor = 3
				personality = ai_balanced
			}
			modifier = {
				factor = 2
				personality = ai_capitalist
			}
			modifier = {
				factor = 1.2
				government = monarchy
			}
			modifier = {
				factor = 1.5
				culture_group = escanni
			}
		}
		# custom_tooltip = castellos_tooltip
		change_personal_deity = castellos
	}
	
	option = {
		name = regent_court.2.b
		trigger = {
			ROOT = {
				NOT = { has_personal_deity = the_dame }
			}
		}
		ai_chance = {
			factor = 1
			modifier = {
				factor = 2
				personality = ai_capitalist
			}
			modifier = {
				factor = 2
				personality = ai_balanced
			}
			modifier = {
				factor = 1.5
				personality = ai_diplomat
			}
			modifier = {
				factor = 0.5
				personality = ai_militarist
			}
			modifier = {
				factor = 2
				primary_culture = west_damerian	#Kingdom of Dameria dudes
			}
			modifier = {
				factor = 2
				primary_culture = east_damerian
			}
			modifier = {
				factor = 1.3
				primary_culture = vernman
			}
			modifier = {
				factor = 1.3
				primary_culture = pearlsedger	#Lesser boys of the Kingdom of Dameria
			}
			modifier = {
				factor = 5
				tag = A41	#Damish Temple
			}
			modifier = {
				factor = 3
				tag = A85	#Magisterium, I mean she's the goddess of magic after all
			}
			modifier = {
				factor = 2
				culture_group = gnomish
			}
		}
		# custom_tooltip = the_dame_tooltip
		change_personal_deity = the_dame
	}
	
	option = {
		name = regent_court.2.c
		trigger = {
			ROOT = {
				NOT = { has_personal_deity = corin }
			}
			OR = {
				AND = {
					NOT = { is_religion_enabled = corinite }
					NOT = { has_global_flag = "crimson_deluge" }
				}
				has_global_flag = "upgraded_adean_admin"
			}
		}
		ai_chance = {
			factor = 1
			modifier = {
				factor = 3
				personality = ai_militarist
			}	
			modifier = {
				factor = 0.5
				personality = ai_capitalist
			}		
			modifier = {
				factor = 2
				has_reform = adventurer_reform
			}
			modifier = {
				factor = 5
				tag = B02	#Corintar
			}
			modifier = {
				factor = 1.5
				culture_group = escanni
			}
		}
		# custom_tooltip = corin_tooltip
		change_personal_deity = corin
	}
	
	option = {
		name = regent_court.2.n
		trigger = {
			ROOT = {
				NOT = { 
					has_personal_deity = adean
				}
			}
			NOT = {
				has_global_flag = "upgraded_adean_war"
				has_global_flag = "upgraded_adean_admin"
			}
		}
		ai_chance = {
			factor = 1
			modifier = {
				factor = 2
				personality = ai_militarist
			}
			modifier = {
				factor = 0.5
				personality = ai_colonialist
			}
			modifier = {
				factor = 1.5
				culture_group = escanni
			}
			modifier = {
				factor = 1.5
				culture_group = lencori
			}
			modifier = {
				factor = 10 
				tag = B58	#Adenica
			}
		}
		# custom_tooltip = adean_tooltip
		change_personal_deity = adean
	}
	
	option = {
		name = regent_court.2.e
		trigger = {
			ROOT = {
				NOT = { has_personal_deity = munas_moonsinger }
				NOT = { has_country_flag = ibevar_new_faith }
			}
		}
		ai_chance = {
			factor = 1
			modifier = {
				factor = 2
				personality = ai_diplomat
			}
			modifier = {
				factor = 2
				personality = ai_colonialist
			}
			modifier = {
				factor = 0.5
				personality = ai_capitalist
			}
			modifier = {
				factor = 1.5
				primary_culture = west_damerian
			}
			modifier = {
				factor = 1.5
				primary_culture = east_damerian
			}
			modifier = {
				factor = 2
				culture_group = elven
			}
		}
		# custom_tooltip = munas_moonsinger_tooltip
		change_personal_deity = munas_moonsinger
	}
	
	option = {
		name = regent_court.2.e
		trigger = {
			NOT = { has_personal_deity = munas_moonsinger_ibevar }
			has_country_flag = ibevar_new_faith
		}
		ai_chance = {
			factor = 100
		}
		# custom_tooltip = munas_moonsinger_ibevar_tooltip
		change_personal_deity = munas_moonsinger_ibevar
	}
	
	option = {
		name = regent_court.2.f
		trigger = {
			ROOT = {
				NOT = { has_personal_deity = ara }
			}
		}
		ai_chance = {
			factor = 1
			modifier = {
				factor = 3
				personality = ai_capitalist
			}
			modifier = {
				factor = 2
				personality = ai_colonialist
			}
			modifier = {
				factor = 0.5
				personality = ai_militarist
			}
			modifier = {
				factor = 1.2
				government = republic
			}
			modifier = {
				factor = 2
				primary_culture = crownsman
			}
			modifier = {
				factor = 5
				tag = A53	#Aramari Temple
			}
			modifier = {
				factor = 5
				OR = {
					tag = H44 #Shining Circle
					tag = H45 #Beggaston
				}
			}
		}
		# custom_tooltip = ara_tooltip
		change_personal_deity = ara
	}
	
	option = {
		name = regent_court.2.g
		trigger = {
			ROOT = {
				NOT = { has_personal_deity = balgar }
			}
		}
		ai_chance = {
			factor = 1
			modifier = {
				factor = 3
				personality = ai_capitalist
			}
			modifier = {
				factor = 0.5
				personality = ai_militarist
			}
			modifier = {
				factor = 2
				culture_group = dwarven
			}
			modifier = {
				factor = 5
				tag = G94 # Balgabar
			}
			modifier = {
				factor = 1.5
				tag = B36 # Marrhold
			}
		}
		# custom_tooltip = balgar_tooltip
		change_personal_deity = balgar
	}
	
	option = {
		name = regent_court.2.h
		trigger = {
			ROOT = {
				NOT = { has_personal_deity = esmaryal }
			}
		}
		ai_chance = {
			factor = 1
			modifier = {
				factor = 1.5
				personality = ai_diplomat
			}
			modifier = {
				factor = 1.3
				personality = ai_militarist
			}
			modifier = {
				factor = 0.5
				personality = ai_capitalist
			}
			modifier = {
				factor = 2
				primary_culture = esmari
			}
			modifier = {
				factor = 2
				has_heir = no
				government = monarchy
				ruler_age = 40	#old ruler
			}
			modifier = {
				factor = 1.5
				culture_group = halfling
			}
		}
		# custom_tooltip = esmaryal_tooltip
		change_personal_deity = esmaryal
	}
	
	option = {
		name = regent_court.2.i
		trigger = {
			ROOT = {
				NOT = { has_personal_deity = ryala }
			}
		}
		ai_chance = {
			factor = 1
			modifier = {
				factor = 3
				personality = ai_diplomat
			}
			modifier = {
				factor = 0.5
				personality = ai_militarist
			}
			modifier = {
				factor = 1.5
				primary_culture = esmari
			}
			modifier = {
				factor = 5
				tag = A43 # Ryalan Temple
			}
		}
		# custom_tooltip = ryala_tooltip
		change_personal_deity = ryala
	}
	
	option = {
		name = regent_court.2.j
		trigger = {
			ROOT = {
				NOT = { has_personal_deity = minara }
			}
		}
		ai_chance = {
			factor = 1
			modifier = {
				factor = 2
				personality = ai_diplomat
			}
			modifier = {
				factor = 1.5
				personality = ai_militarist
			}
			modifier = {
				factor = 0.5
				personality = ai_balanced
			}
			modifier = {
				factor = 2
				primary_culture = esmari
			}
			modifier = {
				factor = 1.5
				primary_culture = high_lorentish
			}
			modifier = {
				factor = 5
				tag = A10	#Minaran Temple
			}
		}
		# custom_tooltip = minara_tooltip
		change_personal_deity = minara
	}
	
	option = {
		name = regent_court.2.k
		trigger = {
			ROOT = {
				NOT = { has_personal_deity = falah }
			}
		}
		ai_chance = {
			factor = 1
			modifier = {
				factor = 2
				personality = ai_militarist
			}
			modifier = {
				factor = 0.5
				personality = ai_capitalist
			}
			modifier = {
				factor = 1.5
				culture_group = elven
			}
			modifier = {
				factor = 1.2
				culture_group = anbennarian
			}
			modifier = {
				factor = 1.5
				primary_culture = blue_reachman
			}
			modifier = {
				factor = 1.5
				primary_culture = old_alenic
			}
		}
		# custom_tooltip = falah_tooltip
		change_personal_deity = falah
	}
	
	option = {
		name = regent_court.2.l
		trigger = {
			ROOT = {
				NOT = { has_personal_deity = nerat }
			}
		}
		ai_chance = {
			factor = 1
			modifier = {
				factor = 2
				personality = ai_capitalist
			}
			modifier = {
				factor = 2
				personality = ai_militarist
			}
			modifier = {
				factor = 0.5
				personality = ai_diplomat
			}
			modifier = {
				factor = 2
				primary_culture = corvurian
			}
			modifier = {
				factor = 10
				OR = {
					tag = H42 #Onyx Legion
					tag = H43 #Neratica
				}
			}
		}
		# custom_tooltip = nerat_tooltip
		change_personal_deity = nerat
	}
	
	option = {
		name = regent_court.2.m
		trigger = {
			ROOT = {
				NOT = { has_personal_deity = nathalyne }
			}
		}
		ai_chance = {
			factor = 1
			modifier = {
				factor = 2
				personality = ai_capitalist
			}
			modifier = {
				factor = 2
				personality = ai_diplomat
			}
			modifier = {
				factor = 1.2
				government = republic
			}
			modifier = {
				factor = 0.5
				personality = ai_militarist
			}
			modifier = {
				factor = 5
				tag = A74	#Nathalaire
			}
		}
		# custom_tooltip = nathalyne_tooltip
		change_personal_deity = nathalyne
	}
	
	option = {
		name = regent_court.2.n
		trigger = {
			has_global_flag = "upgraded_adean_admin"
			ROOT = {
				NOT = { has_personal_deity = adean_adenica_admin }
			}
		}
		ai_chance = {
			factor = 1
			modifier = {
				factor = 2
				personality = ai_militarist
			}
			modifier = {
				factor = 0.5
				personality = ai_colonialist
			}
			modifier = {
				factor = 2
				culture_group = escanni
			}
			modifier = {
				factor = 1.5
				culture_group = lencori
			}
			modifier = {
				factor = 3
				personality = ai_balanced
			}
			modifier = {
				factor = 2
				personality = ai_capitalist
			}
			modifier = {
				factor = 1.2
				government = monarchy
			}
			modifier = {
				factor = 10 
				tag = B58	#Adenica
			}
		}
		# custom_tooltip = adean_adenica_admin_tooltip
		change_personal_deity = adean_adenica_admin
	}
	
	option = {
		name = regent_court.2.n
		trigger = {
			has_global_flag = "upgraded_adean_war"
			ROOT = {
				NOT = { 
					has_personal_deity = adean_adenica_war
				}
			}
		}
		ai_chance = {
			factor = 1
			modifier = {
				factor = 2
				personality = ai_militarist
			}
			modifier = {
				factor = 0.5
				personality = ai_colonialist
			}
			modifier = {
				factor = 1.5
				culture_group = escanni
			}
			modifier = {
				factor = 1.5
				culture_group = lencori
			}
			modifier = {
				factor = 10 
				tag = B58	#Adenica
			}
		}
		# custom_tooltip = adean_adenica_war_tooltip
		change_personal_deity = adean_adenica_war
	}
}
