namespace = slave_ruler_election


# Succession
country_event = {
	id = slave_ruler_election.0
	title = slave_ruler_election.0.t
	desc = slave_ruler_election.0.d
	picture = THREE_HEIRS_eventPicture

	is_triggered_only = yes
	
	immediate = {
		hidden_effect = {
			random_owned_province = {
				limit = {
					OR = {
						has_owner_culture = yes
						has_owner_accepted_culture = yes
					}
				}
				save_event_target_as = first_ruler_alternative_province
			}
			random_owned_province = {
				limit = {
					OR = {
						has_owner_culture = yes
						has_owner_accepted_culture = yes
					}
					NOT = { culture = event_target:first_ruler_alternative_province }
				}
				save_event_target_as = second_ruler_alternative_province
			}
			random_owned_province = {
				limit = {
					OR = {
						has_owner_culture = yes
						has_owner_accepted_culture = yes
					}
					NOT = { culture = event_target:first_ruler_alternative_province }
					NOT = { culture = event_target:second_ruler_alternative_province }
				}
				save_event_target_as = third_ruler_alternative_province
			}
			random_province = { #Only used if no fitting Circassian province is found below.
				limit = {
					NOT = { owned_by = ROOT } #We cannot own it.
					has_discovered = ROOT #We must know of it
					trade_goods = slaves
					owner = { #They must be willing to sell to us
						religion_group = muslim
						NOT = { war_with = ROOT }
						NOT = { is_rival = ROOT }
						NOT = { is_enemy = ROOT }
					}
					if = {
						limit = { owner = { has_saved_event_target = first_ruler_alternative_province } }
						NOT = { culture = event_target:first_ruler_alternative_province }
					}
					if = {
						limit = {
							owner = { has_saved_event_target = second_ruler_alternative_province }
						}
						NOT = { culture = event_target:second_ruler_alternative_province }
					}
					if = {
						limit = { owner = { has_saved_event_target = third_ruler_alternative_province } }
						NOT = { culture = event_target:third_ruler_alternative_province }
					}
				}
				save_event_target_as = fourth_ruler_alternative_province
			}
			random_province = {
				limit = {
					NOT = { owned_by = ROOT }
					culture = surani
					owner = {
						NOT = { war_with = ROOT }
						NOT = { is_rival = ROOT }
						NOT = { is_enemy = ROOT }
					}
					if = {
						limit = { owner = { has_saved_event_target = first_ruler_alternative_province } }
						NOT = { culture = event_target:first_ruler_alternative_province }
					}
					if = {
						limit = {
							owner = { has_saved_event_target = second_ruler_alternative_province }
						}
						NOT = { culture = event_target:second_ruler_alternative_province }
					}
					if = {
						limit = { owner = { has_saved_event_target = third_ruler_alternative_province } }
						NOT = { culture = event_target:third_ruler_alternative_province }
					}
				}
				save_event_target_as = fourth_ruler_alternative_province
			}
			random_list = {	#Age Tombola
				15 = { set_country_flag = age_1 }
				15 = { set_country_flag = age_2 }
				15 = { set_country_flag = age_3 }
				15 = { set_country_flag = age_4 }
				15 = { set_country_flag = age_5 }
				15 = { set_country_flag = age_6 }
				15 = { set_country_flag = age_7 }
			}
			
			set_variable = {
				which = first_ruler_culture_fraction
				value = 0
			}
			set_variable = {
				which = first_ruler_culture_fraction_counter
				value = 0
			}
			set_variable = {
				which = second_ruler_culture_fraction
				value = 0
			}
			set_variable = {
				which = second_ruler_culture_fraction_counter
				value = 0
			}
			set_variable = {
				which = third_ruler_culture_fraction
				value = 0
			}
			set_variable = {
				which = third_ruler_culture_fraction_counter
				value = 0
			}
			
			every_owned_province = {
				if = { #Candidate 1
					limit = {
						AND = {
							culture = event_target:first_ruler_alternative_province
							is_core = ROOT
							is_state = yes
						} 
					}
					ROOT = {										#ROOT = Country
						export_to_variable = {
							variable_name = first_ruler_culture_fraction_counter
							value = development					# Dev of Province
							who = PREV								# PREV = Province
						}
						change_variable = {
							which = first_ruler_culture_fraction
							which = first_ruler_culture_fraction_counter
						}
					}
				}
				else_if = { #Candidate 2
					limit = {
						AND = {
							culture = event_target:second_ruler_alternative_province
							is_core = ROOT
							is_state = yes
						} 
					}
					ROOT = {										#ROOT = Country
						export_to_variable = {
							variable_name = second_ruler_culture_fraction_counter
							value = development					# Dev of Province
							who = PREV								# PREV = Province
						}
						change_variable = {
							which = second_ruler_culture_fraction
							which = second_ruler_culture_fraction_counter
						}
					}
				}
				else_if = { #Candidate 3
					limit = {
						AND = {
							culture = event_target:third_ruler_alternative_province
							is_core = ROOT
							is_state = yes
						} 
					}
					ROOT = {										#ROOT = Country
						export_to_variable = {
							variable_name = third_ruler_culture_fraction_counter
							value = development					# Dev of Province
							who = PREV								# PREV = Province
						}
						change_variable = {
							which = third_ruler_culture_fraction
							which = third_ruler_culture_fraction_counter
						}
					}
				}
			}
			
			### Set Comparison Variables
			set_variable = {
				which = totalDev
				value = 0
			}
			export_to_variable = {
				variable_name = totalDev
				value = total_development
				who = ROOT
			}
			
			#############################
			##    Calculate %Dev of each Culture
			#############################
			divide_variable = {
				which = first_ruler_culture_fraction
				which = totalDev
			}
			divide_variable = {
				which = second_ruler_culture_fraction
				which = totalDev
			}
			divide_variable = {
				which = third_ruler_culture_fraction
				which = totalDev
			}
		}
	}

	option = {
		name = "slave_ruler_election.0.a"	# Current ruler stays
		ai_chance = {
			factor = 25
			modifier = {
				factor = 0.01
				event_target:first_ruler_alternative_province = { culture = ROOT }
			}
		}
		trigger = {
			has_saved_event_target = first_ruler_alternative_province
		}
		trigger_switch = {
			on_trigger = has_country_flag
			age_1 = {
				define_ruler = {
					culture = event_target:first_ruler_alternative_province
					hide_skills = yes
					age = 30
				}
			}
			age_2 = {
				define_ruler = {
					culture = event_target:first_ruler_alternative_province
					hide_skills = yes
					age = 32
				}
			}
			age_3 = {
				define_ruler = {
					culture = event_target:first_ruler_alternative_province
					hide_skills = yes
					age = 35
				}
			}
			age_4 = {
				define_ruler = {
					culture = event_target:first_ruler_alternative_province
					hide_skills = yes
					age = 40
				}
			}
			age_5 = {
				define_ruler = {
					culture = event_target:first_ruler_alternative_province
					hide_skills = yes
					age = 42
				}
			}
			age_6 = {
				define_ruler = {
					culture = event_target:first_ruler_alternative_province
					hide_skills = yes
					age = 45
				}
			}
			age_7 = {
				define_ruler = {
					culture = event_target:first_ruler_alternative_province
					hide_skills = yes
					age = 50
				}
			}
		}
		
		# Subtract republican tradition
		if = {
			limit = { 
				check_variable = {
					which = first_ruler_culture_fraction
					value = 1
				}
			}
			add_republican_tradition = -50
		}
		else_if = {
			limit = { 
				check_variable = {
					which = first_ruler_culture_fraction
					value = 0.95
				}
			}
			add_republican_tradition = -47.5
		}
		else_if = {
			limit = { 
				check_variable = {
					which = first_ruler_culture_fraction
					value = 0.9
				}
			}
			add_republican_tradition = -45
		}
		else_if = {
			limit = { 
				check_variable = {
					which = first_ruler_culture_fraction
					value = 0.85
				}
			}
			add_republican_tradition = -42.5
		}
		else_if = {
			limit = { 
				check_variable = {
					which = first_ruler_culture_fraction
					value = 0.8
				}
			}
			add_republican_tradition = -40
		}
		else_if = {
			limit = { 
				check_variable = {
					which = first_ruler_culture_fraction
					value = 0.75
				}
			}
			add_republican_tradition = -37.5
		}
		else_if = {
			limit = { 
				check_variable = {
					which = first_ruler_culture_fraction
					value = 0.7
				}
			}
			add_republican_tradition = -35
		}
		else_if = {
			limit = { 
				check_variable = {
					which = first_ruler_culture_fraction
					value = 0.65
				}
			}
			add_republican_tradition = -32.5
		}
		else_if = {
			limit = { 
				check_variable = {
					which = first_ruler_culture_fraction
					value = 0.6
				}
			}
			add_republican_tradition = -30
		}
		else_if = {
			limit = { 
				check_variable = {
					which = first_ruler_culture_fraction
					value = 0.55
				}
			}
			add_republican_tradition = -27.5
		}
		else_if = {
			limit = { 
				check_variable = {
					which = first_ruler_culture_fraction
					value = 0.5
				}
			}
			add_republican_tradition = -25
		}
		else_if = {
			limit = { 
				check_variable = {
					which = first_ruler_culture_fraction
					value = 0.45
				}
			}
			add_republican_tradition = -22.5
		}
		else_if = {
			limit = { 
				check_variable = {
					which = first_ruler_culture_fraction
					value = 0.4
				}
			}
			add_republican_tradition = -20
		}
		else_if = {
			limit = { 
				check_variable = {
					which = first_ruler_culture_fraction
					value = 0.35
				}
			}
			add_republican_tradition = -17.5
		}
		else_if = {
			limit = { 
				check_variable = {
					which = first_ruler_culture_fraction
					value = 0.3
				}
			}
			add_republican_tradition = -15
		}
		else_if = {
			limit = { 
				check_variable = {
					which = first_ruler_culture_fraction
					value = 0.25
				}
			}
			add_republican_tradition = -12.5
		}
		else_if = {
			limit = { 
				check_variable = {
					which = first_ruler_culture_fraction
					value = 0.2
				}
			}
			add_republican_tradition = -10
		}
		else_if = {
			limit = { 
				check_variable = {
					which = first_ruler_culture_fraction
					value = 0.15
				}
			}
			add_republican_tradition = -7.5
		}
		else_if = {
			limit = { 
				check_variable = {
					which = first_ruler_culture_fraction
					value = 0.1
				}
			}
			add_republican_tradition = -5
		}
		else_if = {
			limit = { 
				check_variable = {
					which = first_ruler_culture_fraction
					value = 0.05
				}
			}
			add_republican_tradition = -2.5
		}
	}
	option = {
		name = "slave_ruler_election.0.b"	# An administrator type
		ai_chance = {
			factor = 25
			modifier = {
				factor = 0.01
				event_target:second_ruler_alternative_province = { culture = ROOT }
			}
		}
		trigger = {
			has_saved_event_target = second_ruler_alternative_province
		}
		trigger_switch = {
			on_trigger = has_country_flag
			age_7 = {
				define_ruler = {
					culture = event_target:second_ruler_alternative_province
					hide_skills = yes
					age = 30
				}
			}
			age_6 = {
				define_ruler = {
					culture = event_target:second_ruler_alternative_province
					hide_skills = yes
					age = 32
				}
			}
			age_5 = {
				define_ruler = {
					culture = event_target:second_ruler_alternative_province
					hide_skills = yes
					age = 35
				}
			}
			age_3 = {
				define_ruler = {
					culture = event_target:second_ruler_alternative_province
					hide_skills = yes
					age = 40
				}
			}
			age_4 = {
				define_ruler = {
					culture = event_target:second_ruler_alternative_province
					hide_skills = yes
					age = 42
				}
			}
			age_2 = {
				define_ruler = {
					culture = event_target:second_ruler_alternative_province
					hide_skills = yes
					age = 45
				}
			}
			age_1 = {
				define_ruler = {
					culture = event_target:second_ruler_alternative_province
					hide_skills = yes
					age = 50
				}
			}
		}
		
		# Subtract republican tradition
		if = {
			limit = { 
				check_variable = {
					which = second_ruler_culture_fraction
					value = 1
				}
			}
			add_republican_tradition = -50
		}
		else_if = {
			limit = { 
				check_variable = {
					which = second_ruler_culture_fraction
					value = 0.95
				}
			}
			add_republican_tradition = -47.5
		}
		else_if = {
			limit = { 
				check_variable = {
					which = second_ruler_culture_fraction
					value = 0.9
				}
			}
			add_republican_tradition = -45
		}
		else_if = {
			limit = { 
				check_variable = {
					which = second_ruler_culture_fraction
					value = 0.85
				}
			}
			add_republican_tradition = -42.5
		}
		else_if = {
			limit = { 
				check_variable = {
					which = second_ruler_culture_fraction
					value = 0.8
				}
			}
			add_republican_tradition = -40
		}
		else_if = {
			limit = { 
				check_variable = {
					which = second_ruler_culture_fraction
					value = 0.75
				}
			}
			add_republican_tradition = -37.5
		}
		else_if = {
			limit = { 
				check_variable = {
					which = second_ruler_culture_fraction
					value = 0.7
				}
			}
			add_republican_tradition = -35
		}
		else_if = {
			limit = { 
				check_variable = {
					which = second_ruler_culture_fraction
					value = 0.65
				}
			}
			add_republican_tradition = -32.5
		}
		else_if = {
			limit = { 
				check_variable = {
					which = second_ruler_culture_fraction
					value = 0.6
				}
			}
			add_republican_tradition = -30
		}
		else_if = {
			limit = { 
				check_variable = {
					which = second_ruler_culture_fraction
					value = 0.55
				}
			}
			add_republican_tradition = -27.5
		}
		else_if = {
			limit = { 
				check_variable = {
					which = second_ruler_culture_fraction
					value = 0.5
				}
			}
			add_republican_tradition = -25
		}
		else_if = {
			limit = { 
				check_variable = {
					which = second_ruler_culture_fraction
					value = 0.45
				}
			}
			add_republican_tradition = -22.5
		}
		else_if = {
			limit = { 
				check_variable = {
					which = second_ruler_culture_fraction
					value = 0.4
				}
			}
			add_republican_tradition = -20
		}
		else_if = {
			limit = { 
				check_variable = {
					which = second_ruler_culture_fraction
					value = 0.35
				}
			}
			add_republican_tradition = -17.5
		}
		else_if = {
			limit = { 
				check_variable = {
					which = second_ruler_culture_fraction
					value = 0.3
				}
			}
			add_republican_tradition = -15
		}
		else_if = {
			limit = { 
				check_variable = {
					which = second_ruler_culture_fraction
					value = 0.25
				}
			}
			add_republican_tradition = -12.5
		}
		else_if = {
			limit = { 
				check_variable = {
					which = second_ruler_culture_fraction
					value = 0.2
				}
			}
			add_republican_tradition = -10
		}
		else_if = {
			limit = { 
				check_variable = {
					which = second_ruler_culture_fraction
					value = 0.15
				}
			}
			add_republican_tradition = -7.5
		}
		else_if = {
			limit = { 
				check_variable = {
					which = second_ruler_culture_fraction
					value = 0.1
				}
			}
			add_republican_tradition = -5
		}
		else_if = {
			limit = { 
				check_variable = {
					which = second_ruler_culture_fraction
					value = 0.05
				}
			}
			add_republican_tradition = -2.5
		}
	}
	option = {
		name = "slave_ruler_election.0.c"
		trigger = {
			has_saved_event_target = third_ruler_alternative_province
		}
		ai_chance = {
			factor = 25
			modifier = {
				factor = 0.01
				event_target:third_ruler_alternative_province = { culture = ROOT }
			}
		}
		
		trigger_switch = {
			on_trigger = has_country_flag
			age_6 = {
				define_ruler = {
					culture = event_target:third_ruler_alternative_province
					hide_skills = yes
					age = 30
				}
			}
			age_3 = {
				define_ruler = {
					culture = event_target:third_ruler_alternative_province
					hide_skills = yes
					age = 32
				}
			}
			age_2 = {
				define_ruler = {
					culture = event_target:third_ruler_alternative_province
					hide_skills = yes
					age = 35
				}
			}
			age_5 = {
				define_ruler = {
					culture = event_target:third_ruler_alternative_province
					hide_skills = yes
					age = 40
				}
			}
			age_1 = {
				define_ruler = {
					culture = event_target:third_ruler_alternative_province
					hide_skills = yes
					age = 42
				}
			}
			age_7 = {
				define_ruler = {
					culture = event_target:third_ruler_alternative_province
					hide_skills = yes
					age = 45
				}
			}
			age_4 = {
				define_ruler = {
					culture = event_target:third_ruler_alternative_province
					hide_skills = yes
					age = 50
				}
			}
		}
		
		# Subtract republican tradition
		if = {
			limit = { 
				check_variable = {
					which = third_ruler_culture_fraction
					value = 1
				}
			}
			add_republican_tradition = -50
		}
		else_if = {
			limit = { 
				check_variable = {
					which = third_ruler_culture_fraction
					value = 0.95
				}
			}
			add_republican_tradition = -47.5
		}
		else_if = {
			limit = { 
				check_variable = {
					which = third_ruler_culture_fraction
					value = 0.9
				}
			}
			add_republican_tradition = -45
		}
		else_if = {
			limit = { 
				check_variable = {
					which = third_ruler_culture_fraction
					value = 0.85
				}
			}
			add_republican_tradition = -42.5
		}
		else_if = {
			limit = { 
				check_variable = {
					which = third_ruler_culture_fraction
					value = 0.8
				}
			}
			add_republican_tradition = -40
		}
		else_if = {
			limit = { 
				check_variable = {
					which = third_ruler_culture_fraction
					value = 0.75
				}
			}
			add_republican_tradition = -37.5
		}
		else_if = {
			limit = { 
				check_variable = {
					which = third_ruler_culture_fraction
					value = 0.7
				}
			}
			add_republican_tradition = -35
		}
		else_if = {
			limit = { 
				check_variable = {
					which = third_ruler_culture_fraction
					value = 0.65
				}
			}
			add_republican_tradition = -32.5
		}
		else_if = {
			limit = { 
				check_variable = {
					which = third_ruler_culture_fraction
					value = 0.6
				}
			}
			add_republican_tradition = -30
		}
		else_if = {
			limit = { 
				check_variable = {
					which = third_ruler_culture_fraction
					value = 0.55
				}
			}
			add_republican_tradition = -27.5
		}
		else_if = {
			limit = { 
				check_variable = {
					which = third_ruler_culture_fraction
					value = 0.5
				}
			}
			add_republican_tradition = -25
		}
		else_if = {
			limit = { 
				check_variable = {
					which = third_ruler_culture_fraction
					value = 0.45
				}
			}
			add_republican_tradition = -22.5
		}
		else_if = {
			limit = { 
				check_variable = {
					which = third_ruler_culture_fraction
					value = 0.4
				}
			}
			add_republican_tradition = -20
		}
		else_if = {
			limit = { 
				check_variable = {
					which = third_ruler_culture_fraction
					value = 0.35
				}
			}
			add_republican_tradition = -17.5
		}
		else_if = {
			limit = { 
				check_variable = {
					which = third_ruler_culture_fraction
					value = 0.3
				}
			}
			add_republican_tradition = -15
		}
		else_if = {
			limit = { 
				check_variable = {
					which = third_ruler_culture_fraction
					value = 0.25
				}
			}
			add_republican_tradition = -12.5
		}
		else_if = {
			limit = { 
				check_variable = {
					which = third_ruler_culture_fraction
					value = 0.2
				}
			}
			add_republican_tradition = -10
		}
		else_if = {
			limit = { 
				check_variable = {
					which = third_ruler_culture_fraction
					value = 0.15
				}
			}
			add_republican_tradition = -7.5
		}
		else_if = {
			limit = { 
				check_variable = {
					which = third_ruler_culture_fraction
					value = 0.1
				}
			}
			add_republican_tradition = -5
		}
		else_if = {
			limit = { 
				check_variable = {
					which = third_ruler_culture_fraction
					value = 0.05
				}
			}
			add_republican_tradition = -2.5
		}
	}
	option = {
		name = "slave_ruler_election.0.dd"	# A circassian warrior
		ai_chance = {
			factor = 25
			modifier = {
				factor = 0.01
				event_target:fourth_ruler_alternative_province = { culture = ROOT }
			}
		}
		trigger = {
			has_saved_event_target = fourth_ruler_alternative_province
		}
		add_army_tradition = 15
		trigger_switch = {
			on_trigger = has_country_flag
			age_7 = {
				define_ruler = {
					culture = event_target:fourth_ruler_alternative_province
					hide_skills = yes
					age = 30
				}
			}
			age_5 = {
				define_ruler = {
					culture = event_target:fourth_ruler_alternative_province
					hide_skills = yes
					age = 32
				}
			}
			age_4 = {
				define_ruler = {
					culture = event_target:fourth_ruler_alternative_province
					hide_skills = yes
					age = 35
				}
			}
			age_2 = {
				define_ruler = {
					culture = event_target:fourth_ruler_alternative_province
					hide_skills = yes
					age = 40
				}
			}
			age_3 = {
				define_ruler = {
					culture = event_target:fourth_ruler_alternative_province
					hide_skills = yes
					age = 42
				}
			}
			age_1 = {
				define_ruler = {
					culture = event_target:fourth_ruler_alternative_province
					hide_skills = yes
					age = 45
				}
			}
			age_6 = {
				define_ruler = {
					culture = event_target:fourth_ruler_alternative_province
					hide_skills = yes
					age = 50
				}
			}
		}
	}
	after = {
		trigger_switch = {
			on_trigger = has_country_flag
			age_1 = { clr_country_flag = age_1 }
			age_3 = { clr_country_flag = age_3 }
			age_2 = { clr_country_flag = age_2 }
			age_5 = { clr_country_flag = age_5 }
			age_6 = { clr_country_flag = age_6 }
			age_7 = { clr_country_flag = age_7 }
			age_4 = { clr_country_flag = age_4 }
		}
	}
}